\relax 
\providecommand\HyperFirstAtBeginDocument{\AtBeginDocument}
\HyperFirstAtBeginDocument{\ifx\hyper@anchor\@undefined
\global\let\oldcontentsline\contentsline
\gdef\contentsline#1#2#3#4{\oldcontentsline{#1}{#2}{#3}}
\global\let\oldnewlabel\newlabel
\gdef\newlabel#1#2{\newlabelxx{#1}#2}
\gdef\newlabelxx#1#2#3#4#5#6{\oldnewlabel{#1}{{#2}{#3}}}
\AtEndDocument{\ifx\hyper@anchor\@undefined
\let\contentsline\oldcontentsline
\let\newlabel\oldnewlabel
\fi}
\fi}
\global\let\hyper@last\relax 
\gdef\HyperFirstAtBeginDocument#1{#1}
\providecommand\HyField@AuxAddToFields[1]{}
\@writefile{lof}{\contentsline {figure}{\numberline {1}{\ignorespaces  top: raw scores, bottom: pca scores\relax }}{2}{figure.caption.6}}
\providecommand*\caption@xref[2]{\@setref\relax\@undefined{#1}}
\newlabel{fig:rawscores}{{1}{2}{top: raw scores, bottom: pca scores\relax \relax }{figure.caption.6}{}}
\@writefile{lof}{\contentsline {figure}{\numberline {2}{\ignorespaces  the 7th highest variance feature - blue:Josquin, red:La Rue\relax }}{3}{figure.caption.8}}
\newlabel{fig:charfeature}{{2}{3}{the 7th highest variance feature - blue:Josquin, red:La Rue\relax \relax }{figure.caption.8}{}}
\newlabel{fig:rue}{{3a}{3}{La Rue training error\relax \relax }{figure.caption.9}{}}
\newlabel{sub@fig:rue}{{a}{3}{La Rue training error\relax \relax }{figure.caption.9}{}}
\newlabel{fig:ock}{{3b}{3}{Ockeghem training error\relax \relax }{figure.caption.9}{}}
\newlabel{sub@fig:ock}{{b}{3}{Ockeghem training error\relax \relax }{figure.caption.9}{}}
\newlabel{fig:trainerror}{{\caption@xref {fig:trainerror}{ on input line 116}}{3}{Algorithms and Cross-Validation\relax }{figure.caption.9}{}}
\newlabel{LastPage}{{}{5}{}{page.5}{}}
\xdef\lastpage@lastpage{5}
\xdef\lastpage@lastpageHy{5}
