%%idx	%%line	%%bar	%%beat	%%abs	%%b40	%%attk	%%last	%%next	%%b40	%%attk	%%last	%%next	%%b40	%%attk	%%last	%%next
0	2000	3000	4000	5000	1040	7100	7200	7300	1040	7100	7200	7300	1040	7100	7200	7300
1	19	1	1	0	122	1	-1	2	0	1	-1	11	0	1	-1	22
2	20	1	1.25	0.25	128	2	1	3	0	1	-1	11	0	1	-1	22
3	21	1	1.5	0.5	134	3	2	4	0	1	-1	11	0	1	-1	22
4	22	1	1.75	0.75	139	4	3	5	0	1	-1	11	0	1	-1	22
5	23	1	2	1	145	5	4	6	0	1	-1	11	0	1	-1	22
6	24	1	2.5	1.5	151	6	5	8	0	1	-1	11	0	1	-1	22
7	26	2	3	2	-151	6	5	8	0	1	-1	11	0	1	-1	22
8	27	2	3.25	2.25	145	8	6	9	0	1	-1	11	0	1	-1	22
9	28	2	3.5	2.5	162	9	8	10	0	1	-1	11	0	1	-1	22
10	29	2	4.5	3.5	157	10	9	11	0	1	-1	11	0	1	-1	22
11	31	3	5	4	162	11	10	15	122	11	1	12	0	1	-1	22
12	32	3	5.25	4.25	-162	11	10	15	128	12	11	13	0	1	-1	22
13	33	3	5.5	4.5	-162	11	10	15	134	13	12	14	0	1	-1	22
14	34	3	5.75	4.75	-162	11	10	15	139	14	13	15	0	1	-1	22
15	35	3	6	5	0	15	11	16	145	15	14	16	0	1	-1	22
16	36	3	6.5	5.5	139	16	15	19	151	16	15	18	0	1	-1	22
17	38	4	7	6	-139	16	15	19	-151	16	15	18	0	1	-1	22
18	39	4	7.25	6.25	-139	16	15	19	145	18	16	19	0	1	-1	22
19	40	4	7.5	6.5	134	19	16	20	162	19	18	21	0	1	-1	22
20	41	4	8	7	128	20	19	22	-162	19	18	21	0	1	-1	22
21	42	4	8.5	7.5	-128	20	19	22	157	21	19	22	0	1	-1	22
22	44	5	1	8	122	22	20	25	162	22	21	31	162	22	1	23
23	45	5	1.25	8.25	-122	22	20	25	-162	22	21	31	168	23	22	24
24	46	5	1.5	8.5	-122	22	20	25	-162	22	21	31	174	24	23	25
25	47	5	1.75	8.75	128	25	22	26	-162	22	21	31	179	25	24	26
26	48	5	2	9	134	26	25	27	-162	22	21	31	185	26	25	27
27	49	5	2.5	9.5	139	27	26	29	-162	22	21	31	191	27	26	29
28	51	6	3	10	-139	27	26	29	-162	22	21	31	-191	27	26	29
29	52	6	3.25	10.25	134	29	27	30	-162	22	21	31	185	29	27	30
30	53	6	3.5	10.5	151	30	29	31	-162	22	21	31	202	30	29	32
31	54	6	4	11	145	31	30	33	168	31	22	33	-202	30	29	32
32	55	6	4.5	11.5	-145	31	30	33	-168	31	22	33	197	32	30	33
33	57	7	5	12	122	33	31	34	174	33	31	35	202	33	32	35
34	58	7	6	13	0	34	33	37	-174	33	31	35	-202	33	32	35
35	59	7	6.5	13.5	0	34	33	37	168	35	33	37	197	35	33	36
36	60	7	6.75	13.75	0	34	33	37	-168	35	33	37	191	36	35	37
37	62	8	7	14	151	37	34	39	174	37	35	38	202	37	36	38
38	63	8	7.5	14.5	-151	37	34	39	179	38	37	39	208	38	37	39
39	64	8	8	15	145	39	37	40	185	39	38	40	197	39	38	40
40	65	8	8.5	15.5	151	40	39	42	174	40	39	41	202	40	39	42
41	67	9	1	16	-151	40	39	42	179	41	40	46	-202	40	39	42
42	68	9	1.25	16.25	145	42	40	43	-179	41	40	46	197	42	40	43
43	69	9	1.5	16.5	139	43	42	44	-179	41	40	46	191	43	42	44
44	70	9	1.75	16.75	134	44	43	45	-179	41	40	46	185	44	43	45
45	71	9	2	17	128	45	44	46	-179	41	40	46	191	45	44	46
46	72	9	2.5	17.5	151	46	45	48	174	46	41	47	202	46	45	48
47	74	10	3	18	-151	46	45	48	179	47	46	52	-202	46	45	48
48	75	10	3.25	18.25	145	48	46	49	-179	47	46	52	197	48	46	49
49	76	10	3.5	18.5	139	49	48	50	-179	47	46	52	191	49	48	50
50	77	10	3.75	18.75	134	50	49	51	-179	47	46	52	185	50	49	51
51	78	10	4	19	128	51	50	52	-179	47	46	52	191	51	50	52
52	79	10	4.5	19.5	151	52	51	54	174	52	47	53	202	52	51	54
53	81	11	5	20	-151	52	51	54	179	53	52	55	-202	52	51	54
54	82	11	5.25	20.25	145	54	52	55	-179	53	52	55	197	54	52	55
55	83	11	5.5	20.5	139	55	54	56	185	55	53	58	191	55	54	56
56	84	11	5.75	20.75	134	56	55	57	-185	55	53	58	185	56	55	57
57	85	11	6	21	128	57	56	59	-185	55	53	58	191	57	56	59
58	86	11	6.5	21.5	-128	57	56	59	180	58	55	59	-191	57	56	59
59	88	12	7	22	145	59	57	60	185	59	58	63	185	59	57	67
60	89	12	7.75	22.75	151	60	59	61	-185	59	58	63	-185	59	57	67
61	90	12	8	23	157	61	60	62	-185	59	58	63	-185	59	57	67
62	91	12	8.5	23.5	162	62	61	63	-185	59	58	63	-185	59	57	67
63	93	13	1	24	145	63	62	64	0	63	59	65	-185	59	57	67
64	94	13	1.75	24.75	151	64	63	65	0	63	59	65	-185	59	57	67
65	95	13	2	25	157	65	64	66	145	65	63	67	-185	59	57	67
66	96	13	2.5	25.5	134	66	65	67	-145	65	63	67	-185	59	57	67
67	98	14	3	26	139	67	66	68	151	67	65	68	0	67	59	72
68	99	14	3.75	26.75	134	68	67	69	145	68	67	69	0	67	59	72
69	100	14	4	27	128	69	68	71	151	69	68	70	0	67	59	72
70	101	14	4.5	27.5	-128	69	68	71	157	70	69	71	0	67	59	72
71	103	15	5	28	151	71	69	73	162	71	70	73	0	67	59	72
72	104	15	6	29	-151	71	69	73	-162	71	70	73	162	72	67	73
73	106	16	7	30	145	73	71	77	0	73	71	78	168	73	72	74
74	107	16	7.75	30.75	-145	73	71	77	0	73	71	78	162	74	73	75
75	108	16	8	31	-145	73	71	77	0	73	71	78	168	75	74	76
76	109	16	8.5	31.5	-145	73	71	77	0	73	71	78	174	76	75	77
77	111	17	1	32	139	77	73	79	0	73	71	78	179	77	76	79
78	112	17	2	33	-139	77	73	79	151	78	73	79	-179	77	76	79
79	114	18	3	34	134	79	77	83	157	79	78	80	0	79	77	84
80	115	18	3.75	34.75	-134	79	77	83	151	80	79	81	0	79	77	84
81	116	18	4	35	-134	79	77	83	157	81	80	82	0	79	77	84
82	117	18	4.5	35.5	-134	79	77	83	162	82	81	83	0	79	77	84
83	119	19	5	36	157	83	79	85	168	83	82	85	0	79	77	84
84	120	19	6	37	-157	83	79	85	-168	83	82	85	168	84	79	85
85	122	20	7	38	151	85	83	89	0	85	83	90	174	85	84	86
86	123	20	7.75	38.75	-151	85	83	89	0	85	83	90	168	86	85	87
87	124	20	8	39	-151	85	83	89	0	85	83	90	174	87	86	88
88	125	20	8.5	39.5	-151	85	83	89	0	85	83	90	179	88	87	89
89	127	21	1	40	145	89	85	91	0	85	83	90	185	89	88	91
90	128	21	2	41	-145	89	85	91	157	90	85	91	-185	89	88	91
91	130	22	3	42	139	91	89	95	162	91	90	92	0	91	89	96
92	131	22	3.75	42.75	-139	91	89	95	157	92	91	93	0	91	89	96
93	132	22	4	43	-139	91	89	95	162	93	92	94	0	91	89	96
94	133	22	4.5	43.5	-139	91	89	95	168	94	93	95	0	91	89	96
95	135	23	5	44	134	95	91	97	174	95	94	97	0	91	89	96
96	136	23	6	45	-134	95	91	97	-174	95	94	97	185	96	91	97
97	138	24	7	46	0	97	95	99	168	97	95	100	191	97	96	98
98	139	24	7.75	46.75	0	97	95	99	-168	97	95	100	185	98	97	99
99	140	24	8	47	128	99	97	102	-168	97	95	100	191	99	98	100
100	141	24	8.5	47.5	-128	99	97	102	162	100	97	101	197	100	99	102
101	142	24	8.75	47.75	-128	99	97	102	157	101	100	102	-197	100	99	102
102	144	25	1	48	151	102	99	103	151	102	101	103	202	102	100	103
103	145	25	2	49	157	103	102	104	145	103	102	104	208	103	102	105
104	147	26	3	50	145	104	103	107	185	104	103	107	-208	103	102	105
105	148	26	3.5	50.5	-145	104	103	107	-185	104	103	107	202	105	103	106
106	149	26	4	51	-145	104	103	107	-185	104	103	107	197	106	105	107
107	150	26	4.5	51.5	151	107	104	108	179	107	104	109	191	107	106	109
108	151	26	4.75	51.75	157	108	107	109	-179	107	104	109	-191	107	106	109
109	153	27	5	52	162	109	108	111	174	109	107	110	185	109	107	111
110	154	27	5.5	52.5	-162	109	108	111	168	110	109	111	-185	109	107	111
111	155	27	6	53	151	111	109	112	162	111	110	112	202	111	109	113
112	157	28	7	54	145	112	111	117	168	112	111	116	-202	111	109	113
113	158	28	7.5	54.5	-145	112	111	117	-168	112	111	116	197	113	111	114
114	159	28	7.75	54.75	-145	112	111	117	-168	112	111	116	191	114	113	115
115	160	28	8	55	-145	112	111	117	-168	112	111	116	197	115	114	117
116	161	28	8.5	55.5	-145	112	111	117	174	116	112	117	-197	115	114	117
117	163	29	1	56	128	117	112	119	179	117	116	126	0	117	115	118
118	164	29	1.5	56.5	-128	117	112	119	-179	117	116	126	191	118	117	121
119	165	29	1.75	56.75	122	119	117	120	-179	117	116	126	-191	118	117	121
120	166	29	2	57	128	120	119	121	-179	117	116	126	-191	118	117	121
121	167	29	2.25	57.25	134	121	120	122	-179	117	116	126	185	121	118	122
122	168	29	2.5	57.5	139	122	121	123	-179	117	116	126	191	122	121	123
123	169	29	2.75	57.75	145	123	122	124	-179	117	116	126	197	123	122	124
124	171	30	3	58	151	124	123	125	-179	117	116	126	202	124	123	125
125	172	30	3.5	58.5	157	125	124	126	-179	117	116	126	208	125	124	126
126	173	30	4	59	162	126	125	127	174	126	117	135	0	126	125	127
127	174	30	4.5	59.5	122	127	126	128	-174	126	117	135	185	127	126	130
128	175	30	4.75	59.75	117	128	127	129	-174	126	117	135	-185	127	126	130
129	177	31	5	60	122	129	128	130	-174	126	117	135	-185	127	126	130
130	178	31	5.25	60.25	128	130	129	131	-174	126	117	135	179	130	127	131
131	179	31	5.5	60.5	134	131	130	132	-174	126	117	135	185	131	130	132
132	180	31	5.75	60.75	139	132	131	133	-174	126	117	135	191	132	131	133
133	181	31	6	61	145	133	132	134	-174	126	117	135	197	133	132	134
134	182	31	6.5	61.5	151	134	133	135	-174	126	117	135	202	134	133	135
135	184	32	7	62	157	135	134	136	168	135	126	144	0	135	134	136
136	185	32	7.5	62.5	117	136	135	137	-168	135	126	144	179	136	135	139
137	186	32	7.75	62.75	111	137	136	138	-168	135	126	144	-179	136	135	139
138	187	32	8	63	117	138	137	139	-168	135	126	144	-179	136	135	139
139	188	32	8.25	63.25	122	139	138	140	-168	135	126	144	174	139	136	140
140	189	32	8.5	63.5	128	140	139	141	-168	135	126	144	179	140	139	141
141	190	32	8.75	63.75	134	141	140	142	-168	135	126	144	185	141	140	142
142	192	33	1	64	139	142	141	143	-168	135	126	144	191	142	141	143
143	193	33	1.5	64.5	145	143	142	144	-168	135	126	144	197	143	142	144
144	194	33	2	65	151	144	143	146	162	144	135	153	0	144	143	145
145	195	33	2.5	65.5	-151	144	143	146	-162	144	135	153	174	145	144	148
146	196	33	2.75	65.75	145	146	144	147	-162	144	135	153	-174	145	144	148
147	198	34	3	66	151	147	146	148	-162	144	135	153	-174	145	144	148
148	199	34	3.25	66.25	157	148	147	149	-162	144	135	153	168	148	145	149
149	200	34	3.5	66.5	162	149	148	150	-162	144	135	153	174	149	148	150
150	201	34	3.75	66.75	168	150	149	151	-162	144	135	153	179	150	149	151
151	202	34	4	67	174	151	150	152	-162	144	135	153	185	151	150	152
152	203	34	4.5	67.5	151	152	151	153	-162	144	135	153	191	152	151	153
153	205	35	5	68	157	153	152	154	157	153	144	163	0	153	152	155
154	206	35	5.25	68.25	151	154	153	155	-157	153	144	163	0	153	152	155
155	207	35	5.5	68.5	145	155	154	156	-157	153	144	163	168	155	153	158
156	208	35	5.75	68.75	139	156	155	157	-157	153	144	163	-168	155	153	158
157	209	35	6	69	145	157	156	158	-157	153	144	163	-168	155	153	158
158	210	35	6.25	69.25	151	158	157	159	-157	153	144	163	162	158	155	159
159	211	35	6.5	69.5	157	159	158	160	-157	153	144	163	168	159	158	160
160	212	35	6.75	69.75	162	160	159	161	-157	153	144	163	174	160	159	161
161	214	36	7	70	168	161	160	162	-157	153	144	163	179	161	160	162
162	215	36	7.5	70.5	145	162	161	163	-157	153	144	163	185	162	161	163
163	216	36	8	71	151	163	162	164	151	163	153	165	162	163	162	165
164	217	36	8.5	71.5	162	164	163	166	-151	163	153	165	-162	163	162	165
165	219	37	1	72	-162	164	163	166	145	165	163	167	168	165	163	167
166	220	37	1.5	72.5	157	166	164	167	-145	165	163	167	-168	165	163	167
167	221	37	2	73	162	167	166	168	162	167	165	169	174	167	165	168
168	222	37	2.5	73.5	151	168	167	170	-162	167	165	169	162	168	167	171
169	223	37	2.75	73.75	-151	168	167	170	168	169	167	170	-162	168	167	171
170	225	38	3	74	162	170	168	173	174	170	169	172	-162	168	167	171
171	226	38	3.25	74.25	-162	170	168	173	-174	170	169	172	168	171	168	172
172	227	38	3.5	74.5	-162	170	168	173	162	172	170	175	174	172	171	173
173	228	38	3.75	74.75	168	173	170	174	-162	172	170	175	179	173	172	174
174	229	38	4	75	174	174	173	175	-162	172	170	175	185	174	173	176
175	230	38	4.25	75.25	179	175	174	176	168	175	172	176	-185	174	173	176
176	231	38	4.5	75.5	185	176	175	178	174	176	175	177	162	176	174	179
177	232	38	4.75	75.75	-185	176	175	178	179	177	176	178	-162	176	174	179
178	234	39	5	76	0	178	176	180	185	178	177	182	-162	176	174	179
179	235	39	5.25	76.25	0	178	176	180	-185	178	177	182	168	179	176	180
180	236	39	5.5	76.5	162	180	178	183	-185	178	177	182	174	180	179	181
181	237	39	5.75	76.75	-162	180	178	183	-185	178	177	182	179	181	180	182
182	238	39	6	77	-162	180	178	183	174	182	178	184	185	182	181	184
183	239	39	6.25	77.25	157	183	180	184	-174	182	178	184	-185	182	181	184
184	240	39	6.5	77.5	151	184	183	185	179	184	182	185	191	184	182	185
185	242	40	7	78	145	185	184	186	185	185	184	187	0	185	184	186
186	243	40	7.5	78.5	185	186	185	188	-185	185	184	187	162	186	185	188
187	244	40	8	79	-185	186	185	188	162	187	185	190	-162	186	185	188
188	245	40	8.25	79.25	179	188	186	189	-162	187	185	190	168	188	186	189
189	246	40	8.5	79.5	174	189	188	190	-162	187	185	190	174	189	188	190
190	247	40	8.75	79.75	168	190	189	191	168	190	187	191	179	190	189	191
191	249	41	1	80	162	191	190	192	174	191	190	193	185	191	190	193
192	250	41	1.25	80.25	157	192	191	193	-174	191	190	193	-185	191	190	193
193	251	41	1.5	80.5	151	193	192	194	179	193	191	194	191	193	191	194
194	252	41	2	81	145	194	193	195	185	194	193	196	197	194	193	195
195	253	41	2.5	81.5	151	195	194	196	-185	194	193	196	202	195	194	196
196	255	42	3	82	157	196	195	197	145	196	194	197	208	196	195	197
197	256	42	3.5	82.5	162	197	196	198	162	197	196	199	214	197	196	199
198	257	42	4	83	0	198	197	200	-162	197	196	199	-214	197	196	199
199	258	42	4.25	83.25	0	198	197	200	157	199	197	200	208	199	197	200
200	259	42	4.5	83.5	162	200	198	211	162	200	199	201	214	200	199	201
201	260	42	4.75	83.75	-162	200	198	211	168	201	200	202	219	201	200	202
202	262	43	5	84	-162	200	198	211	174	202	201	203	214	202	201	205
203	263	43	5.25	84.25	-162	200	198	211	168	203	202	204	-214	202	201	205
204	264	43	5.5	84.5	-162	200	198	211	174	204	203	205	-214	202	201	205
205	265	43	5.75	84.75	-162	200	198	211	179	205	204	206	208	205	202	206
206	266	43	6	85	-162	200	198	211	185	206	205	209	214	206	205	207
207	267	43	6.25	85.25	-162	200	198	211	-185	206	205	209	219	207	206	208
208	268	43	6.5	85.5	-162	200	198	211	-185	206	205	209	214	208	207	210
209	270	44	7	86	-162	200	198	211	191	209	206	213	-214	208	207	210
210	271	44	7.25	86.25	-162	200	198	211	-191	209	206	213	208	210	208	211
211	272	44	7.5	86.5	139	211	200	213	-191	209	206	213	214	211	210	212
212	273	44	7.75	86.75	-139	211	200	213	-191	209	206	213	219	212	211	213
213	274	44	8	87	162	213	211	215	185	213	209	215	214	213	212	214
214	275	44	8.25	87.25	-162	213	211	215	-185	213	209	215	208	214	213	215
215	276	44	8.5	87.5	151	215	213	217	191	215	213	217	202	215	214	216
216	277	44	8.75	87.75	-151	215	213	217	-191	215	213	217	197	216	215	217
217	279	45	1	88	168	217	215	218	179	217	215	218	191	217	216	218
218	280	45	1.5	88.5	145	218	217	219	185	218	217	219	185	218	217	220
219	281	45	2	89	162	219	218	220	174	219	218	220	-185	218	217	220
220	282	45	2.5	89.5	139	220	219	221	179	220	219	221	202	220	218	222
221	284	46	1	90	145	221	220	223	168	221	220	223	-202	220	218	222
222	285	46	1.5	90.5	-145	221	220	223	-168	221	220	223	197	222	220	223
223	286	46	2	91	122	223	221	224	162	223	221	224	202	223	222	224
224	288	47	1	92	0	224	223	-1	0	224	223	-1	0	224	223	-1
