%%idx	%%line	%%bar	%%beat	%%abs	%%b40	%%attk	%%last	%%next	%%b40	%%attk	%%last	%%next	%%b40	%%attk	%%last	%%next	%%b40	%%attk	%%last	%%next
0	2000	3000	4000	5000	1040	7100	7200	7300	1040	7100	7200	7300	1040	7100	7200	7300	1040	7100	7200	7300
1	23	1	1	0	0	1	-1	15	139	1	-1	2	0	1	-1	5	0	1	-1	10
2	24	1	1.75	0.75	0	1	-1	15	139	2	1	3	0	1	-1	5	0	1	-1	10
3	25	1	2	1	0	1	-1	15	139	3	2	4	0	1	-1	5	0	1	-1	10
4	26	1	2.5	1.5	0	1	-1	15	145	4	3	5	0	1	-1	5	0	1	-1	10
5	28	2	3	2	0	1	-1	15	151	5	4	6	139	5	1	7	0	1	-1	10
6	29	2	3.5	2.5	0	1	-1	15	162	6	5	8	-139	5	1	7	0	1	-1	10
7	30	2	3.75	2.75	0	1	-1	15	-162	6	5	8	139	7	5	8	0	1	-1	10
8	31	2	4	3	0	1	-1	15	162	8	6	9	139	8	7	9	0	1	-1	10
9	32	2	4.5	3.5	0	1	-1	15	156	9	8	10	145	9	8	10	0	1	-1	10
10	34	3	5	4	0	1	-1	15	162	10	9	13	151	10	9	11	162	10	1	12
11	35	3	5.5	4.5	0	1	-1	15	-162	10	9	13	162	11	10	13	-162	10	1	12
12	36	3	5.75	4.75	0	1	-1	15	-162	10	9	13	-162	11	10	13	162	12	10	13
13	37	3	6	5	0	1	-1	15	0	13	10	16	162	13	11	14	162	13	12	14
14	38	3	6.5	5.5	0	1	-1	15	0	13	10	16	156	14	13	15	168	14	13	15
15	40	4	7	6	122	15	1	17	0	13	10	16	162	15	14	16	174	15	14	16
16	41	4	7.5	6.5	-122	15	1	17	162	16	13	19	173	16	15	20	185	16	15	18
17	42	4	7.75	6.75	122	17	15	18	-162	16	13	19	-173	16	15	20	-185	16	15	18
18	43	4	8	7	122	18	17	20	-162	16	13	19	-173	16	15	20	185	18	16	20
19	44	4	8.25	7.25	-122	18	17	20	156	19	16	20	-173	16	15	20	-185	18	16	20
20	45	4	8.5	7.5	128	20	18	21	151	20	19	21	168	20	16	21	179	20	18	21
21	47	5	1	8	134	21	20	22	145	21	20	22	162	21	20	22	185	21	20	22
22	48	5	1.5	8.5	145	22	21	23	156	22	21	25	156	22	21	23	185	22	21	23
23	49	5	2	9	145	23	22	24	-156	22	21	25	168	23	22	25	185	23	22	25
24	50	5	2.25	9.25	139	24	23	25	-156	22	21	25	-168	23	22	25	-185	23	22	25
25	51	5	2.5	9.5	145	25	24	26	156	25	22	26	174	25	23	26	185	25	23	26
26	53	6	3	10	139	26	25	28	151	26	25	28	179	26	25	27	191	26	25	27
27	54	6	3.5	10.5	-139	26	25	28	-151	26	25	28	162	27	26	28	191	27	26	28
28	55	6	4	11	128	28	26	29	151	28	26	29	168	28	27	29	191	28	27	30
29	56	6	4.5	11.5	128	29	28	30	151	29	28	30	168	29	28	30	-191	28	27	30
30	58	7	5	12	139	30	29	33	151	30	29	31	162	30	29	32	0	30	28	33
31	59	7	5.5	12.5	-139	30	29	33	151	31	30	32	-162	30	29	32	0	30	28	33
32	60	7	6	13	-139	30	29	33	151	32	31	33	162	32	30	33	0	30	28	33
33	61	7	6.5	13.5	116	33	30	34	156	33	32	35	168	33	32	34	185	33	30	34
34	63	8	7	14	133	34	33	36	-156	33	32	35	156	34	33	35	185	34	33	35
35	64	8	7.5	14.5	-133	34	33	36	145	35	33	36	162	35	34	36	185	35	34	36
36	65	8	8	15	128	36	34	38	151	36	35	38	168	36	35	38	179	36	35	37
37	66	8	8.5	15.5	-128	36	34	38	-151	36	35	38	-168	36	35	38	179	37	36	38
38	68	9	1	16	0	38	36	39	145	38	36	41	156	38	36	39	196	38	37	39
39	69	9	1.5	16.5	145	39	38	41	-145	38	36	41	145	39	38	40	196	39	38	41
40	70	9	1.75	16.75	-145	39	38	41	-145	38	36	41	151	40	39	41	-196	39	38	41
41	71	9	2	17	145	41	39	43	0	41	38	43	156	41	40	42	196	41	39	43
42	72	9	2.25	17.25	-145	41	39	43	0	41	38	43	162	42	41	43	-196	41	39	43
43	73	9	2.5	17.5	145	43	41	45	145	43	41	45	168	43	42	44	196	43	41	45
44	74	9	2.75	17.75	-145	43	41	45	-145	43	41	45	174	44	43	45	-196	43	41	45
45	76	10	3	18	139	45	43	46	162	45	43	47	179	45	44	47	191	45	43	46
46	77	10	3.5	18.5	139	46	45	47	-162	45	43	47	-179	45	44	47	191	46	45	47
47	78	10	4	19	145	47	46	48	156	47	45	48	168	47	45	49	185	47	46	48
48	79	10	4.5	19.5	145	48	47	49	156	48	47	49	-168	47	45	49	185	48	47	49
49	81	11	5	20	122	49	48	50	162	49	48	50	174	49	47	50	185	49	48	51
50	82	11	5.5	20.5	122	50	49	53	151	50	49	53	162	50	49	53	-185	49	48	51
51	83	11	5.75	20.75	-122	50	49	53	-151	50	49	53	-162	50	49	53	179	51	49	52
52	84	11	5.875	20.875	-122	50	49	53	-151	50	49	53	-162	50	49	53	174	52	51	53
53	85	11	6	21	116	53	50	54	156	53	50	54	168	53	50	54	168	53	52	54
54	86	11	6.5	21.5	122	54	53	55	145	54	53	55	162	54	53	57	174	54	53	56
55	88	12	7	22	122	55	54	57	151	55	54	57	-162	54	53	57	-174	54	53	56
56	89	12	7.25	22.25	-122	55	54	57	-151	55	54	57	-162	54	53	57	162	56	54	57
57	90	12	7.5	22.5	128	57	55	58	139	57	55	58	156	57	54	58	179	57	56	59
58	91	12	8	23	122	58	57	59	145	58	57	60	162	58	57	60	-179	57	56	59
59	92	12	8.5	23.5	122	59	58	60	-145	58	57	60	-162	58	57	60	174	59	57	60
60	94	13	1	24	139	60	59	62	139	60	58	64	0	60	58	61	179	60	59	64
61	95	13	1.5	24.5	-139	60	59	62	-139	60	58	64	162	61	60	62	-179	60	59	64
62	96	13	2	25	0	62	60	63	-139	60	58	64	162	62	61	63	-179	60	59	64
63	97	13	2.5	25.5	151	63	62	64	-139	60	58	64	162	63	62	64	-179	60	59	64
64	99	14	3	26	145	64	63	65	0	64	60	69	156	64	63	65	0	64	60	69
65	100	14	3.5	26.5	139	65	64	66	0	64	60	69	151	65	64	66	0	64	60	69
66	101	14	4	27	139	66	65	67	0	64	60	69	145	66	65	68	0	64	60	69
67	102	14	4.5	27.5	134	67	66	68	0	64	60	69	-145	66	65	68	0	64	60	69
68	104	15	5	28	139	68	67	69	0	64	60	69	139	68	66	69	0	64	60	69
69	105	15	6	29	139	69	68	70	162	69	64	70	179	69	68	70	191	69	64	70
70	106	15	6.75	29.75	139	70	69	71	162	70	69	71	179	70	69	71	191	70	69	71
71	108	16	7	30	139	71	70	72	162	71	70	72	179	71	70	72	191	71	70	72
72	109	16	7.5	30.5	139	72	71	73	162	72	71	73	179	72	71	73	191	72	71	73
73	110	16	8.25	31.25	139	73	72	74	162	73	72	74	179	73	72	74	191	73	72	74
74	111	16	8.5	31.5	139	74	73	75	162	74	73	75	179	74	73	75	191	74	73	75
75	113	17	1	32	145	75	74	77	156	75	74	77	174	75	74	76	185	75	74	76
76	114	17	1.5	32.5	-145	75	74	77	-156	75	74	77	174	76	75	77	185	76	75	77
77	115	17	2	33	139	77	75	79	151	77	75	79	179	77	76	78	202	77	76	79
78	116	17	2.75	33.75	-139	77	75	79	-151	77	75	79	174	78	77	79	-202	77	76	79
79	118	18	3	34	0	79	77	80	0	79	77	80	168	79	78	80	196	79	77	80
80	119	18	3.5	34.5	139	80	79	81	139	80	79	81	162	80	79	81	191	80	79	81
81	120	18	4	35	128	81	80	83	139	81	80	83	168	81	80	83	196	81	80	82
82	121	18	4.25	35.25	-128	81	80	83	-139	81	80	83	-168	81	80	83	191	82	81	83
83	122	18	4.5	35.5	128	83	81	85	139	83	81	85	156	83	81	85	185	83	82	84
84	123	18	4.75	35.75	-128	83	81	85	-139	83	81	85	-156	83	81	85	179	84	83	85
85	125	19	5	36	122	85	83	92	145	85	83	88	162	85	83	86	174	85	84	86
86	126	19	5.5	36.5	-122	85	83	92	-145	85	83	88	122	86	85	87	174	86	85	90
87	127	19	5.75	36.75	-122	85	83	92	-145	85	83	88	128	87	86	88	-174	86	85	90
88	128	19	6	37	-122	85	83	92	0	88	85	104	134	88	87	89	-174	86	85	90
89	129	19	6.25	37.25	-122	85	83	92	0	88	85	104	139	89	88	90	-174	86	85	90
90	130	19	6.5	37.5	-122	85	83	92	0	88	85	104	145	90	89	91	168	90	86	91
91	131	19	6.75	37.75	-122	85	83	92	0	88	85	104	151	91	90	92	162	91	90	92
92	133	20	7	38	0	92	85	104	0	88	85	104	156	92	91	94	168	92	91	93
93	134	20	7.5	38.5	0	92	85	104	0	88	85	104	-156	92	91	94	179	93	92	95
94	135	20	8	39	0	92	85	104	0	88	85	104	151	94	92	95	-179	93	92	95
95	136	20	8.5	39.5	0	92	85	104	0	88	85	104	145	95	94	96	174	95	93	96
96	138	21	1	40	0	92	85	104	0	88	85	104	151	96	95	97	179	96	95	97
97	139	21	1.25	40.25	0	92	85	104	0	88	85	104	145	97	96	98	174	97	96	98
98	140	21	1.5	40.5	0	92	85	104	0	88	85	104	151	98	97	101	168	98	97	99
99	141	21	1.75	40.75	0	92	85	104	0	88	85	104	-151	98	97	101	162	99	98	100
100	142	21	2	41	0	92	85	104	0	88	85	104	-151	98	97	101	156	100	99	103
101	143	21	2.25	41.25	0	92	85	104	0	88	85	104	145	101	98	102	-156	100	99	103
102	144	21	2.5	41.5	0	92	85	104	0	88	85	104	145	102	101	103	-156	100	99	103
103	146	22	3	42	0	92	85	104	0	88	85	104	151	103	102	107	151	103	100	107
104	147	22	3.5	42.5	139	104	92	105	139	104	88	106	-151	103	102	107	-151	103	100	107
105	148	22	4	43	128	105	104	106	-139	104	88	106	-151	103	102	107	-151	103	100	107
106	149	22	4.5	43.5	128	106	105	107	139	106	104	107	-151	103	102	107	-151	103	100	107
107	151	23	5	44	122	107	106	108	162	107	106	109	0	107	103	110	0	107	103	134
108	152	23	5.5	44.5	122	108	107	109	-162	107	106	109	0	107	103	110	0	107	103	134
109	153	23	6	45	139	109	108	110	162	109	107	110	0	107	103	110	0	107	103	134
110	154	23	6.5	45.5	139	110	109	111	162	110	109	111	151	110	107	111	0	107	103	134
111	156	24	7	46	128	111	110	113	168	111	110	113	156	111	110	112	0	107	103	134
112	157	24	7.25	46.25	-128	111	110	113	-168	111	110	113	151	112	111	113	0	107	103	134
113	158	24	7.5	46.5	128	113	111	115	168	113	111	115	145	113	112	114	0	107	103	134
114	159	24	7.75	46.75	-128	113	111	115	-168	113	111	115	139	114	113	115	0	107	103	134
115	160	24	8	47	116	115	113	119	168	115	113	117	145	115	114	116	0	107	103	134
116	161	24	8.25	47.25	-116	115	113	119	-168	115	113	117	151	116	115	118	0	107	103	134
117	162	24	8.5	47.5	-116	115	113	119	168	117	115	119	-151	116	115	118	0	107	103	134
118	163	24	8.75	47.75	-116	115	113	119	-168	117	115	119	145	118	116	119	0	107	103	134
119	165	25	1	48	111	119	115	121	162	119	117	120	151	119	118	121	0	107	103	134
120	166	25	1.5	48.5	-111	119	115	121	162	120	119	121	-151	119	118	121	0	107	103	134
121	167	25	2	49	122	121	119	124	162	121	120	122	145	121	119	124	0	107	103	134
122	168	25	2.5	49.5	-122	121	119	124	156	122	121	123	-145	121	119	124	0	107	103	134
123	169	25	2.75	49.75	-122	121	119	124	151	123	122	124	-145	121	119	124	0	107	103	134
124	171	26	3	50	128	124	121	126	156	124	123	125	139	124	121	125	0	107	103	134
125	172	26	3.5	50.5	-128	124	121	126	151	125	124	126	179	125	124	127	0	107	103	134
126	173	26	4	51	128	126	124	127	139	126	125	127	-179	125	124	127	0	107	103	134
127	174	26	4.5	51.5	122	127	126	129	145	127	126	129	174	127	125	129	0	107	103	134
128	176	27	5	52	-122	127	126	129	-145	127	126	129	-174	127	125	129	0	107	103	134
129	177	27	5.5	52.5	111	129	127	130	151	129	127	131	162	129	127	130	0	107	103	134
130	178	27	6	53	116	130	129	132	-151	129	127	131	168	130	129	131	0	107	103	134
131	179	27	6.5	53.5	-116	130	129	132	145	131	129	132	168	131	130	132	0	107	103	134
132	181	28	7	54	111	132	130	138	151	132	131	142	162	132	131	133	0	107	103	134
133	182	28	7.5	54.5	-111	132	130	138	-151	132	131	142	162	133	132	135	0	107	103	134
134	183	28	8	55	-111	132	130	138	-151	132	131	142	-162	133	132	135	151	134	107	137
135	184	28	8.25	55.25	-111	132	130	138	-151	132	131	142	162	135	133	136	-151	134	107	137
136	185	28	8.5	55.5	-111	132	130	138	-151	132	131	142	162	136	135	138	-151	134	107	137
137	186	28	8.75	55.75	-111	132	130	138	-151	132	131	142	-162	136	135	138	151	137	134	138
138	188	29	1	56	0	138	132	151	-151	132	131	142	139	138	136	139	162	138	137	139
139	189	29	1.5	56.5	0	138	132	151	-151	132	131	142	139	139	138	140	162	139	138	140
140	190	29	2	57	0	138	132	151	-151	132	131	142	139	140	139	141	162	140	139	141
141	191	29	2.5	57.5	0	138	132	151	-151	132	131	142	139	141	140	142	168	141	140	142
142	193	30	3	58	0	138	132	151	0	142	132	151	128	142	141	143	179	142	141	144
143	194	30	3.25	58.25	0	138	132	151	0	142	132	151	134	143	142	144	-179	142	141	144
144	195	30	3.5	58.5	0	138	132	151	0	142	132	151	139	144	143	145	179	144	142	148
145	196	30	3.75	58.75	0	138	132	151	0	142	132	151	145	145	144	146	-179	144	142	148
146	197	30	4	59	0	138	132	151	0	142	132	151	151	146	145	147	-179	144	142	148
147	198	30	4.25	59.25	0	138	132	151	0	142	132	151	156	147	146	148	-179	144	142	148
148	199	30	4.5	59.5	0	138	132	151	0	142	132	151	162	148	147	150	174	148	144	149
149	201	31	5	60	0	138	132	151	0	142	132	151	-162	148	147	150	168	149	148	151
150	202	31	5.5	60.5	0	138	132	151	0	142	132	151	156	150	148	151	-168	149	148	151
151	203	31	6	61	111	151	138	152	151	151	142	152	162	151	150	152	162	151	149	152
152	205	32	7	62	128	152	151	154	139	152	151	154	0	152	151	153	168	152	151	153
153	206	32	7.5	62.5	-128	152	151	154	-139	152	151	154	156	153	152	154	168	153	152	154
154	207	32	8	63	128	154	152	156	139	154	152	156	156	154	153	155	168	154	153	156
155	208	32	8.5	63.5	-128	154	152	156	-139	154	152	156	156	155	154	156	-168	154	153	156
156	210	33	1	64	122	156	154	157	145	156	154	157	162	156	155	157	174	156	154	157
157	212	34	3	66	128	157	156	159	139	157	156	159	151	157	156	158	168	157	156	159
158	213	34	3.5	66.5	-128	157	156	159	-139	157	156	159	156	158	157	159	-168	157	156	159
159	214	34	4	67	122	159	157	160	145	159	157	160	162	159	158	160	174	159	157	160
160	215	34	4.5	67.5	128	160	159	161	139	160	159	162	151	160	159	162	179	160	159	162
161	217	35	5	68	139	161	160	162	-139	160	159	162	-151	160	159	162	-179	160	159	162
162	218	35	5.5	68.5	139	162	161	163	162	162	160	164	151	162	160	163	191	162	160	163
163	219	35	6	69	139	163	162	164	-162	162	160	164	151	163	162	164	191	163	162	164
164	220	35	6.5	69.5	145	164	163	165	156	164	162	165	168	164	163	165	185	164	163	165
165	222	36	7	70	122	165	164	167	162	165	164	167	162	165	164	166	185	165	164	167
166	223	36	7.25	70.25	-122	165	164	167	-162	165	164	167	162	166	165	168	-185	165	164	167
167	224	36	7.5	70.5	128	167	165	169	139	167	165	169	-162	166	165	168	179	167	165	170
168	225	36	7.75	70.75	-128	167	165	169	-139	167	165	169	156	168	166	169	-179	167	165	170
169	226	36	8	71	122	169	167	170	145	169	167	171	162	169	168	171	-179	167	165	170
170	227	36	8.5	71.5	122	170	169	171	-145	169	167	171	-162	169	168	171	174	170	167	171
171	229	37	1	72	139	171	170	176	139	171	169	176	151	171	169	173	179	171	170	172
172	230	37	1.75	72.75	-139	171	170	176	-139	171	169	176	-151	171	169	173	185	172	171	173
173	231	37	2	73	-139	171	170	176	-139	171	169	176	0	173	171	175	191	173	172	174
174	232	37	2.25	73.25	-139	171	170	176	-139	171	169	176	0	173	171	175	196	174	173	175
175	233	37	2.5	73.5	-139	171	170	176	-139	171	169	176	139	175	173	176	191	175	174	177
176	235	38	3	74	0	176	171	179	0	176	171	185	151	176	175	177	-191	175	174	177
177	236	38	3.5	74.5	0	176	171	179	0	176	171	185	156	177	176	178	185	177	175	178
178	237	38	4	75	0	176	171	179	0	176	171	185	162	178	177	179	174	178	177	179
179	238	38	4.5	75.5	128	179	176	181	0	176	171	185	139	179	178	181	179	179	178	181
180	240	39	5	76	-128	179	176	181	0	176	171	185	-139	179	178	181	-179	179	178	181
181	241	39	5.25	76.25	122	181	179	182	0	176	171	185	145	181	179	182	174	181	179	182
182	242	39	5.5	76.5	111	182	181	184	0	176	171	185	151	182	181	185	168	182	181	183
183	243	39	5.75	76.75	-111	182	181	184	0	176	171	185	-151	182	181	185	162	183	182	184
184	244	39	6	77	116	184	182	186	0	176	171	185	-151	182	181	185	168	184	183	186
185	245	39	6.5	77.5	-116	184	182	186	128	185	176	186	145	185	182	186	-168	184	183	186
186	247	40	7	78	111	186	184	188	134	186	185	187	151	186	185	188	162	186	184	188
187	248	40	7.5	78.5	-111	186	184	188	134	187	186	188	-151	186	185	188	-162	186	184	188
188	249	40	8	79	128	188	186	189	139	188	187	189	156	188	186	189	179	188	186	189
189	251	41	1	80	122	189	188	190	145	189	188	190	162	189	188	190	174	189	188	190
190	261	42	3	82	111	190	189	191	151	190	189	191	162	190	189	191	174	190	189	191
191	262	42	4	83	111	191	190	192	151	191	190	192	162	191	190	192	174	191	190	192
192	263	42	4.5	83.5	111	192	191	193	151	192	191	193	162	192	191	193	174	192	191	193
193	265	43	5	84	128	193	192	194	151	193	192	194	168	193	192	195	179	193	192	194
194	266	43	5.5	84.5	128	194	193	195	151	194	193	195	-168	193	192	195	179	194	193	195
195	267	43	6	85	128	195	194	196	151	195	194	196	168	195	193	197	179	195	194	196
196	268	43	6.5	85.5	128	196	195	197	151	196	195	197	-168	195	193	197	179	196	195	197
197	270	44	7	86	139	197	196	198	151	197	196	199	162	197	195	199	179	197	196	198
198	271	44	7.5	86.5	139	198	197	199	-151	197	196	199	-162	197	195	199	191	198	197	200
199	272	44	8	87	139	199	198	200	139	199	197	202	151	199	197	200	-191	198	197	200
200	273	44	8.5	87.5	134	200	199	201	-139	199	197	202	156	200	199	202	185	200	198	201
201	274	44	8.75	87.75	128	201	200	202	-139	199	197	202	-156	200	199	202	179	201	200	202
202	276	45	1	88	122	202	201	203	145	202	199	205	162	202	200	206	174	202	201	206
203	277	45	1.25	88.25	128	203	202	204	-145	202	199	205	-162	202	200	206	-174	202	201	206
204	278	45	1.5	88.5	134	204	203	205	-145	202	199	205	-162	202	200	206	-174	202	201	206
205	279	45	1.75	88.75	139	205	204	206	151	205	202	206	-162	202	200	206	-174	202	201	206
206	280	45	2	89	145	206	205	209	156	206	205	207	0	206	202	210	168	206	202	208
207	281	45	2.5	89.5	-145	206	205	209	156	207	206	209	0	206	202	210	-168	206	202	208
208	282	45	2.75	89.75	-145	206	205	209	-156	207	206	209	0	206	202	210	174	208	206	209
209	284	46	3	90	139	209	206	210	151	209	207	210	0	206	202	210	179	209	208	210
210	285	46	3.5	90.5	134	210	209	211	145	210	209	211	162	210	206	211	185	210	209	211
211	286	46	4.5	91.5	128	211	210	213	151	211	210	212	168	211	210	213	179	211	210	213
212	288	47	5	92	-128	211	210	213	156	212	211	213	-168	211	210	213	-179	211	210	213
213	289	47	5.5	92.5	122	213	211	214	162	213	212	214	174	213	211	214	174	213	211	214
214	290	47	6	93	128	214	213	219	151	214	213	219	179	214	213	215	168	214	213	215
215	291	47	6.5	93.5	-128	214	213	219	-151	214	213	219	168	215	214	219	179	215	214	217
216	293	48	7	94	-128	214	213	219	-151	214	213	219	-168	215	214	219	-179	215	214	217
217	294	48	7.25	94.25	-128	214	213	219	-151	214	213	219	-168	215	214	219	185	217	215	218
218	295	48	7.5	94.5	-128	214	213	219	-151	214	213	219	-168	215	214	219	191	218	217	219
219	296	48	8	95	0	219	214	225	0	219	214	225	156	219	215	223	196	219	218	220
220	297	48	8.25	95.25	0	219	214	225	0	219	214	225	-156	219	215	223	191	220	219	221
221	298	48	8.5	95.5	0	219	214	225	0	219	214	225	-156	219	215	223	185	221	220	222
222	299	48	8.75	95.75	0	219	214	225	0	219	214	225	-156	219	215	223	179	222	221	223
223	301	49	1	96	0	219	214	225	0	219	214	225	162	223	219	224	174	223	222	224
224	302	49	2	97	0	219	214	225	0	219	214	225	0	224	223	235	0	224	223	261
225	303	49	2.5	97.5	139	225	219	226	151	225	219	226	0	224	223	235	0	224	223	261
226	305	50	3	98	128	226	225	227	151	226	225	227	0	224	223	235	0	224	223	261
227	306	50	3.5	98.5	128	227	226	228	151	227	226	228	0	224	223	235	0	224	223	261
228	307	50	4	99	145	228	227	229	156	228	227	229	0	224	223	235	0	224	223	261
229	308	50	4.5	99.5	145	229	228	230	156	229	228	230	0	224	223	235	0	224	223	261
230	310	51	5	100	139	230	229	231	151	230	229	231	0	224	223	235	0	224	223	261
231	311	51	5.5	100.5	134	231	230	232	162	231	230	233	0	224	223	235	0	224	223	261
232	312	51	6	101	128	232	231	234	-162	231	230	233	0	224	223	235	0	224	223	261
233	313	51	6.5	101.5	-128	232	231	234	157	233	231	234	0	224	223	235	0	224	223	261
234	315	52	7	102	122	234	232	235	162	234	233	235	0	224	223	235	0	224	223	261
235	316	52	8	103	162	235	234	236	0	235	234	249	151	235	224	236	0	224	223	261
236	317	52	8.75	103.75	162	236	235	237	0	235	234	249	151	236	235	237	0	224	223	261
237	319	53	1	104	162	237	236	238	0	235	234	249	151	237	236	238	0	224	223	261
238	320	53	1.5	104.5	156	238	237	239	0	235	234	249	145	238	237	239	0	224	223	261
239	321	53	2	105	156	239	238	240	0	235	234	249	145	239	238	240	0	224	223	261
240	322	53	2.5	105.5	151	240	239	241	0	235	234	249	162	240	239	241	0	224	223	261
241	324	54	3	106	145	241	240	242	0	235	234	249	156	241	240	242	0	224	223	261
242	325	54	3.5	106.5	139	242	241	243	0	235	234	249	151	242	241	243	0	224	223	261
243	326	54	4	107	134	243	242	244	0	235	234	249	145	243	242	244	0	224	223	261
244	327	54	4.5	107.5	139	244	243	246	0	235	234	249	151	244	243	246	0	224	223	261
245	329	55	5	108	-139	244	243	246	0	235	234	249	-151	244	243	246	0	224	223	261
246	330	55	5.5	108.5	134	246	244	247	0	235	234	249	145	246	244	247	0	224	223	261
247	331	55	5.75	108.75	128	247	246	248	0	235	234	249	139	247	246	248	0	224	223	261
248	332	55	6	109	122	248	247	249	0	235	234	249	162	248	247	249	0	224	223	261
249	333	55	6.5	109.5	128	249	248	250	139	249	235	251	151	249	248	250	0	224	223	261
250	335	56	7	110	128	250	249	251	-139	249	235	251	151	250	249	251	0	224	223	261
251	336	56	7.5	110.5	128	251	250	252	139	251	249	252	151	251	250	252	0	224	223	261
252	337	56	8	111	116	252	251	253	139	252	251	253	168	252	251	253	0	224	223	261
253	339	57	1	112	116	253	252	254	139	253	252	254	168	253	252	254	0	224	223	261
254	340	57	1.5	112.5	116	254	253	255	139	254	253	255	168	254	253	255	0	224	223	261
255	341	57	2	113	116	255	254	256	139	255	254	256	179	255	254	256	0	224	223	261
256	342	57	2.5	113.5	128	256	255	258	139	256	255	258	179	256	255	258	0	224	223	261
257	344	58	3	114	-128	256	255	258	-139	256	255	258	-179	256	255	258	0	224	223	261
258	345	58	3.5	114.5	122	258	256	259	145	258	256	260	174	258	256	259	0	224	223	261
259	346	58	3.75	114.75	116	259	258	260	-145	258	256	260	168	259	258	260	0	224	223	261
260	347	58	4	115	111	260	259	266	151	260	258	262	162	260	259	262	0	224	223	261
261	348	58	4.5	115.5	-111	260	259	266	-151	260	258	262	-162	260	259	262	162	261	224	262
262	350	59	5	116	-111	260	259	266	151	262	260	264	0	262	260	264	162	262	261	263
263	351	59	5.25	116.25	-111	260	259	266	-151	262	260	264	0	262	260	264	168	263	262	264
264	352	59	5.5	116.5	-111	260	259	266	151	264	262	266	162	264	262	266	174	264	263	265
265	353	59	5.75	116.75	-111	260	259	266	-151	264	262	266	-162	264	262	266	179	265	264	266
266	354	59	6	117	105	266	260	268	156	266	264	268	168	266	264	267	185	266	265	267
267	355	59	6.5	117.5	-105	266	260	268	-156	266	264	268	168	267	266	268	185	267	266	268
268	357	60	7	118	0	268	266	269	151	268	266	269	162	268	267	269	179	268	267	269
269	358	60	7.5	118.5	122	269	268	270	145	269	268	271	162	269	268	271	174	269	268	271
270	359	60	8	119	122	270	269	271	-145	269	268	271	-162	269	268	271	-174	269	268	271
271	360	60	8.5	119.5	128	271	270	272	139	271	269	272	156	271	269	272	168	271	269	273
272	362	61	1	120	111	272	271	273	134	272	271	274	151	272	271	274	-168	271	269	273
273	363	61	1.5	120.5	111	273	272	274	-134	272	271	274	-151	272	271	274	163	273	271	274
274	364	61	2	121	128	274	273	275	128	274	272	275	139	274	272	275	168	274	273	275
275	366	62	3	122	116	275	274	276	139	275	274	276	156	275	274	276	168	275	274	276
276	367	62	3.75	122.75	116	276	275	277	139	276	275	277	156	276	275	277	168	276	275	277
277	368	62	4	123	116	277	276	278	139	277	276	278	156	277	276	278	168	277	276	278
278	369	62	4.5	123.5	116	278	277	279	128	278	277	279	156	278	277	279	168	278	277	279
279	371	63	5	124	122	279	278	283	134	279	278	282	145	279	278	282	162	279	278	280
280	372	63	5.75	124.75	-122	279	278	283	-134	279	278	282	-145	279	278	282	156	280	279	281
281	373	63	5.875	124.875	-122	279	278	283	-134	279	278	282	-145	279	278	282	151	281	280	282
282	374	63	6	125	-122	279	278	283	134	282	279	283	162	282	279	283	145	282	281	283
283	375	63	6.5	125.5	128	283	279	285	139	283	282	285	151	283	282	284	139	283	282	286
284	377	64	7	126	-128	283	279	285	-139	283	282	285	168	284	283	286	-139	283	282	286
285	378	64	7.25	126.25	134	285	283	286	145	285	283	286	-168	284	283	286	-139	283	282	286
286	379	64	7.5	126.5	139	286	285	287	151	286	285	287	162	286	284	289	179	286	283	288
287	380	64	8	127	122	287	286	288	145	287	286	289	-162	286	284	289	-179	286	283	288
288	381	64	8.5	127.5	122	288	287	289	-145	287	286	289	-162	286	284	289	174	288	286	289
289	383	65	1	128	139	289	288	290	139	289	287	290	151	289	286	291	179	289	288	291
290	384	65	1.5	128.5	151	290	289	291	139	290	289	291	-151	289	286	291	-179	289	288	291
291	385	65	2	129	151	291	290	292	139	291	290	292	0	291	289	298	0	291	289	298
292	386	65	2.5	129.5	145	292	291	294	134	292	291	294	0	291	289	298	0	291	289	298
293	388	66	3	130	-145	292	291	294	-134	292	291	294	0	291	289	298	0	291	289	298
294	389	66	3.5	130.5	162	294	292	296	122	294	292	295	0	291	289	298	0	291	289	298
295	390	66	4	131	-162	294	292	296	128	295	294	297	0	291	289	298	0	291	289	298
296	391	66	4.5	131.5	157	296	294	297	-128	295	294	297	0	291	289	298	0	291	289	298
297	393	67	5	132	162	297	296	299	122	297	295	298	0	291	289	298	0	291	289	298
298	394	67	5.5	132.5	-162	297	296	299	139	298	297	299	179	298	291	299	191	298	291	299
299	395	67	6	133	0	299	297	307	139	299	298	300	179	299	298	300	191	299	298	300
300	396	67	6.5	133.5	0	299	297	307	122	300	299	302	174	300	299	302	185	300	299	301
301	398	68	7	134	0	299	297	307	-122	300	299	302	-174	300	299	302	185	301	300	302
302	399	68	7.5	134.5	0	299	297	307	122	302	300	303	162	302	300	303	202	302	301	304
303	400	68	8	135	0	299	297	307	145	303	302	304	168	303	302	304	-202	302	301	304
304	401	68	8.5	135.5	0	299	297	307	145	304	303	305	168	304	303	305	196	304	302	305
305	403	69	1	136	0	299	297	307	151	305	304	307	162	305	304	307	202	305	304	306
306	404	69	1.5	136.5	0	299	297	307	-151	305	304	307	-162	305	304	307	191	306	305	307
307	405	69	2	137	139	307	299	311	0	307	305	308	0	307	305	308	191	307	306	309
308	406	69	2.5	137.5	-139	307	299	311	151	308	307	311	162	308	307	312	-191	307	306	309
309	407	69	2.75	137.75	-139	307	299	311	-151	308	307	311	-162	308	307	312	185	309	307	310
310	408	69	2.875	137.875	-139	307	299	311	-151	308	307	311	-162	308	307	312	179	310	309	311
311	410	70	3	138	122	311	307	313	145	311	308	313	-162	308	307	312	174	311	310	313
312	411	70	3.5	138.5	-122	311	307	313	-145	311	308	313	162	312	308	314	-174	311	310	313
313	412	70	4	139	128	313	311	315	139	313	311	315	-162	312	308	314	179	313	311	315
314	413	70	4.5	139.5	-128	313	311	315	-139	313	311	315	156	314	312	315	-179	313	311	315
315	415	71	5	140	122	315	313	316	145	315	313	316	162	315	314	316	174	315	313	316
316	417	72	7	142	0	316	315	317	0	316	315	317	0	316	315	317	0	316	315	317
317	418	72	7.5	142.5	128	317	316	318	139	317	316	318	151	317	316	318	179	317	316	318
318	419	72	8	143	122	318	317	319	145	318	317	319	162	318	317	319	174	318	317	319
319	420	72	8.5	143.5	111	319	318	320	151	319	318	320	162	319	318	320	179	319	318	320
320	422	73	1	144	105	320	319	322	156	320	319	321	168	320	319	322	185	320	319	321
321	423	73	1.25	144.25	-105	320	319	322	151	321	320	322	-168	320	319	322	179	321	320	322
322	424	73	1.5	144.5	105	322	320	324	145	322	321	323	156	322	320	324	174	322	321	323
323	425	73	1.75	144.75	-105	322	320	324	139	323	322	324	-156	322	320	324	168	323	322	324
324	426	73	2	145	111	324	322	326	134	324	323	325	151	324	322	326	162	324	323	326
325	427	73	2.5	145.5	-111	324	322	326	134	325	324	326	-151	324	322	326	-162	324	323	326
326	429	74	3	146	0	326	324	327	128	326	325	327	0	326	324	327	0	326	324	327
327	430	74	3.5	146.5	105	327	326	329	145	327	326	328	156	327	326	329	168	327	326	329
328	431	74	4.25	147.25	-105	327	326	329	139	328	327	329	-156	327	326	329	-168	327	326	329
329	432	74	4.5	147.5	105	329	327	331	134	329	328	330	145	329	327	331	185	329	327	331
330	433	74	4.75	147.75	-105	329	327	331	128	330	329	331	-145	329	327	331	-185	329	327	331
331	435	75	5	148	128	331	329	335	139	331	330	332	151	331	329	333	179	331	329	333
332	436	75	5.25	148.25	-128	331	329	335	145	332	331	333	-151	331	329	333	-179	331	329	333
333	437	75	5.5	148.5	-128	331	329	335	151	333	332	334	139	333	331	335	174	333	331	334
334	438	75	5.75	148.75	-128	331	329	335	156	334	333	335	-139	333	331	335	168	334	333	335
335	439	75	6	149	122	335	331	336	162	335	334	336	145	335	333	336	174	335	334	336
336	441	76	7	150	0	336	335	337	0	336	335	337	139	336	335	337	0	336	335	337
337	442	76	7.5	150.5	139	337	336	338	162	337	336	338	179	337	336	338	191	337	336	338
338	443	76	8	151	145	338	337	339	156	338	337	339	174	338	337	339	185	338	337	339
339	444	76	8.5	151.5	139	339	338	340	151	339	338	340	179	339	338	340	202	339	338	341
340	446	77	1	152	133	340	339	344	145	340	339	344	162	340	339	344	-202	339	338	341
341	447	77	1.25	152.25	-133	340	339	344	-145	340	339	344	-162	340	339	344	196	341	339	342
342	448	77	1.5	152.5	-133	340	339	344	-145	340	339	344	-162	340	339	344	191	342	341	343
343	449	77	1.75	152.75	-133	340	339	344	-145	340	339	344	-162	340	339	344	185	343	342	344
344	450	77	2	153	128	344	340	345	151	344	340	345	168	344	340	346	179	344	343	345
345	451	77	2.5	153.5	145	345	344	347	145	345	344	347	-168	344	340	346	196	345	344	347
346	452	77	2.75	153.75	-145	345	344	347	-145	345	344	347	174	346	344	347	-196	345	344	347
347	454	78	3	154	139	347	345	349	162	347	345	349	179	347	346	348	191	347	345	349
348	455	78	3.25	154.25	-139	347	345	349	-162	347	345	349	185	348	347	349	-191	347	345	349
349	456	78	3.5	154.5	145	349	347	350	156	349	347	350	174	349	348	350	185	349	347	350
350	457	78	4	155	139	350	349	351	162	350	349	351	179	350	349	352	191	350	349	351
351	459	79	5	156	128	351	350	352	168	351	350	352	-179	350	349	352	179	351	350	352
352	460	79	5.5	156.5	145	352	351	353	156	352	351	354	168	352	350	355	185	352	351	354
353	461	79	6	157	128	353	352	355	-156	352	351	354	-168	352	350	355	-185	352	351	354
354	462	79	6.25	157.25	-128	353	352	355	139	354	352	355	-168	352	350	355	179	354	352	355
355	463	79	6.5	157.5	139	355	353	356	151	355	354	356	162	355	352	357	179	355	354	358
356	465	80	7	158	122	356	355	360	145	356	355	360	-162	355	352	357	-179	355	354	358
357	466	80	7.25	158.25	-122	356	355	360	-145	356	355	360	156	357	355	358	-179	355	354	358
358	467	80	7.5	158.5	-122	356	355	360	-145	356	355	360	151	358	357	359	174	358	355	360
359	468	80	7.75	158.75	-122	356	355	360	-145	356	355	360	145	359	358	360	-174	358	355	360
360	469	80	8	159	139	360	356	361	139	360	356	361	151	360	359	361	179	360	358	361
361	471	81	1	160	0	361	360	-1	0	361	360	-1	0	361	360	-1	0	361	360	-1
