% !!!COA:	Josquin des Prez
% !!!CDT:	~1450-1521/08/27
% !!!COM2: La Rue, Pierre de
% !!!CDT2: ~1452///-1518/11/20/
% !!!OPR:	Missa Cum iocunditate
% !!!ONM:	2
% !!!OTL:	Gloria
% !!!AGN:	Mass; Gloria
% !!!SCT:	NJE 3.4
% !!!SCA:	New Josquin Edition 3.4
% !!!voices: 4
% !!!voices-OPR: 4(-5)
% !!section: Et in terra pax
% !!!OMD: Et in terra pax
%%idx	%%line	%%bar	%%beat	%%abs	%%b40	%%attk	%%last	%%next	%%b40	%%attk	%%last	%%next	%%b40	%%attk	%%last	%%next	%%b40	%%attk	%%last	%%next
0	2000	3000	4000	5000	1040	7100	7200	7300	1040	7100	7200	7300	1040	7100	7200	7300	1040	7100	7200	7300
1	29	1	1	0	105	1	-1	2	145	1	-1	7	168	1	-1	3	185	1	-1	5
2	30	1	2	1	105	2	1	4	-145	1	-1	7	-168	1	-1	3	-185	1	-1	5
3	31	1	2.5	1.5	-105	2	1	4	-145	1	-1	7	157	3	1	5	-185	1	-1	5
4	32	1	2.75	1.75	111	4	2	5	-145	1	-1	7	-157	3	1	5	-185	1	-1	5
5	33	1	3	2	117	5	4	6	-145	1	-1	7	168	5	3	6	185	5	1	6
6	34	1	3.5	2.5	122	6	5	8	-145	1	-1	7	174	6	5	8	174	6	5	7
7	36	2	4	3	-122	6	5	8	134	7	1	11	-174	6	5	8	185	7	6	9
8	37	2	4.25	3.25	117	8	6	9	-134	7	1	11	168	8	6	9	-185	7	6	9
9	38	2	4.5	3.5	122	9	8	10	-134	7	1	11	168	9	8	13	191	9	7	12
10	39	2	4.75	3.75	128	10	9	11	-134	7	1	11	-168	9	8	13	-191	9	7	12
11	40	2	5	4	134	11	10	14	145	11	7	14	-168	9	8	13	-191	9	7	12
12	41	2	5.25	4.25	-134	11	10	14	-145	11	7	14	-168	9	8	13	185	12	9	13
13	42	2	5.5	4.5	-134	11	10	14	-145	11	7	14	162	13	9	14	185	13	12	15
14	43	2	6	5	128	14	11	16	151	14	11	16	168	14	13	16	-185	13	12	15
15	44	2	6.5	5.5	-128	14	11	16	-151	14	11	16	-168	14	13	16	180	15	13	16
16	46	3	7	6	105	16	14	18	145	16	14	20	0	16	14	17	185	16	15	20
17	47	3	7.5	6.5	-105	16	14	18	-145	16	14	20	168	17	16	19	-185	16	15	20
18	48	3	8	7	0	18	16	19	-145	16	14	20	-168	17	16	19	-185	16	15	20
19	49	3	8.5	7.5	145	19	18	21	-145	16	14	20	157	19	17	20	-185	16	15	20
20	50	3	9	8	-145	19	18	21	145	20	16	22	168	20	19	21	0	20	16	21
21	51	3	9.5	8.5	134	21	19	22	-145	20	16	22	174	21	20	23	197	21	20	24
22	53	4	10	9	145	22	21	25	0	22	20	31	-174	21	20	23	-197	21	20	24
23	54	4	10.25	9.25	-145	22	21	25	0	22	20	31	168	23	21	24	-197	21	20	24
24	55	4	10.5	9.5	-145	22	21	25	0	22	20	31	168	24	23	26	185	24	21	25
25	56	4	11	10	145	25	22	26	0	22	20	31	-168	24	23	26	197	25	24	26
26	57	4	11.5	10.5	151	26	25	29	0	22	20	31	162	26	24	27	202	26	25	29
27	58	4	11.75	10.75	-151	26	25	29	0	22	20	31	157	27	26	28	-202	26	25	29
28	59	4	12	11	-151	26	25	29	0	22	20	31	162	28	27	30	-202	26	25	29
29	60	4	12.25	11.25	145	29	26	30	0	22	20	31	-162	28	27	30	197	29	26	30
30	61	4	12.5	11.5	145	30	29	31	0	22	20	31	168	30	28	31	197	30	29	31
% !!linebreak:default
31	64	5	1	12	0	31	30	32	168	31	22	33	0	31	30	32	0	31	30	32
32	65	5	1.5	12.5	145	32	31	34	-168	31	22	33	185	32	31	34	197	32	31	34
33	66	5	2	13	-145	32	31	34	157	33	31	34	-185	32	31	34	-197	32	31	34
34	67	5	2.5	13.5	145	34	32	36	168	34	33	35	185	34	32	35	197	34	32	36
35	68	5	3	14	-145	34	32	36	174	35	34	37	185	35	34	36	-197	34	32	36
36	69	5	3.5	14.5	134	36	34	37	-174	35	34	37	185	36	35	38	185	36	34	37
37	71	6	4	15	145	37	36	39	174	37	35	43	-185	36	35	38	197	37	36	39
38	72	6	4.25	15.25	-145	37	36	39	-174	37	35	43	179	38	36	39	-197	37	36	39
39	73	6	4.5	15.5	151	39	37	42	-174	37	35	43	174	39	38	40	202	39	37	42
40	74	6	4.75	15.75	-151	39	37	42	-174	37	35	43	168	40	39	41	-202	39	37	42
41	75	6	5	16	-151	39	37	42	-174	37	35	43	162	41	40	42	-202	39	37	42
42	76	6	5.5	16.5	145	42	39	44	-174	37	35	43	185	42	41	43	197	42	39	44
43	77	6	6	17	-145	42	39	44	168	43	37	45	0	43	42	44	-197	42	39	44
44	78	6	6.5	17.5	145	44	42	45	-168	43	37	45	145	44	43	45	185	44	42	45
45	80	7	7	18	139	45	44	46	0	45	43	46	162	45	44	46	191	45	44	46
46	81	7	7.5	18.5	145	46	45	51	168	46	45	47	157	46	45	47	197	46	45	48
47	82	7	8	19	-145	46	45	51	157	47	46	51	145	47	46	50	-197	46	45	48
48	83	7	8.25	19.25	-145	46	45	51	-157	47	46	51	-145	47	46	50	174	48	46	49
49	84	7	8.5	19.5	-145	46	45	51	-157	47	46	51	-145	47	46	50	185	49	48	51
50	85	7	8.75	19.75	-145	46	45	51	-157	47	46	51	157	50	47	51	-185	49	48	51
51	86	7	9	20	139	51	46	52	168	51	47	53	151	51	50	52	191	51	49	52
52	87	7	9.5	20.5	145	52	51	53	-168	51	47	53	145	52	51	53	197	52	51	53
53	89	8	10	21	122	53	52	58	174	53	51	58	0	53	52	54	202	53	52	55
54	90	8	10.5	21.5	-122	53	52	58	-174	53	51	58	145	54	53	57	-202	53	52	55
55	91	8	10.75	21.75	-122	53	52	58	-174	53	51	58	-145	54	53	57	197	55	53	56
56	92	8	10.875	21.875	-122	53	52	58	-174	53	51	58	-145	54	53	57	191	56	55	57
57	93	8	11	22	-122	53	52	58	-174	53	51	58	162	57	54	58	185	57	56	58
58	94	8	12	23	0	58	53	59	168	58	53	60	157	58	57	60	0	58	57	59
59	95	8	12.5	23.5	145	59	58	60	-168	58	53	60	-157	58	57	60	185	59	58	60
% !!linebreak:default
60	98	9	1	24	139	60	59	61	0	60	58	61	151	60	58	61	191	60	59	61
61	99	9	1.5	24.5	145	61	60	64	168	61	60	62	145	61	60	62	197	61	60	63
62	100	9	2	25	-145	61	60	64	157	62	61	64	168	62	61	65	-197	61	60	63
63	101	9	2.25	25.25	-145	61	60	64	-157	62	61	64	-168	62	61	65	174	63	61	64
64	102	9	2.5	25.5	145	64	61	66	157	64	62	66	-168	62	61	65	185	64	63	66
65	103	9	2.75	25.75	-145	64	61	66	-157	64	62	66	162	65	62	66	-185	64	63	66
66	104	9	3	26	139	66	64	67	168	66	64	68	151	66	65	67	191	66	64	67
67	105	9	3.5	26.5	145	67	66	68	-168	66	64	68	145	67	66	68	197	67	66	68
68	107	10	4	27	122	68	67	75	174	68	66	77	162	68	67	70	202	68	67	69
69	108	10	4.5	27.5	-122	68	67	75	-174	68	66	77	-162	68	67	70	202	69	68	72
70	109	10	4.75	27.75	-122	68	67	75	-174	68	66	77	157	70	68	71	-202	69	68	72
71	110	10	5	28	-122	68	67	75	-174	68	66	77	145	71	70	75	-202	69	68	72
72	111	10	5.25	28.25	-122	68	67	75	-174	68	66	77	-145	71	70	75	202	72	69	73
73	112	10	5.5	28.5	-122	68	67	75	-174	68	66	77	-145	71	70	75	202	73	72	74
74	113	10	5.75	28.75	-122	68	67	75	-174	68	66	77	-145	71	70	75	202	74	73	75
75	114	10	6	29	0	75	68	76	-174	68	66	77	0	75	71	82	197	75	74	81
76	115	10	6.5	29.5	145	76	75	78	-174	68	66	77	0	75	71	82	-197	75	74	81
77	117	11	7	30	-145	76	75	78	168	77	68	94	0	75	71	82	-197	75	74	81
78	118	11	7.25	30.25	145	78	76	79	-168	77	68	94	0	75	71	82	-197	75	74	81
79	119	11	7.5	30.5	145	79	78	80	-168	77	68	94	0	75	71	82	-197	75	74	81
80	120	11	7.75	30.75	145	80	79	81	-168	77	68	94	0	75	71	82	-197	75	74	81
81	121	11	8	31	128	81	80	87	-168	77	68	94	0	75	71	82	0	81	75	85
82	122	11	8.5	31.5	-128	81	80	87	-168	77	68	94	179	82	75	84	0	81	75	85
83	123	11	9	32	-128	81	80	87	-168	77	68	94	-179	82	75	84	0	81	75	85
84	124	11	9.25	32.25	-128	81	80	87	-168	77	68	94	179	84	82	85	0	81	75	85
85	125	11	9.5	32.5	-128	81	80	87	-168	77	68	94	179	85	84	86	191	85	81	88
86	126	11	9.75	32.75	-128	81	80	87	-168	77	68	94	179	86	85	87	-191	85	81	88
87	128	12	10	33	0	87	81	90	-168	77	68	94	168	87	86	89	-191	85	81	88
88	129	12	10.5	33.5	0	87	81	90	-168	77	68	94	-168	87	86	89	191	88	85	89
89	130	12	11	34	0	87	81	90	-168	77	68	94	0	89	87	90	191	89	88	90
90	131	12	11.5	34.5	128	90	87	92	-168	77	68	94	179	90	89	92	208	90	89	91
91	132	12	12.25	35.25	-128	90	87	92	-168	77	68	94	-179	90	89	92	202	91	90	92
92	133	12	12.5	35.5	128	92	90	94	-168	77	68	94	179	92	90	94	197	92	91	93
93	134	12	12.75	35.75	-128	92	90	94	-168	77	68	94	-179	92	90	94	185	93	92	94
% !!pagebreak:default
94	137	13	1	36	128	94	92	95	0	94	77	102	168	94	92	95	191	94	93	95
95	138	13	1.5	36.5	145	95	94	97	0	94	77	102	174	95	94	97	185	95	94	96
96	139	13	2	37	-145	95	94	97	0	94	77	102	-174	95	94	97	0	96	95	101
97	140	13	2.25	37.25	139	97	95	98	0	94	77	102	168	97	95	98	0	96	95	101
98	141	13	2.5	37.5	134	98	97	99	0	94	77	102	162	98	97	100	0	96	95	101
99	142	13	2.75	37.75	122	99	98	100	0	94	77	102	-162	98	97	100	0	96	95	101
100	143	13	3	38	128	100	99	101	0	94	77	102	157	100	98	101	0	96	95	101
101	144	13	3.5	38.5	122	101	100	102	0	94	77	102	162	101	100	102	174	101	96	103
102	146	14	4	39	0	102	101	103	145	102	94	104	0	102	101	103	-174	101	96	103
103	147	14	4.5	39.5	122	103	102	105	-145	102	94	104	162	103	102	105	174	103	101	104
104	148	14	5	40	-122	103	102	105	145	104	102	105	-162	103	102	105	174	104	103	107
105	149	14	5.5	40.5	122	105	103	106	145	105	104	107	162	105	103	106	-174	104	103	107
106	150	14	6	41	122	106	105	107	-145	105	104	107	162	106	105	107	-174	104	103	107
107	151	14	6.5	41.5	122	107	106	108	134	107	105	108	162	107	106	108	162	107	104	108
108	153	15	7	42	122	108	107	109	145	108	107	109	162	108	107	109	174	108	107	109
109	154	15	7.5	42.5	139	109	108	110	151	109	108	110	162	109	108	110	179	109	108	110
110	155	15	8.5	43.5	122	110	109	111	145	110	109	111	162	110	109	111	174	110	109	111
111	156	15	9	44	122	111	110	112	145	111	110	113	162	111	110	113	174	111	110	117
112	157	15	9.5	44.5	122	112	111	114	-145	111	110	113	-162	111	110	113	-174	111	110	117
113	159	16	10	45	-122	112	111	114	0	113	111	136	0	113	111	115	-174	111	110	117
114	160	16	10.25	45.25	117	114	112	115	0	113	111	136	0	113	111	115	-174	111	110	117
115	161	16	10.5	45.5	111	115	114	116	0	113	111	136	162	115	113	117	-174	111	110	117
116	162	16	10.75	45.75	105	116	115	117	0	113	111	136	-162	115	113	117	-174	111	110	117
117	163	16	11	46	122	117	116	128	0	113	111	136	162	117	115	119	0	117	111	118
118	164	16	11.5	46.5	-122	117	116	128	0	113	111	136	-162	117	115	119	202	118	117	121
119	165	16	11.75	46.75	-122	117	116	128	0	113	111	136	157	119	117	120	-202	118	117	121
120	166	16	12	47	-122	117	116	128	0	113	111	136	151	120	119	121	-202	118	117	121
121	167	16	12.25	47.25	-122	117	116	128	0	113	111	136	145	121	120	122	197	121	118	122
122	168	16	12.5	47.5	-122	117	116	128	0	113	111	136	162	122	121	125	191	122	121	123
123	169	16	12.75	47.75	-122	117	116	128	0	113	111	136	-162	122	121	125	185	123	122	124
% !!linebreak:default
124	172	17	1	48	-122	117	116	128	0	113	111	136	-162	122	121	125	202	124	123	127
125	173	17	1.25	48.25	-122	117	116	128	0	113	111	136	157	125	122	126	-202	124	123	127
126	174	17	1.5	48.5	-122	117	116	128	0	113	111	136	151	126	125	127	-202	124	123	127
127	175	17	1.75	48.75	-122	117	116	128	0	113	111	136	145	127	126	128	197	127	124	128
128	176	17	2	49	0	128	117	130	0	113	111	136	168	128	127	131	191	128	127	129
129	177	17	2.25	49.25	0	128	117	130	0	113	111	136	-168	128	127	131	185	129	128	130
130	178	17	2.5	49.5	105	130	128	132	0	113	111	136	-168	128	127	131	208	130	129	133
131	179	17	2.75	49.75	-105	130	128	132	0	113	111	136	162	131	128	132	-208	130	129	133
132	180	17	3	50	128	132	130	135	0	113	111	136	157	132	131	133	-208	130	129	133
133	181	17	3.25	50.25	-128	132	130	135	0	113	111	136	151	133	132	134	202	133	130	134
134	182	17	3.5	50.5	-128	132	130	135	0	113	111	136	168	134	133	138	197	134	133	135
135	183	17	3.75	50.75	122	135	132	136	0	113	111	136	-168	134	133	138	191	135	134	136
136	185	18	4	51	117	136	135	137	145	136	113	141	-168	134	133	138	208	136	135	139
137	186	18	4.25	51.25	111	137	136	138	-145	136	113	141	-168	134	133	138	-208	136	135	139
138	187	18	4.5	51.5	105	138	137	140	-145	136	113	141	168	138	134	139	-208	136	135	139
139	188	18	5	52	-105	138	137	140	-145	136	113	141	145	139	138	140	208	139	136	140
140	189	18	5.5	52.5	122	140	138	143	-145	136	113	141	185	140	139	142	185	140	139	141
141	190	18	6	53	-122	140	138	143	134	141	136	145	-185	140	139	142	202	141	140	144
142	191	18	6.25	53.25	-122	140	138	143	-134	141	136	145	179	142	140	143	-202	141	140	144
143	192	18	6.5	53.5	122	143	140	145	-134	141	136	145	174	143	142	144	-202	141	140	144
144	193	18	6.75	53.75	-122	143	140	145	-134	141	136	145	162	144	143	145	202	144	141	145
145	195	19	7	54	105	145	143	147	145	145	141	147	168	145	144	150	197	145	144	146
146	196	19	7.5	54.5	-105	145	143	147	-145	145	141	147	-168	145	144	150	185	146	145	148
147	197	19	8	55	128	147	145	151	151	147	145	151	-168	145	144	150	-185	146	145	148
148	198	19	8.5	55.5	-128	147	145	151	-151	147	145	151	-168	145	144	150	180	148	146	149
149	199	19	8.75	55.75	-128	147	145	151	-151	147	145	151	-168	145	144	150	174	149	148	150
150	200	19	9	56	-128	147	145	151	-151	147	145	151	168	150	145	151	180	150	149	151
151	202	20	10	57	105	151	147	152	145	151	147	158	157	151	150	153	185	151	150	155
152	203	20	11	58	0	152	151	153	-145	151	147	158	-157	151	150	153	-185	151	150	155
153	204	20	11.5	58.5	145	153	152	156	-145	151	147	158	151	153	151	154	-185	151	150	155
154	205	20	11.75	58.75	-145	153	152	156	-145	151	147	158	145	154	153	155	-185	151	150	155
155	206	20	12	59	-145	153	152	156	-145	151	147	158	168	155	154	158	0	155	151	158
156	207	20	12.25	59.25	151	156	153	157	-145	151	147	158	-168	155	154	158	0	155	151	158
157	208	20	12.5	59.5	157	157	156	158	-145	151	147	158	-168	155	154	158	0	155	151	158
% !!linebreak:default
158	211	21	1	60	162	158	157	159	0	158	151	176	0	158	155	161	185	158	155	159
159	212	21	1.75	60.75	157	159	158	160	0	158	151	176	0	158	155	161	191	159	158	160
160	213	21	2	61	145	160	159	161	0	158	151	176	0	158	155	161	197	160	159	161
161	214	21	2.5	61.5	151	161	160	162	0	158	151	176	162	161	158	162	202	161	160	162
162	215	21	3.25	62.25	157	162	161	163	0	158	151	176	168	162	161	163	197	162	161	163
163	216	21	3.5	62.5	162	163	162	164	0	158	151	176	174	163	162	164	185	163	162	164
164	218	22	4	63	139	164	163	165	0	158	151	176	179	164	163	165	191	164	163	165
165	219	22	4.75	63.75	145	165	164	166	0	158	151	176	174	165	164	166	185	165	164	166
166	220	22	5	64	151	166	165	167	0	158	151	176	162	166	165	167	174	166	165	167
167	221	22	5.5	64.5	128	167	166	168	0	158	151	176	168	167	166	168	179	167	166	168
168	222	22	6.25	65.25	134	168	167	169	0	158	151	176	162	168	167	169	174	168	167	169
169	223	22	6.5	65.5	139	169	168	170	0	158	151	176	151	169	168	170	162	169	168	170
170	225	23	7	66	116	170	169	171	0	158	151	176	156	170	169	171	168	170	169	171
171	226	23	7.75	66.75	122	171	170	172	0	158	151	176	151	171	170	172	162	171	170	172
172	227	23	8	67	128	172	171	173	0	158	151	176	139	172	171	173	151	172	171	173
173	228	23	8.5	67.5	105	173	172	174	0	158	151	176	145	173	172	175	157	173	172	175
174	229	23	9	68	128	174	173	176	0	158	151	176	-145	173	172	175	-157	173	172	175
175	230	23	9.5	68.5	-128	174	173	176	0	158	151	176	140	175	173	176	151	175	173	176
176	232	24	10	69	105	176	174	181	168	176	158	181	145	176	175	177	157	176	175	178
177	233	24	11	70	-105	176	174	181	-168	176	158	181	145	177	176	178	-157	176	175	178
178	234	24	11.5	70.5	-105	176	174	181	-168	176	158	181	157	178	177	180	145	178	176	179
179	235	24	12	71	-105	176	174	181	-168	176	158	181	-157	178	177	180	145	179	178	181
180	236	24	12.5	71.5	-105	176	174	181	-168	176	158	181	145	180	178	181	-145	179	178	181
% !!linebreak:default
181	239	25	1	72	0	181	176	182	157	181	176	183	145	181	180	183	0	181	179	186
182	240	25	1.5	72.5	145	182	181	183	-157	181	176	183	-145	181	180	183	0	181	179	186
183	241	25	2	73	145	183	182	184	168	183	181	185	0	183	181	191	0	181	179	186
184	242	25	2.5	73.5	139	184	183	185	-168	183	181	185	0	183	181	191	0	181	179	186
185	243	25	3	74	134	185	184	186	174	185	183	187	0	183	181	191	0	181	179	186
186	244	25	3.5	74.5	145	186	185	188	-174	185	183	187	0	183	181	191	185	186	181	187
187	246	26	4	75	-145	186	185	188	168	187	185	190	0	183	181	191	185	187	186	189
188	247	26	4.25	75.25	139	188	186	189	-168	187	185	190	0	183	181	191	-185	187	186	189
189	248	26	4.5	75.5	128	189	188	190	-168	187	185	190	0	183	181	191	179	189	187	190
190	249	26	5	76	122	190	189	192	0	190	187	210	0	183	181	191	174	190	189	191
191	250	26	5.5	76.5	-122	190	189	192	0	190	187	210	185	191	183	192	185	191	190	193
192	251	26	6	77	0	192	190	196	0	190	187	210	185	192	191	194	-185	191	190	193
193	252	26	6.25	77.25	0	192	190	196	0	190	187	210	-185	192	191	194	179	193	191	194
194	253	26	6.5	77.5	0	192	190	196	0	190	187	210	179	194	192	195	168	194	193	195
195	255	27	7	78	0	192	190	196	0	190	187	210	174	195	194	196	162	195	194	197
196	256	27	7.5	78.5	162	196	192	197	0	190	187	210	185	196	195	198	-162	195	194	197
197	257	27	8	79	162	197	196	199	0	190	187	210	-185	196	195	198	0	197	195	201
198	258	27	8.25	79.25	-162	197	196	199	0	190	187	210	179	198	196	199	0	197	195	201
199	259	27	8.5	79.5	157	199	197	200	0	190	187	210	168	199	198	200	0	197	195	201
200	260	27	9	80	151	200	199	201	0	190	187	210	162	200	199	202	0	197	195	201
201	261	27	9.5	80.5	162	201	200	203	0	190	187	210	-162	200	199	202	202	201	197	202
202	263	28	10	81	-162	201	200	203	0	190	187	210	0	202	200	206	202	202	201	204
203	264	28	10.25	81.25	157	203	201	204	0	190	187	210	0	202	200	206	-202	202	201	204
204	265	28	10.5	81.5	145	204	203	205	0	190	187	210	0	202	200	206	197	204	202	205
205	266	28	11	82	139	205	204	207	0	190	187	210	0	202	200	206	191	205	204	206
206	267	28	11.5	82.5	-139	205	204	207	0	190	187	210	162	206	202	207	202	206	205	208
207	268	28	12	83	0	207	205	211	0	190	187	210	162	207	206	209	-202	206	205	208
208	269	28	12.25	83.25	0	207	205	211	0	190	187	210	-162	207	206	209	197	208	206	209
209	270	28	12.5	83.5	0	207	205	211	0	190	187	210	157	209	207	210	185	209	208	210
% !!pagebreak:default
210	273	29	1	84	0	207	205	211	168	210	190	216	151	210	209	211	179	210	209	216
211	274	29	1.5	84.5	128	211	207	212	-168	210	190	216	168	211	210	213	-179	210	209	216
212	275	29	2	85	128	212	211	215	-168	210	190	216	-168	211	210	213	-179	210	209	216
213	276	29	2.25	85.25	-128	212	211	215	-168	210	190	216	162	213	211	214	-179	210	209	216
214	277	29	2.5	85.5	-128	212	211	215	-168	210	190	216	157	214	213	215	-179	210	209	216
215	278	29	2.75	85.75	122	215	212	216	-168	210	190	216	151	215	214	216	-179	210	209	216
216	279	29	3	86	117	216	215	217	168	216	210	218	145	216	215	217	0	216	210	217
217	280	29	3.5	86.5	128	217	216	219	-168	216	210	218	151	217	216	218	208	217	216	218
218	282	30	4	87	-128	217	216	219	157	218	216	222	139	218	217	220	208	218	217	221
219	283	30	4.25	87.25	122	219	217	220	-157	218	216	222	-139	218	217	220	-208	218	217	221
220	284	30	4.5	87.5	117	220	219	221	-157	218	216	222	145	220	218	222	-208	218	217	221
221	285	30	4.75	87.75	111	221	220	222	-157	218	216	222	-145	220	218	222	202	221	218	222
222	286	30	5	88	105	222	221	228	168	222	218	228	0	222	220	223	197	222	221	223
223	287	30	5.5	88.5	-105	222	221	228	-168	222	218	228	185	223	222	224	208	223	222	225
224	288	30	6	89	-105	222	221	228	-168	222	218	228	185	224	223	227	-208	223	222	225
225	289	30	6.25	89.25	-105	222	221	228	-168	222	218	228	-185	224	223	227	202	225	223	226
226	290	30	6.5	89.5	-105	222	221	228	-168	222	218	228	-185	224	223	227	197	226	225	227
227	291	30	6.75	89.75	-105	222	221	228	-168	222	218	228	179	227	224	228	191	227	226	228
228	293	31	7	90	0	228	222	229	174	228	222	236	174	228	227	229	185	228	227	230
229	294	31	7.5	90.5	145	229	228	230	-174	228	222	236	185	229	228	231	-185	228	227	230
230	295	31	8	91	151	230	229	235	-174	228	222	236	-185	229	228	231	202	230	228	234
231	296	31	8.25	91.25	-151	230	229	235	-174	228	222	236	179	231	229	232	-202	230	228	234
232	297	31	8.5	91.5	-151	230	229	235	-174	228	222	236	174	232	231	233	-202	230	228	234
233	298	31	8.75	91.75	-151	230	229	235	-174	228	222	236	168	233	232	234	-202	230	228	234
234	299	31	9	92	-151	230	229	235	-174	228	222	236	162	234	233	235	202	234	230	235
235	300	31	9.5	92.5	145	235	230	240	-174	228	222	236	185	235	234	237	197	235	234	240
236	302	32	10	93	-145	235	230	240	168	236	228	242	-185	235	234	237	-197	235	234	240
237	303	32	10.25	93.25	-145	235	230	240	-168	236	228	242	179	237	235	238	-197	235	234	240
238	304	32	10.5	93.5	-145	235	230	240	-168	236	228	242	168	238	237	239	-197	235	234	240
239	305	32	10.75	93.75	-145	235	230	240	-168	236	228	242	174	239	238	240	-197	235	234	240
240	306	32	11	94	139	240	235	242	-168	236	228	242	179	240	239	241	191	240	235	242
241	307	32	11.5	94.5	-139	240	235	242	-168	236	228	242	139	241	240	242	-191	240	235	242
242	308	32	12	95	134	242	240	243	0	242	236	245	162	242	241	244	185	242	240	243
243	309	32	12.5	95.5	151	243	242	245	0	242	236	245	-162	242	241	244	202	243	242	245
% !!linebreak:default
244	312	33	1	96	-151	243	242	245	0	242	236	245	151	244	242	245	-202	243	242	245
245	313	33	1.5	96.5	145	245	243	247	168	245	242	247	157	245	244	246	197	245	243	247
246	314	33	2	97	-145	245	243	247	-168	245	242	247	145	246	245	247	-197	245	243	247
247	315	33	2.5	97.5	145	247	245	249	157	247	245	249	168	247	246	250	191	247	245	248
248	316	33	2.75	97.75	-145	247	245	249	-157	247	245	249	-168	247	246	250	185	248	247	249
249	317	33	3	98	139	249	247	251	168	249	247	253	-168	247	246	250	191	249	248	251
250	318	33	3.25	98.25	-139	249	247	251	-168	249	247	253	162	250	247	251	-191	249	248	251
251	319	33	3.5	98.5	145	251	249	253	-168	249	247	253	157	251	250	252	197	251	249	253
252	320	33	3.75	98.75	-145	251	249	253	-168	249	247	253	151	252	251	253	-197	251	249	253
253	322	34	4	99	134	253	251	254	174	253	249	259	157	253	252	254	185	253	251	254
254	323	34	4.5	99.5	151	254	253	256	-174	253	249	259	162	254	253	255	202	254	253	256
255	324	34	5	100	-151	254	253	256	-174	253	249	259	151	255	254	260	-202	254	253	256
256	325	34	5.25	100.25	145	256	254	257	-174	253	249	259	-151	255	254	260	197	256	254	257
257	326	34	5.5	100.5	139	257	256	258	-174	253	249	259	-151	255	254	260	191	257	256	258
258	327	34	5.75	100.75	134	258	257	259	-174	253	249	259	-151	255	254	260	185	258	257	259
259	328	34	6	101	139	259	258	260	168	259	253	260	-151	255	254	260	191	259	258	260
260	330	35	7	102	134	260	259	267	0	260	259	265	157	260	255	261	185	260	259	265
261	331	35	7.5	102.5	-134	260	259	267	0	260	259	265	162	261	260	263	-185	260	259	265
262	332	35	8	103	-134	260	259	267	0	260	259	265	-162	261	260	263	-185	260	259	265
263	333	35	8.5	103.5	-134	260	259	267	0	260	259	265	157	263	261	264	-185	260	259	265
264	334	35	8.75	103.75	-134	260	259	267	0	260	259	265	151	264	263	265	-185	260	259	265
265	335	35	9	104	-134	260	259	267	145	265	260	267	157	265	264	267	0	265	260	266
266	336	35	9.5	104.5	-134	260	259	267	-145	265	260	267	-157	265	264	267	185	266	265	268
267	338	36	10	105	0	267	260	271	145	267	265	279	0	267	265	268	-185	266	265	268
268	339	36	10.5	105.5	0	267	260	271	-145	267	265	279	157	268	267	270	185	268	266	269
269	340	36	11	106	0	267	260	271	-145	267	265	279	-157	268	267	270	185	269	268	271
270	341	36	11.25	106.25	0	267	260	271	-145	267	265	279	162	270	268	271	-185	269	268	271
271	342	36	11.5	106.5	145	271	267	273	-145	267	265	279	168	271	270	272	197	271	269	273
272	343	36	12	107	-145	271	267	273	-145	267	265	279	145	272	271	275	-197	271	269	273
273	344	36	12.25	107.25	151	273	271	274	-145	267	265	279	-145	272	271	275	202	273	271	274
274	345	36	12.5	107.5	157	274	273	276	-145	267	265	279	-145	272	271	275	208	274	273	276
275	346	36	12.75	107.75	-157	274	273	276	-145	267	265	279	151	275	272	276	-208	274	273	276
% !!linebreak:default
276	349	37	1	108	134	276	274	278	-145	267	265	279	157	276	275	277	185	276	274	278
277	350	37	1.5	108.5	-134	276	274	278	-145	267	265	279	134	277	276	280	-185	276	274	278
278	351	37	1.75	108.75	139	278	276	279	-145	267	265	279	-134	277	276	280	191	278	276	279
279	352	37	2	109	145	279	278	281	134	279	267	282	-134	277	276	280	197	279	278	281
280	353	37	2.25	109.25	-145	279	278	281	-134	279	267	282	139	280	277	281	-197	279	278	281
281	354	37	2.5	109.5	122	281	279	283	-134	279	267	282	145	281	280	282	174	281	279	283
282	355	37	3	110	-122	281	279	283	145	282	279	285	122	282	281	284	-174	281	279	283
283	356	37	3.25	110.25	128	283	281	284	-145	282	279	285	-122	282	281	284	179	283	281	284
284	357	37	3.5	110.5	134	284	283	285	-145	282	279	285	162	284	282	286	185	284	283	285
285	359	38	4	111	111	285	284	287	151	285	282	293	-162	284	282	286	162	285	284	288
286	360	38	4.25	111.25	-111	285	284	287	-151	285	282	293	168	286	284	287	-162	285	284	288
287	361	38	4.5	111.5	122	287	285	289	-151	285	282	293	174	287	286	288	-162	285	284	288
288	362	38	5	112	-122	287	285	289	-151	285	282	293	151	288	287	292	202	288	285	293
289	363	38	5.25	112.25	117	289	287	290	-151	285	282	293	-151	288	287	292	-202	288	285	293
290	364	38	5.5	112.5	111	290	289	291	-151	285	282	293	-151	288	287	292	-202	288	285	293
291	365	38	5.75	112.75	105	291	290	292	-151	285	282	293	-151	288	287	292	-202	288	285	293
292	366	38	6	113	99	292	291	293	-151	285	282	293	162	292	288	293	-202	288	285	293
293	368	39	7	114	105	293	292	295	145	293	285	298	0	293	292	294	197	293	288	296
294	369	39	7.5	114.5	-105	293	292	295	-145	293	285	298	185	294	293	295	-197	293	288	296
295	370	39	8	115	0	295	293	296	-145	293	285	298	185	295	294	297	-197	293	288	296
296	371	39	8.5	115.5	145	296	295	300	-145	293	285	298	-185	295	294	297	185	296	293	298
297	372	39	8.75	115.75	-145	296	295	300	-145	293	285	298	179	297	295	298	-185	296	293	298
298	373	39	9	116	-145	296	295	300	0	298	293	310	168	298	297	299	196	298	296	300
299	374	39	9.25	116.25	-145	296	295	300	0	298	293	310	174	299	298	300	-196	298	296	300
300	375	39	9.5	116.5	139	300	296	301	0	298	293	310	179	300	299	302	191	300	298	301
301	377	40	10	117	128	301	300	303	0	298	293	310	-179	300	299	302	179	301	300	303
302	378	40	10.25	117.25	-128	301	300	303	0	298	293	310	174	302	300	303	-179	301	300	303
303	379	40	10.5	117.5	139	303	301	305	0	298	293	310	162	303	302	304	191	303	301	305
304	380	40	10.75	117.75	-139	303	301	305	0	298	293	310	168	304	303	305	-191	303	301	305
305	381	40	11	118	134	305	303	306	0	298	293	310	174	305	304	307	185	305	303	306
306	382	40	11.5	118.5	122	306	305	308	0	298	293	310	-174	305	304	307	174	306	305	308
307	383	40	11.75	118.75	-122	306	305	308	0	298	293	310	168	307	305	308	-174	306	305	308
308	384	40	12	119	134	308	306	310	0	298	293	310	157	308	307	309	185	308	306	310
309	385	40	12.25	119.25	-134	308	306	310	0	298	293	310	162	309	308	310	-185	308	306	310
310	386	40	12.5	119.5	128	310	308	312	168	310	298	312	168	310	309	312	179	310	308	311
% !!linebreak:default
311	389	41	1	120	-128	310	308	312	-168	310	298	312	-168	310	309	312	168	311	310	312
312	390	41	1.5	120.5	145	312	310	314	157	312	310	313	145	312	310	313	174	312	311	314
313	391	41	2	121	-145	312	310	314	168	313	312	316	0	313	312	319	-174	312	311	314
314	392	41	2.25	121.25	139	314	312	315	-168	313	312	316	0	313	312	319	168	314	312	315
315	393	41	2.5	121.5	128	315	314	316	-168	313	312	316	0	313	312	319	168	315	314	317
316	394	41	3	122	151	316	315	318	174	316	313	318	0	313	312	319	-168	315	314	317
317	395	41	3.5	122.5	-151	316	315	318	-174	316	313	318	0	313	312	319	163	317	315	318
318	397	42	4	123	128	318	316	322	168	318	316	320	0	313	312	319	168	318	317	320
319	398	42	4.5	123.5	-128	318	316	322	-168	318	316	320	151	319	313	321	-168	318	317	320
320	399	42	5	124	-128	318	316	322	168	320	318	325	-151	319	313	321	0	320	318	321
321	400	42	5.5	124.5	-128	318	316	322	-168	320	318	325	151	321	319	322	191	321	320	323
322	401	42	6	125	0	322	318	325	-168	320	318	325	168	322	321	326	-191	321	320	323
323	402	42	6.25	125.25	0	322	318	325	-168	320	318	325	-168	322	321	326	197	323	321	324
324	403	42	6.375	125.375	0	322	318	325	-168	320	318	325	-168	322	321	326	202	324	323	325
325	404	42	6.5	125.5	128	325	322	328	157	325	320	327	-168	322	321	326	208	325	324	328
326	405	42	6.75	125.75	-128	325	322	328	-157	325	320	327	162	326	322	327	-208	325	324	328
327	407	43	7	126	-128	325	322	328	168	327	325	332	157	327	326	328	-208	325	324	328
328	408	43	7.25	126.25	134	328	325	329	-168	327	325	332	151	328	327	330	202	328	325	330
329	409	43	7.375	126.375	139	329	328	330	-168	327	325	332	-151	328	327	330	-202	328	325	330
330	410	43	7.5	126.5	145	330	329	333	-168	327	325	332	145	330	328	334	197	330	328	331
331	411	43	7.75	126.75	-145	330	329	333	-168	327	325	332	-145	330	328	334	191	331	330	332
332	412	43	8	127	-145	330	329	333	174	332	327	338	-145	330	328	334	185	332	331	336
333	413	43	8.25	127.25	139	333	330	334	-174	332	327	338	-145	330	328	334	-185	332	331	336
334	414	43	8.5	127.5	134	334	333	335	-174	332	327	338	162	334	330	337	-185	332	331	336
335	415	43	8.75	127.75	128	335	334	336	-174	332	327	338	-162	334	330	337	-185	332	331	336
336	416	43	9	128	122	336	335	338	-174	332	327	338	-162	334	330	337	0	336	332	337
337	417	43	9.5	128.5	-122	336	335	338	-174	332	327	338	162	337	334	338	202	337	336	338
338	419	44	10	129	145	338	336	339	168	338	332	341	145	338	337	339	197	338	337	339
339	420	44	10.5	129.5	139	339	338	340	-168	338	332	341	168	339	338	341	191	339	338	343
340	421	44	10.75	129.75	128	340	339	341	-168	338	332	341	-168	339	338	341	-191	339	338	343
341	422	44	11	130	134	341	340	344	0	341	338	346	162	341	339	342	-191	339	338	343
342	423	44	11.25	130.25	-134	341	340	344	0	341	338	346	151	342	341	343	-191	339	338	343
343	424	44	11.5	130.5	-134	341	340	344	0	341	338	346	157	343	342	344	185	343	339	344
344	425	44	12	131	111	344	341	345	0	341	338	346	151	344	343	346	202	344	343	346
345	426	44	12.5	131.5	151	345	344	346	0	341	338	346	-151	344	343	346	-202	344	343	346
% !!pagebreak:default
346	429	45	1	132	145	346	345	347	168	346	341	350	0	346	344	347	197	346	344	347
347	430	45	1.5	132.5	139	347	346	349	-168	346	341	350	151	347	346	348	191	347	346	349
348	431	45	2	133	-139	347	346	349	-168	346	341	350	139	348	347	350	-191	347	346	349
349	432	45	2.25	133.25	128	349	347	350	-168	346	341	350	-139	348	347	350	185	349	347	350
350	433	45	2.5	133.5	134	350	349	351	157	350	346	351	145	350	348	351	185	350	349	351
351	434	45	3	134	128	351	350	352	168	351	350	352	151	351	350	353	0	351	350	352
352	435	45	3.5	134.5	151	352	351	354	174	352	351	355	-151	351	350	353	202	352	351	354
353	436	45	3.75	134.75	-151	352	351	354	-174	352	351	355	145	353	351	354	-202	352	351	354
354	438	46	1	135	145	354	352	355	-174	352	351	355	134	354	353	355	197	354	352	355
355	439	46	1.5	135.5	139	355	354	356	168	355	352	359	139	355	354	357	197	355	354	356
356	440	46	1.75	135.75	128	356	355	357	-168	355	352	359	-139	355	354	357	191	356	355	358
357	441	46	2	136	134	357	356	360	-168	355	352	359	145	357	355	360	-191	356	355	358
358	442	46	2.25	136.25	-134	357	356	360	-168	355	352	359	-145	357	355	360	185	358	356	359
359	443	46	2.5	136.5	-134	357	356	360	157	359	355	360	-145	357	355	360	185	359	358	361
360	444	46	3	137	128	360	357	362	168	360	359	362	151	360	357	362	-185	359	358	361
361	445	46	3.5	137.5	-128	360	357	362	-168	360	359	362	-151	360	357	362	180	361	359	362
362	447	47	4	138	105	362	360	365	174	362	360	363	145	362	360	365	185	362	361	365
363	448	47	4.75	138.75	-105	362	360	365	168	363	362	364	-145	362	360	365	-185	362	361	365
364	449	47	5	139	-105	362	360	365	168	364	363	365	-145	362	360	365	-185	362	361	365
% !!LO:LB:i:g=z
% !!linebreak:default
% !!section: Qui tollis
% !!!OMD: Qui tollis
365	458	48	6	141	0	365	362	375	168	365	364	366	145	365	362	368	0	365	362	368
366	459	48	7	142	0	365	362	375	157	366	365	367	-145	365	362	368	0	365	362	368
367	460	48	7.5	142.5	0	365	362	375	168	367	366	368	-145	365	362	368	0	365	362	368
368	462	49	8	143	0	365	362	375	174	368	367	369	162	368	365	369	185	368	365	370
369	463	49	9	144	0	365	362	375	174	369	368	370	162	369	368	370	-185	368	365	370
370	465	50	10	145	0	365	362	375	174	370	369	372	151	370	369	371	202	370	368	371
371	466	50	11	146	0	365	362	375	-174	370	369	372	151	371	370	372	202	371	370	372
372	468	51	1	147	0	365	362	375	168	372	370	373	168	372	371	373	191	372	371	373
373	469	51	2	148	0	365	362	375	168	373	372	374	168	373	372	374	191	373	372	374
374	471	52	3	149	0	365	362	375	0	374	373	375	145	374	373	375	208	374	373	375
375	472	52	4	150	128	375	365	377	168	375	374	377	0	375	374	376	208	375	374	377
376	473	52	4.5	150.5	-128	375	365	377	-168	375	374	377	151	376	375	377	-208	375	374	377
377	475	53	5	151	145	377	375	379	157	377	375	379	157	377	376	378	185	377	375	383
378	476	53	5.5	151.5	-145	377	375	379	-157	377	375	379	168	378	377	380	-185	377	375	383
379	477	53	6	152	145	379	377	383	168	379	377	383	-168	378	377	380	-185	377	375	383
380	478	53	6.25	152.25	-145	379	377	383	-168	379	377	383	162	380	378	381	-185	377	375	383
381	479	53	6.5	152.5	-145	379	377	383	-168	379	377	383	157	381	380	382	-185	377	375	383
382	480	53	6.75	152.75	-145	379	377	383	-168	379	377	383	151	382	381	383	-185	377	375	383
% !!linebreak:default
383	483	54	7	153	134	383	379	384	174	383	379	385	145	383	382	385	0	383	377	384
384	484	54	8	154	134	384	383	385	-174	383	379	385	-145	383	382	385	185	384	383	385
385	486	55	1	155	151	385	384	387	174	385	383	389	0	385	383	392	191	385	384	386
386	487	55	1.5	155.5	-151	385	384	387	-174	385	383	389	0	385	383	392	202	386	385	388
387	488	55	2	156	151	387	385	391	-174	385	383	389	0	385	383	392	-202	386	385	388
388	489	55	2.25	156.25	-151	387	385	391	-174	385	383	389	0	385	383	392	197	388	386	389
389	490	55	2.5	156.5	-151	387	385	391	168	389	385	391	0	385	383	392	191	389	388	390
390	491	55	2.75	156.75	-151	387	385	391	-168	389	385	391	0	385	383	392	185	390	389	391
391	493	56	3	157	128	391	387	396	168	391	389	394	0	385	383	392	179	391	390	393
392	494	56	3.5	157.5	-128	391	387	396	-168	391	389	394	168	392	385	394	-179	391	390	393
393	495	56	3.75	157.75	-128	391	387	396	-168	391	389	394	-168	392	385	394	174	393	391	394
394	496	56	4	158	-128	391	387	396	0	394	391	395	168	394	392	395	168	394	393	395
395	497	56	4.5	158.5	-128	391	387	396	168	395	394	397	168	395	394	396	208	395	394	396
396	499	57	5	159	0	396	391	397	-168	395	394	397	157	396	395	398	208	396	395	397
397	500	57	5.5	159.5	145	397	396	399	157	397	395	399	-157	396	395	398	208	397	396	399
398	501	57	5.75	159.75	-145	397	396	399	-157	397	395	399	151	398	396	399	-208	397	396	399
399	502	57	6	160	145	399	397	400	168	399	397	402	145	399	398	406	197	399	397	401
400	503	57	6.5	160.5	145	400	399	402	-168	399	397	402	-145	399	398	406	-197	399	397	401
401	504	57	6.75	160.75	-145	400	399	402	-168	399	397	402	-145	399	398	406	191	401	399	402
402	506	58	7	161	134	402	400	403	174	402	399	404	-145	399	398	406	185	402	401	404
403	507	58	7.75	161.75	128	403	402	404	-174	402	399	404	-145	399	398	406	-185	402	401	404
404	508	58	8	162	122	404	403	406	174	404	402	406	-145	399	398	406	0	404	402	405
405	509	58	8.5	162.5	-122	404	403	406	-174	404	402	406	-145	399	398	406	185	405	404	406
406	511	59	1	163	0	406	404	407	174	406	404	408	0	406	399	409	202	406	405	407
407	512	59	1.5	163.5	122	407	406	408	-174	406	404	408	0	406	399	409	202	407	406	408
408	513	59	2	164	139	408	407	409	168	408	406	410	0	406	399	409	191	408	407	409
409	514	59	2.5	164.5	139	409	408	410	-168	408	406	410	168	409	406	410	191	409	408	410
% !!linebreak:default
410	517	60	3	165	128	410	409	411	168	410	408	414	179	410	409	411	208	410	409	411
411	518	60	3.5	165.5	128	411	410	412	-168	410	408	414	179	411	410	412	208	411	410	412
412	519	60	4	166	145	412	411	413	-168	410	408	414	168	412	411	413	185	412	411	414
413	520	60	4.5	166.5	145	413	412	414	-168	410	408	414	168	413	412	414	-185	412	411	414
414	522	61	5	167	122	414	413	417	0	414	410	425	185	414	413	415	0	414	412	416
415	523	61	5.5	167.5	-122	414	413	417	0	414	410	425	185	415	414	416	0	414	412	416
416	524	61	6	168	-122	414	413	417	0	414	410	425	162	416	415	417	202	416	414	417
417	526	62	7	169	0	417	414	423	0	414	410	425	185	417	416	419	197	417	416	418
418	527	62	7.5	169.5	0	417	414	423	0	414	410	425	-185	417	416	419	191	418	417	420
419	528	62	8	170	0	417	414	423	0	414	410	425	179	419	417	420	-191	418	417	420
420	529	62	8.5	170.5	0	417	414	423	0	414	410	425	174	420	419	422	185	420	418	421
421	531	63	1	171	0	417	414	423	0	414	410	425	-174	420	419	422	179	421	420	423
422	532	63	1.5	171.5	0	417	414	423	0	414	410	425	168	422	420	423	-179	421	420	423
423	533	63	2	172	151	423	417	425	0	414	410	425	162	423	422	424	174	423	421	424
424	534	63	2.5	172.5	-151	423	417	425	0	414	410	425	174	424	423	425	202	424	423	425
425	536	64	3	173	145	425	423	426	168	425	414	427	0	425	424	426	197	425	424	426
426	537	64	3.5	173.5	139	426	425	428	-168	425	414	427	151	426	425	427	191	426	425	428
427	538	64	4	174	-139	426	425	428	168	427	425	428	139	427	426	428	-191	426	425	428
428	539	64	4.5	174.5	134	428	426	429	157	428	427	429	145	428	427	429	185	428	426	429
429	541	65	5	175	128	429	428	430	168	429	428	430	151	429	428	431	179	429	428	430
430	542	65	5.5	175.5	122	430	429	431	174	430	429	432	-151	429	428	431	174	430	429	431
431	543	65	6	176	151	431	430	433	-174	430	429	432	162	431	429	433	0	431	430	432
432	544	65	6.5	176.5	-151	431	430	433	174	432	430	434	-162	431	429	433	202	432	431	434
433	545	65	6.75	176.75	134	433	431	434	-174	432	430	434	157	433	431	434	-202	432	431	434
% !!pagebreak:default
434	548	66	7	177	145	434	433	435	168	434	432	436	145	434	433	435	197	434	432	435
435	549	66	7.5	177.5	139	435	434	436	-168	434	432	436	151	435	434	436	191	435	434	437
436	550	66	8	178	145	436	435	438	168	436	434	439	157	436	435	439	-191	435	434	437
437	551	66	8.5	178.5	-145	436	435	438	-168	436	434	439	-157	436	435	439	185	437	435	439
438	552	66	8.75	178.75	139	438	436	439	-168	436	434	439	-157	436	435	439	-185	437	435	439
439	554	67	1	179	128	439	438	440	0	439	436	443	151	439	436	440	179	439	437	440
440	555	67	1.5	179.5	139	440	439	441	0	439	436	443	168	440	439	442	168	440	439	441
441	556	67	2	180	145	441	440	442	0	439	436	443	-168	440	439	442	174	441	440	443
442	557	67	2.5	180.5	151	442	441	443	0	439	436	443	163	442	440	443	-174	441	440	443
443	559	68	3	181	128	443	442	451	168	443	439	451	168	443	442	444	168	443	441	447
444	560	68	3.75	181.75	-128	443	442	451	-168	443	439	451	162	444	443	445	-168	443	441	447
445	561	68	4	182	-128	443	442	451	-168	443	439	451	157	445	444	446	-168	443	441	447
446	562	68	4.5	182.5	-128	443	442	451	-168	443	439	451	151	446	445	448	-168	443	441	447
447	564	69	5	183	-128	443	442	451	-168	443	439	451	-151	446	445	448	0	447	443	449
448	565	69	5.5	183.5	-128	443	442	451	-168	443	439	451	145	448	446	450	0	447	443	449
449	566	69	6	184	-128	443	442	451	-168	443	439	451	-145	448	446	450	191	449	447	451
450	567	69	6.5	184.5	-128	443	442	451	-168	443	439	451	140	450	448	451	-191	449	447	451
451	569	70	7	185	105	451	443	452	157	451	443	452	145	451	450	454	197	451	449	453
452	570	70	8	186	0	452	451	453	168	452	451	454	-145	451	450	454	-197	451	449	453
453	571	70	8.5	186.5	105	453	452	454	-168	452	451	454	-145	451	450	454	185	453	451	454
454	573	71	1	187	122	454	453	455	174	454	452	456	0	454	451	457	185	454	453	456
455	574	71	1.5	187.5	122	455	454	456	-174	454	452	456	0	454	451	457	-185	454	453	456
456	575	71	2	188	117	456	455	458	168	456	454	458	0	454	451	457	0	456	454	459
457	576	71	2.5	188.5	-117	456	455	458	-168	456	454	458	168	457	454	458	0	456	454	459
% !!linebreak:default
458	579	72	3	189	128	458	456	460	168	458	456	460	179	458	457	459	0	456	454	459
459	580	72	3.5	189.5	-128	458	456	460	-168	458	456	460	179	459	458	460	191	459	456	460
460	581	72	4	190	111	460	458	462	0	460	458	468	174	460	459	462	202	460	459	461
461	582	72	4.5	190.5	-111	460	458	462	0	460	458	468	-174	460	459	462	202	461	460	462
462	584	73	5	191	0	462	460	465	0	460	458	468	185	462	460	463	197	462	461	463
463	585	73	6	192	0	462	460	465	0	460	458	468	168	463	462	464	208	463	462	464
464	587	74	7	193	0	462	460	465	0	460	458	468	0	464	463	469	191	464	463	468
465	588	74	7.5	193.5	111	465	462	466	0	460	458	468	0	464	463	469	-191	464	463	468
466	589	74	8	194	122	466	465	467	0	460	458	468	0	464	463	469	-191	464	463	468
467	590	74	8.5	194.5	122	467	466	468	0	460	458	468	0	464	463	469	-191	464	463	468
468	592	75	1	195	117	468	467	470	168	468	460	470	0	464	463	469	0	468	464	471
469	593	75	1.5	195.5	-117	468	467	470	-168	468	460	470	168	469	464	470	0	468	464	471
470	594	75	2	196	128	470	468	472	157	470	468	471	179	470	469	471	0	468	464	471
471	595	75	2.5	196.5	-128	470	468	472	168	471	470	472	179	471	470	472	191	471	468	472
472	597	76	3	197	111	472	470	474	174	472	471	474	174	472	471	474	202	472	471	473
473	598	76	3.5	197.5	-111	472	470	474	-174	472	471	474	-174	472	471	474	202	473	472	474
474	599	76	4	198	0	474	472	478	174	474	472	475	185	474	472	475	197	474	473	475
475	601	77	5	199	0	474	472	478	168	475	474	477	179	475	474	477	208	475	474	476
476	602	77	6	200	0	474	472	478	-168	475	474	477	-179	475	474	477	191	476	475	477
% !!linebreak:default
477	605	78	7	201	0	474	472	478	0	477	475	479	0	477	475	478	0	477	476	478
478	606	78	7.5	201.5	128	478	474	479	0	477	475	479	179	478	477	479	191	478	477	479
479	607	78	8	202	128	479	478	480	168	479	477	481	179	479	478	480	191	479	478	480
480	608	78	8.5	202.5	128	480	479	481	-168	479	477	481	179	480	479	481	191	480	479	481
481	610	79	1	203	145	481	480	483	168	481	479	482	185	481	480	483	197	481	480	483
482	611	79	1.5	203.5	-145	481	480	483	157	482	481	484	-185	481	480	483	-197	481	480	483
483	612	79	1.66667	203.667	145	483	481	484	-157	482	481	484	174	483	481	484	185	483	481	484
484	613	79	2	204	139	484	483	485	168	484	482	486	179	484	483	485	191	484	483	485
485	614	79	2.33333	204.333	145	485	484	486	-168	484	482	486	168	485	484	486	197	485	484	486
486	616	80	3	205	122	486	485	487	174	486	484	487	162	486	485	487	202	486	485	487
487	617	80	4	206	0	487	486	488	174	487	486	489	0	487	486	492	0	487	486	488
488	618	80	4.5	206.5	122	488	487	489	-174	487	486	489	0	487	486	492	185	488	487	489
489	620	81	5	207	145	489	488	490	168	489	487	491	0	487	486	492	197	489	488	490
490	621	81	5.75	207.75	134	490	489	491	-168	489	487	491	0	487	486	492	185	490	489	491
491	622	81	6	208	139	491	490	492	168	491	489	493	0	487	486	492	191	491	490	492
492	623	81	6.5	208.5	145	492	491	493	-168	491	489	493	168	492	487	493	197	492	491	493
493	625	82	7	209	122	493	492	496	0	493	491	497	174	493	492	495	202	493	492	494
494	626	82	7.5	209.5	-122	493	492	496	0	493	491	497	-174	493	492	495	197	494	493	495
495	627	82	7.75	209.75	-122	493	492	496	0	493	491	497	174	495	493	496	191	495	494	496
496	628	82	8	210	0	496	493	497	0	493	491	497	174	496	495	497	185	496	495	498
497	629	82	8.5	210.5	145	497	496	499	168	497	493	499	185	497	496	499	-185	496	495	498
498	631	83	1	211	-145	497	496	499	-168	497	493	499	-185	497	496	499	0	498	496	501
499	632	83	1.5	211.5	145	499	497	500	157	499	497	500	168	499	497	500	0	498	496	501
500	633	83	2	212	145	500	499	502	168	500	499	502	0	500	499	501	0	498	496	501
501	634	83	2.5	212.5	-145	500	499	502	-168	500	499	502	185	501	500	502	197	501	498	502
% !!pagebreak:default
502	637	84	3	213	122	502	500	503	174	502	500	504	185	502	501	503	202	502	501	503
503	638	84	3.66667	213.667	122	503	502	505	-174	502	500	504	185	503	502	504	202	503	502	504
504	639	84	4	214	-122	503	502	505	174	504	502	507	185	504	503	505	202	504	503	505
505	640	84	4.33333	214.333	122	505	503	507	-174	504	502	507	185	505	504	506	202	505	504	506
506	641	84	4.66667	214.667	-122	505	503	507	-174	504	502	507	185	506	505	507	202	506	505	507
507	643	85	5	215	145	507	505	509	168	507	504	511	185	507	506	509	197	507	506	508
508	644	85	5.5	215.5	-145	507	505	509	-168	507	504	511	-185	507	506	509	197	508	507	509
509	645	85	6	216	0	509	507	510	-168	507	504	511	179	509	507	510	191	509	508	510
510	646	85	6.5	216.5	145	510	509	511	-168	507	504	511	168	510	509	512	197	510	509	512
511	648	86	7	217	145	511	510	513	0	511	507	516	-168	510	509	512	-197	510	509	512
512	649	86	7.25	217.25	-145	511	510	513	0	511	507	516	162	512	510	513	191	512	510	513
513	650	86	7.5	217.5	145	513	511	514	0	511	507	516	157	513	512	514	185	513	512	515
514	651	86	8	218	128	514	513	516	0	511	507	516	151	514	513	516	-185	513	512	515
515	652	86	8.5	218.5	-128	514	513	516	0	511	507	516	-151	514	513	516	180	515	513	516
516	654	87	1	219	0	516	514	517	168	516	511	518	145	516	514	518	185	516	515	520
517	655	87	1.5	219.5	145	517	516	518	-168	516	511	518	-145	516	514	518	-185	516	515	520
518	656	87	2	220	145	518	517	519	157	518	516	520	0	518	516	519	-185	516	515	520
519	657	87	2.5	220.5	145	519	518	520	-157	518	516	520	168	519	518	520	-185	516	515	520
520	659	88	3	221	128	520	519	521	168	520	518	522	168	520	519	521	0	520	516	533
521	660	88	3.5	221.5	139	521	520	522	-168	520	518	522	151	521	520	522	0	520	516	533
522	661	88	4	222	122	522	521	524	174	522	520	524	162	522	521	523	0	520	516	533
523	662	88	4.5	222.5	-122	522	521	524	-174	522	520	524	162	523	522	524	0	520	516	533
524	664	89	5	223	0	524	522	525	174	524	522	526	145	524	523	526	0	520	516	533
525	665	89	5.5	223.5	145	525	524	526	-174	524	522	526	-145	524	523	526	0	520	516	533
526	666	89	6	224	145	526	525	527	168	526	524	528	0	526	524	527	0	520	516	533
527	667	89	6.5	224.5	145	527	526	528	-168	526	524	528	168	527	526	528	0	520	516	533
% !!linebreak:default
528	670	90	7	225	128	528	527	529	168	528	526	530	168	528	527	529	0	520	516	533
529	671	90	7.5	225.5	139	529	528	530	-168	528	526	530	151	529	528	530	0	520	516	533
530	672	90	8	226	122	530	529	532	0	530	528	533	162	530	529	531	0	520	516	533
531	673	90	8.5	226.5	-122	530	529	532	0	530	528	533	162	531	530	532	0	520	516	533
532	675	91	1	227	122	532	530	534	0	530	528	533	145	532	531	533	0	520	516	533
533	676	91	1.5	227.5	-122	532	530	534	168	533	530	535	145	533	532	534	185	533	520	534
534	677	91	2	228	105	534	532	536	-168	533	530	535	145	534	533	536	185	534	533	535
535	678	91	2.5	228.5	-105	534	532	536	157	535	533	536	-145	534	533	536	168	535	534	536
536	680	92	3	229	0	536	534	547	168	536	535	538	0	536	534	551	179	536	535	537
537	681	92	3.5	229.5	0	536	534	547	-168	536	535	538	0	536	534	551	179	537	536	538
538	682	92	4	230	0	536	534	547	174	538	536	540	0	536	534	551	162	538	537	539
539	683	92	4.5	230.5	0	536	534	547	-174	538	536	540	0	536	534	551	185	539	538	540
540	685	93	5	231	0	536	534	547	174	540	538	542	0	536	534	551	185	540	539	541
541	686	93	5.5	231.5	0	536	534	547	-174	540	538	542	0	536	534	551	174	541	540	542
542	687	93	6	232	0	536	534	547	168	542	540	543	0	536	534	551	179	542	541	543
543	688	93	6.5	232.5	0	536	534	547	157	543	542	544	0	536	534	551	168	543	542	544
544	690	94	7	233	0	536	534	547	168	544	543	546	0	536	534	551	179	544	543	545
545	691	94	7.75	233.75	0	536	534	547	-168	544	543	546	0	536	534	551	174	545	544	546
546	692	94	8	234	0	536	534	547	174	546	544	547	0	536	534	551	162	546	545	547
547	694	95	1	235	122	547	536	549	174	547	546	549	0	536	534	551	0	547	546	548
548	695	95	1.5	235.5	-122	547	536	549	-174	547	546	549	0	536	534	551	202	548	547	550
549	696	95	2	236	145	549	547	551	168	549	547	551	0	536	534	551	-202	548	547	550
550	697	95	2.5	236.5	-145	549	547	551	-168	549	547	551	0	536	534	551	197	550	548	552
% !!linebreak:default
551	700	96	3	237	145	551	549	552	168	551	549	554	157	551	536	553	-197	550	548	552
552	701	96	3.5	237.5	139	552	551	553	-168	551	549	554	-157	551	536	553	191	552	550	553
553	702	96	3.75	237.75	134	553	552	554	-168	551	549	554	162	553	551	554	185	553	552	554
554	703	96	4	238	139	554	553	555	0	554	551	555	151	554	553	555	191	554	553	555
555	704	96	4.5	238.5	145	555	554	557	168	555	554	557	145	555	554	556	197	555	554	556
556	706	97	5	239	-145	555	554	557	-168	555	554	557	157	556	555	558	185	556	555	557
557	707	97	5.5	239.5	145	557	555	559	157	557	555	559	-157	556	555	558	197	557	556	559
558	708	97	5.75	239.75	-145	557	555	559	-157	557	555	559	145	558	556	559	-197	557	556	559
559	709	97	6	240	139	559	557	560	168	559	557	560	151	559	558	560	191	559	557	560
560	710	97	6.5	240.5	134	560	559	562	174	560	559	562	157	560	559	561	185	560	559	562
561	712	98	7	241	-134	560	559	562	-174	560	559	562	145	561	560	563	-185	560	559	562
562	713	98	7.5	241.5	145	562	560	563	168	562	560	563	-145	561	560	563	197	562	560	563
563	714	98	8	242	128	563	562	564	168	563	562	565	0	563	561	564	191	563	562	564
564	715	98	8.5	242.5	145	564	563	566	-168	563	562	565	157	564	563	566	185	564	563	566
565	717	99	1	243	-145	564	563	566	0	565	563	567	-157	564	563	566	-185	564	563	566
566	718	99	1.25	243.25	139	566	564	567	0	565	563	567	162	566	564	567	197	566	564	567
567	719	99	1.5	243.5	128	567	566	568	168	567	565	568	168	567	566	568	191	567	566	568
568	720	99	2	244	134	568	567	569	157	568	567	569	145	568	567	569	185	568	567	569
569	721	99	2.5	244.5	128	569	568	570	168	569	568	570	151	569	568	570	179	569	568	570
570	723	100	3	245	0	570	569	571	174	570	569	580	162	570	569	571	174	570	569	572
571	724	100	3.5	245.5	122	571	570	572	-174	570	569	580	162	571	570	573	-174	570	569	572
572	725	100	4	246	122	572	571	575	-174	570	569	580	-162	571	570	573	0	572	570	574
573	726	100	4.25	246.25	-122	572	571	575	-174	570	569	580	168	573	571	574	0	572	570	574
574	727	100	4.5	246.5	-122	572	571	575	-174	570	569	580	174	574	573	575	185	574	572	576
575	728	100	4.75	246.75	128	575	572	576	-174	570	569	580	179	575	574	576	-185	574	572	576
576	730	101	5	247	134	576	575	577	-174	570	569	580	185	576	575	579	185	576	574	579
577	731	101	5.25	247.25	139	577	576	578	-174	570	569	580	-185	576	575	579	-185	576	574	579
578	732	101	5.5	247.5	145	578	577	581	-174	570	569	580	-185	576	575	579	-185	576	574	579
579	733	101	5.75	247.75	-145	578	577	581	-174	570	569	580	179	579	576	580	191	579	576	580
580	734	101	6	248	-145	578	577	581	168	580	570	584	168	580	579	583	197	580	579	581
581	735	101	6.25	248.25	139	581	578	582	-168	580	570	584	-168	580	579	583	202	581	580	582
582	736	101	6.5	248.5	128	582	581	585	-168	580	570	584	-168	580	579	583	208	582	581	585
583	737	101	6.75	248.75	-128	582	581	585	-168	580	570	584	174	583	580	584	-208	582	581	585
% !!pagebreak:default
584	740	102	7	249	-128	582	581	585	168	584	580	588	179	584	583	587	-208	582	581	585
585	741	102	7.25	249.25	134	585	582	586	-168	584	580	588	-179	584	583	587	202	585	582	586
586	742	102	7.5	249.5	139	586	585	589	-168	584	580	588	-179	584	583	587	191	586	585	589
587	743	102	7.75	249.75	-139	586	585	589	-168	584	580	588	174	587	584	588	-191	586	585	589
588	744	102	8	250	-139	586	585	589	0	588	584	594	162	588	587	589	-191	586	585	589
589	745	102	8.25	250.25	134	589	586	590	0	588	584	594	168	589	588	590	197	589	586	590
590	746	102	8.5	250.5	122	590	589	591	0	588	584	594	174	590	589	591	202	590	589	591
591	747	102	8.75	250.75	128	591	590	592	0	588	584	594	179	591	590	592	197	591	590	592
592	749	103	1	251	134	592	591	593	0	588	584	594	185	592	591	594	191	592	591	593
593	750	103	1.25	251.25	139	593	592	594	0	588	584	594	-185	592	591	594	185	593	592	594
594	751	103	1.5	251.5	145	594	593	595	168	594	588	596	145	594	592	595	185	594	593	596
595	752	103	2	252	128	595	594	597	-168	594	588	596	151	595	594	597	-185	594	593	596
596	753	103	2.5	252.5	-128	595	594	597	168	596	594	597	-151	595	594	597	180	596	594	597
597	755	104	1	253	105	597	595	602	157	597	596	598	145	597	595	602	185	597	596	602
598	756	104	1.5	253.5	-105	597	595	602	168	598	597	599	-145	597	595	602	-185	597	596	602
599	757	104	2	254	-105	597	595	602	174	599	598	600	-145	597	595	602	-185	597	596	602
600	758	104	2.75	254.75	-105	597	595	602	168	600	599	601	-145	597	595	602	-185	597	596	602
601	760	105	1	255	-105	597	595	602	168	601	600	602	-145	597	595	602	-185	597	596	602
602	762	106	1	257	0	602	597	-1	0	602	601	-1	0	602	597	-1	0	602	597	-1
% !!!RDF**kern: %=rational rhythm
% !!!rscale-alt: 1/4
% !!!RDF**kern: l=long note in original notation
% !!!RDF**kern: i=editorial accidental
% !!!ENC: Jesse Rodin; Victoria Chang 2011/04/03
% !!!END: 2011/04/03/
% !!!EED:	Jesse Rodin
% !!!EEV:	2011/11/02/
% !!attribution-level: 3 (other)
% !!!ONB:	Translated from MusicXML and edited on 2011/02/11/ by Craig Sapp
% !!muse2ps: T^@{OPR}^u^@{ONM}{. }@{OTL}^C^La Rue/Josquin?\n@{SCT}^i2I100v85,90,85,100Q16
