% !!!COA:	Josquin des Prez
% !!!CDT:	~1450-1521/08/27
% !!!OPR:	Missa D'ung aultre amer
% !!!ONM:	4
% !!!OTL:	Sanctus
% !!!AGN:	Mass; Sanctus; Missa Brevis
% !!!SCT:	NJE 7.3
% !!!SCA:	New Josquin Edition 7.3
% !!!voices:	4
% !!!voices-OPR:	4
% !!section: Sanctus
% !!!OMD: Sanctus
%%idx	%%line	%%bar	%%beat	%%abs	%%b40	%%attk	%%last	%%next	%%b40	%%attk	%%last	%%next	%%b40	%%attk	%%last	%%next	%%b40	%%attk	%%last	%%next
0	2000	3000	4000	5000	1040	7100	7200	7300	1040	7100	7200	7300	1040	7100	7200	7300	1040	7100	7200	7300
1	25	1	1	0	0	1	-1	12	145	1	-1	2	0	1	-1	12	185	1	-1	2
2	27	2	3	2	0	1	-1	12	139	2	1	3	0	1	-1	12	191	2	1	3
3	28	2	4	3	0	1	-1	12	145	3	2	4	0	1	-1	12	185	3	2	4
4	30	3	5	4	0	1	-1	12	156	4	3	7	0	1	-1	12	208	4	3	5
5	31	3	6.5	5.5	0	1	-1	12	-156	4	3	7	0	1	-1	12	202	5	4	6
6	32	3	6.75	5.75	0	1	-1	12	-156	4	3	7	0	1	-1	12	196	6	5	7
7	34	4	7	6	0	1	-1	12	162	7	4	12	0	1	-1	12	191	7	6	8
8	35	4	7.5	6.5	0	1	-1	12	-162	7	4	12	0	1	-1	12	202	8	7	9
9	36	4	8.25	7.25	0	1	-1	12	-162	7	4	12	0	1	-1	12	196	9	8	10
10	37	4	8.5	7.5	0	1	-1	12	-162	7	4	12	0	1	-1	12	191	10	9	11
11	38	4	8.75	7.75	0	1	-1	12	-162	7	4	12	0	1	-1	12	185	11	10	12
12	40	5	1	8	128	12	1	16	168	12	7	13	168	12	1	16	179	12	11	14
13	41	5	2.5	9.5	-128	12	1	16	162	13	12	14	-168	12	1	16	-179	12	11	14
14	43	6	3	10	-128	12	1	16	156	14	13	15	-168	12	1	16	0	14	12	15
15	44	6	4	11	-128	12	1	16	151	15	14	16	-168	12	1	16	179	15	14	16
% !!linebreak:original
16	47	7	5	12	105	16	12	17	145	16	15	18	168	16	12	24	185	16	15	20
17	48	7	6	13	156	17	16	21	-145	16	15	18	-168	16	12	24	-185	16	15	20
18	49	7	6.5	13.5	-156	17	16	21	139	18	16	19	-168	16	12	24	-185	16	15	20
19	50	7	6.75	13.75	-156	17	16	21	134	19	18	20	-168	16	12	24	-185	16	15	20
20	52	8	7	14	-156	17	16	21	128	20	19	24	-168	16	12	24	0	20	16	23
21	53	8	7.5	14.5	151	21	17	22	-128	20	19	24	-168	16	12	24	0	20	16	23
22	54	8	7.75	14.75	145	22	21	23	-128	20	19	24	-168	16	12	24	0	20	16	23
23	55	8	8	15	151	23	22	24	-128	20	19	24	-168	16	12	24	179	23	20	24
24	57	9	1	16	145	24	23	25	156	24	20	26	168	24	16	29	185	24	23	26
25	58	9	1.75	16.75	139	25	24	26	-156	24	20	26	-168	24	16	29	-185	24	23	26
26	59	9	2	17	128	26	25	27	151	26	24	27	-168	24	16	29	179	26	24	27
27	61	10	3	18	105	27	26	29	156	27	26	28	-168	24	16	29	185	27	26	29
28	62	10	4	19	-105	27	26	29	145	28	27	30	-168	24	16	29	-185	27	26	29
29	64	11	5	20	128	29	27	31	-145	28	27	30	168	29	24	31	191	29	27	31
30	65	11	6	21	-128	29	27	31	140	30	28	31	-168	29	24	31	-191	29	27	31
31	67	12	7	22	0	31	29	41	145	31	30	32	156	31	29	32	196	31	29	32
32	68	12	8	23	0	31	29	41	122	32	31	38	162	32	31	38	191	32	31	33
33	69	12	8.5	23.5	0	31	29	41	-122	32	31	38	-162	32	31	38	185	33	32	35
% !!linebreak:original
34	72	13	1	24	0	31	29	41	-122	32	31	38	-162	32	31	38	-185	33	32	35
35	73	13	1.25	24.25	0	31	29	41	-122	32	31	38	-162	32	31	38	179	35	33	36
36	74	13	1.5	24.5	0	31	29	41	-122	32	31	38	-162	32	31	38	174	36	35	37
37	75	13	1.75	24.75	0	31	29	41	-122	32	31	38	-162	32	31	38	168	37	36	38
38	76	13	2	25	0	31	29	41	145	38	32	39	168	38	32	40	196	38	37	39
39	78	14	3	26	0	31	29	41	139	39	38	40	-168	38	32	40	191	39	38	40
40	79	14	3.5	26.5	0	31	29	41	145	40	39	42	168	40	38	41	196	40	39	42
41	80	14	4	27	145	41	31	44	-145	40	39	42	168	41	40	44	-196	40	39	42
42	81	14	4.5	27.5	-145	41	31	44	139	42	40	43	-168	41	40	44	191	42	40	43
43	82	14	4.75	27.75	-145	41	31	44	134	43	42	44	-168	41	40	44	185	43	42	44
44	84	15	5	28	151	44	41	45	139	44	43	45	168	44	41	46	179	44	43	46
45	85	15	5.5	28.5	156	45	44	46	128	45	44	46	-168	44	41	46	-179	44	43	46
46	86	15	6	29	162	46	45	47	122	46	45	47	174	46	44	48	0	46	44	54
47	88	16	7	30	156	47	46	50	145	47	46	52	-174	46	44	48	0	46	44	54
48	89	16	7.5	30.5	-156	47	46	50	-145	47	46	52	168	48	46	49	0	46	44	54
49	90	16	8	31	-156	47	46	50	-145	47	46	52	168	49	48	55	0	46	44	54
50	91	16	8.5	31.5	151	50	47	51	-145	47	46	52	-168	49	48	55	0	46	44	54
51	92	16	8.75	31.75	145	51	50	52	-145	47	46	52	-168	49	48	55	0	46	44	54
52	94	17	1	32	139	52	51	54	128	52	47	53	-168	49	48	55	0	46	44	54
53	95	17	2	33	-139	52	51	54	139	53	52	54	-168	49	48	55	0	46	44	54
54	97	18	3	34	145	54	52	57	134	54	53	57	-168	49	48	55	185	54	46	56
55	98	18	4	35	-145	54	52	57	-134	54	53	57	162	55	49	57	-185	54	46	56
56	99	18	4.5	35.5	-145	54	52	57	-134	54	53	57	-162	55	49	57	191	56	54	57
% !!pagebreak:original
57	102	19	5	36	105	57	54	62	128	57	54	60	168	57	55	62	196	57	56	58
58	103	19	5.5	36.5	-105	57	54	62	-128	57	54	60	-168	57	55	62	202	58	57	59
59	104	19	6	37	-105	57	54	62	-128	57	54	60	-168	57	55	62	208	59	58	60
60	106	20	7	38	-105	57	54	62	156	60	57	62	-168	57	55	62	168	60	59	61
61	107	20	8	39	-105	57	54	62	-156	60	57	62	-168	57	55	62	185	61	60	63
62	109	21	1	40	111	62	57	67	162	62	60	65	0	62	57	67	-185	61	60	63
63	110	21	1.5	40.5	-111	62	57	67	-162	62	60	65	0	62	57	67	180	63	61	64
64	111	21	1.75	40.75	-111	62	57	67	-162	62	60	65	0	62	57	67	185	64	63	65
65	112	21	2	41	-111	62	57	67	162	65	62	67	0	62	57	67	180	65	64	66
66	113	21	2.75	41.75	-111	62	57	67	-162	65	62	67	0	62	57	67	174	66	65	67
67	115	22	3	42	105	67	62	68	168	67	65	68	156	67	62	68	185	67	66	69
68	117	23	5	44	122	68	67	69	173	68	67	69	162	68	67	69	-185	67	66	69
69	119	24	7	46	116	69	68	71	168	69	68	70	168	69	68	72	0	69	67	86
70	120	24	8	47	-116	69	68	71	179	70	69	73	-168	69	68	72	0	69	67	86
71	121	24	8.5	47.5	122	71	69	72	-179	70	69	73	-168	69	68	72	0	69	67	86
% !!linebreak:original
72	124	25	1	48	128	72	71	73	-179	70	69	73	168	72	69	73	0	69	67	86
73	125	25	2	49	105	73	72	74	156	73	70	75	168	73	72	78	0	69	67	86
74	126	25	2.5	49.5	145	74	73	76	-156	73	70	75	-168	73	72	78	0	69	67	86
75	128	26	3	50	-145	74	73	76	151	75	73	79	-168	73	72	78	0	69	67	86
76	129	26	3.5	50.5	140	76	74	77	-151	75	73	79	-168	73	72	78	0	69	67	86
77	130	26	3.75	50.75	134	77	76	78	-151	75	73	79	-168	73	72	78	0	69	67	86
78	131	26	4	51	140	78	77	79	-151	75	73	79	168	78	73	79	0	69	67	86
79	133	27	5	52	145	79	78	81	156	79	75	82	168	79	78	80	0	69	67	86
80	134	27	6	53	-145	79	78	81	-156	79	75	82	168	80	79	83	0	69	67	86
81	135	27	6.5	53.5	139	81	79	82	-156	79	75	82	-168	80	79	83	0	69	67	86
82	137	28	7	54	128	82	81	85	179	82	79	85	-168	80	79	83	0	69	67	86
83	138	28	7.5	54.5	-128	82	81	85	-179	82	79	85	162	83	80	84	0	69	67	86
84	139	28	7.75	54.75	-128	82	81	85	-179	82	79	85	156	84	83	85	0	69	67	86
85	140	28	8	55	151	85	82	86	174	85	82	86	162	85	84	86	0	69	67	86
86	142	29	1	56	128	86	85	87	179	86	85	88	168	86	85	90	191	86	69	88
87	143	29	1.75	56.75	134	87	86	88	-179	86	85	88	-168	86	85	90	-191	86	69	88
88	144	29	2	57	139	88	87	89	168	88	86	94	-168	86	85	90	191	88	86	89
89	145	29	2.5	57.5	145	89	88	91	-168	88	86	94	-168	86	85	90	196	89	88	91
90	147	30	3	58	-145	89	88	91	-168	88	86	94	0	90	86	103	-196	89	88	91
91	148	30	3.25	58.25	139	91	89	92	-168	88	86	94	0	90	86	103	191	91	89	92
92	149	30	3.5	58.5	134	92	91	93	-168	88	86	94	0	90	86	103	185	92	91	93
93	150	30	3.75	58.75	128	93	92	94	-168	88	86	94	0	90	86	103	179	93	92	94
94	151	30	4	59	122	94	93	96	174	94	88	96	0	90	86	103	185	94	93	95
95	152	30	4.75	59.75	-122	94	93	96	-174	94	88	96	0	90	86	103	179	95	94	96
% !!linebreak:original
96	155	31	5	60	116	96	94	99	179	96	94	98	0	90	86	103	168	96	95	97
97	156	31	5.5	60.5	-116	96	94	99	-179	96	94	98	0	90	86	103	156	97	96	98
98	157	31	6	61	-116	96	94	99	156	98	96	99	0	90	86	103	196	98	97	100
99	159	32	7	62	139	99	96	103	162	99	98	103	0	90	86	103	-196	98	97	100
100	160	32	7.5	62.5	-139	99	96	103	-162	99	98	103	0	90	86	103	191	100	98	101
101	161	32	7.75	62.75	-139	99	96	103	-162	99	98	103	0	90	86	103	185	101	100	102
102	162	32	8	63	-139	99	96	103	-162	99	98	103	0	90	86	103	191	102	101	103
103	164	33	1	64	116	103	99	107	156	103	99	104	168	103	90	106	196	103	102	105
104	165	33	2.5	65.5	-116	103	99	107	151	104	103	105	-168	103	90	106	-196	103	102	105
105	167	34	3	66	-116	103	99	107	145	105	104	106	-168	103	90	106	0	105	103	107
106	168	34	4	67	-116	103	99	107	139	106	105	107	168	106	103	107	0	105	103	107
107	170	35	5	68	105	107	103	108	145	107	106	108	168	107	106	110	196	107	105	108
108	172	36	7	70	116	108	107	110	128	108	107	110	-168	107	106	110	196	108	107	109
109	173	36	8	71	-116	108	107	110	-128	108	107	110	-168	107	106	110	196	109	108	110
% !!linebreak:original
110	176	37	1	72	111	110	108	113	134	110	108	112	162	110	107	113	202	110	109	111
111	177	37	2.5	73.5	-111	110	108	113	-134	110	108	112	-162	110	107	113	191	111	110	112
112	179	38	3	74	-111	110	108	113	139	112	110	113	-162	110	107	113	191	112	111	113
113	181	39	5	76	105	113	110	115	145	113	112	116	156	113	110	116	0	113	112	114
114	182	39	6	77	-105	113	110	115	-145	113	112	116	-156	113	110	116	208	114	113	117
115	183	39	6.5	77.5	145	115	113	119	-145	113	112	116	-156	113	110	116	-208	114	113	117
116	185	40	7	78	-145	115	113	119	156	116	113	119	0	116	113	130	-208	114	113	117
117	186	40	7.5	78.5	-145	115	113	119	-156	116	113	119	0	116	113	130	202	117	114	118
118	187	40	7.75	78.75	-145	115	113	119	-156	116	113	119	0	116	113	130	196	118	117	119
119	188	40	8	79	139	119	115	120	151	119	116	121	0	116	113	130	208	119	118	120
120	189	40	8.5	79.5	151	120	119	122	-151	119	116	121	0	116	113	130	202	120	119	122
121	191	41	1	80	-151	120	119	122	162	121	119	125	0	116	113	130	-202	120	119	122
122	192	41	1.5	80.5	145	122	120	123	-162	121	119	125	0	116	113	130	196	122	120	123
123	193	41	1.75	80.75	139	123	122	124	-162	121	119	125	0	116	113	130	191	123	122	124
124	194	41	2	81	134	124	123	125	-162	121	119	125	0	116	113	130	185	124	123	125
125	196	42	3	82	128	125	124	127	168	125	121	127	0	116	113	130	0	125	124	126
126	197	42	3.5	82.5	-128	125	124	127	-168	125	121	127	0	116	113	130	179	126	125	127
127	198	42	4	83	133	127	125	129	156	127	125	128	0	116	113	130	185	127	126	129
128	199	42	4.5	83.5	-133	127	125	129	162	128	127	130	0	116	113	130	-185	127	126	129
129	200	42	4.75	83.75	128	129	127	130	-162	128	127	130	0	116	113	130	191	129	127	130
% !!pagebreak:original
130	203	43	5	84	116	130	129	132	168	130	128	133	156	130	116	134	196	130	129	131
131	204	43	5.25	84.25	-116	130	129	132	-168	130	128	133	-156	130	116	134	191	131	130	132
132	205	43	5.5	84.5	128	132	130	134	-168	130	128	133	-156	130	116	134	185	132	131	133
133	206	43	5.75	84.75	-128	132	130	134	162	133	130	134	-156	130	116	134	179	133	132	134
134	207	43	6	85	122	134	132	136	151	134	133	135	162	134	130	137	174	134	133	136
135	208	43	6.5	85.5	-122	134	132	136	145	135	134	138	-162	134	130	137	-174	134	133	136
136	209	43	6.75	85.75	116	136	134	137	-145	135	134	138	-162	134	130	137	168	136	134	137
137	211	44	7	86	105	137	136	139	-145	135	134	138	168	137	134	139	185	137	136	138
138	212	44	7.5	86.5	-105	137	136	139	156	138	135	139	-168	137	134	139	185	138	137	140
139	213	44	8	87	128	139	137	141	151	139	138	141	168	139	137	141	-185	138	137	140
140	214	44	8.5	87.5	-128	139	137	141	-151	139	138	141	-168	139	137	141	180	140	138	141
141	216	45	1	88	105	141	139	145	145	141	139	145	168	141	139	142	185	141	140	145
142	217	45	1.5	88.5	-105	141	139	145	-145	141	139	145	168	142	141	143	-185	141	140	145
143	218	45	2	89	-105	141	139	145	-145	141	139	145	168	143	142	144	-185	141	140	145
144	220	46	3	90	-105	141	139	145	-145	141	139	145	168	144	143	145	-185	141	140	145
% !!LO:LB:i:g=z
% !!section: Tu solus
% !!!OMD: Tu solus
145	229	47	5	92	105	145	141	146	145	145	141	146	168	145	144	146	196	145	141	146
146	231	48	7	94	145	146	145	147	156	146	145	147	168	146	145	147	196	146	145	147
% !!linebreak:original
147	234	49	1	96	139	147	146	148	162	147	146	148	179	147	146	148	191	147	146	148
148	236	50	3	98	122	148	147	149	162	148	147	149	174	148	147	149	185	148	147	149
149	238	51	5	100	122	149	148	150	162	149	148	150	174	149	148	150	185	149	148	150
150	239	51	6	101	122	150	149	151	162	150	149	151	174	150	149	151	185	150	149	151
151	241	52	7	102	139	151	150	153	151	151	150	152	179	151	150	152	191	151	150	153
152	242	52	8	103	-139	151	150	153	139	152	151	154	162	152	151	154	-191	151	150	153
153	243	52	8.5	103.5	134	153	151	154	-139	152	151	154	-162	152	151	154	185	153	151	154
154	245	53	1	104	128	154	153	156	139	154	152	156	168	154	152	155	179	154	153	156
155	246	53	1.5	104.5	-128	154	153	156	-139	154	152	156	156	155	154	156	-179	154	153	156
156	247	53	2	105	122	156	154	158	145	156	154	157	162	156	155	158	174	156	154	158
157	248	53	2.75	105.75	-122	156	154	158	151	157	156	158	-162	156	155	158	-174	156	154	158
158	250	54	3	106	116	158	156	159	156	158	157	159	139	158	156	159	168	158	156	159
% !!linebreak:original
159	253	55	5	108	105	159	158	160	168	159	158	160	145	159	158	160	196	159	158	160
160	255	56	7	110	145	160	159	161	156	160	159	161	168	160	159	161	196	160	159	161
161	257	57	1	112	139	161	160	162	162	161	160	162	179	161	160	162	191	161	160	162
162	259	58	3	114	122	162	161	163	162	162	161	163	173	162	161	163	185	162	161	163
163	261	59	5	116	133	163	162	164	145	163	162	164	173	163	162	164	185	163	162	164
164	263	60	7	118	116	164	163	165	156	164	163	165	168	164	163	165	179	164	163	165
% !!linebreak:original
165	266	61	1	120	139	165	164	166	162	165	164	166	179	165	164	166	191	165	164	166
166	268	62	3	122	139	166	165	167	162	166	165	167	179	166	165	167	191	166	165	167
167	269	62	4	123	145	167	166	169	156	167	166	169	168	167	166	169	196	167	166	169
168	271	63	5	124	-145	167	166	169	-156	167	166	169	-168	167	166	169	-196	167	166	169
169	272	63	6	125	122	169	167	170	162	169	167	170	174	169	167	170	185	169	167	170
170	274	64	7	126	122	170	169	171	162	170	169	171	174	170	169	171	185	170	169	171
171	276	65	1	128	128	171	170	172	151	171	170	172	168	171	170	172	179	171	170	172
172	278	66	3	130	133	172	171	173	145	172	171	173	156	172	171	173	185	172	171	173
173	279	66	4	131	133	173	172	174	145	173	172	174	156	173	172	174	185	173	172	174
% !!pagebreak:original
174	282	67	5	132	116	174	173	175	168	174	173	175	156	174	173	175	179	174	173	175
175	284	68	7	134	122	175	174	176	162	175	174	176	145	175	174	176	174	175	174	176
176	286	69	1	136	105	176	175	177	156	176	175	177	145	176	175	177	168	176	175	177
177	288	70	3	138	128	177	176	178	168	177	176	178	151	177	176	178	179	177	176	178
178	290	71	5	140	134	178	177	179	145	178	177	179	162	178	177	179	185	178	177	179
179	291	71	6	141	128	179	178	180	151	179	178	180	168	179	178	180	179	179	178	180
180	293	72	7	142	145	180	179	183	156	180	179	183	168	180	179	181	185	180	179	183
181	294	72	8.5	143.5	-145	180	179	183	-156	180	179	183	162	181	180	182	-185	180	179	183
% !!linebreak:original
182	297	73	1	144	-145	180	179	183	-156	180	179	183	168	182	181	183	-185	180	179	183
183	298	73	2	145	139	183	180	185	162	183	180	185	179	183	182	184	191	183	180	185
184	299	73	2.75	145.75	-139	183	180	185	-162	183	180	185	174	184	183	185	-191	183	180	185
185	301	74	3	146	139	185	183	186	162	185	183	186	179	185	184	186	191	185	183	186
186	303	75	5	148	116	186	185	187	168	186	185	187	179	186	185	187	196	186	185	187
187	305	76	7	150	139	187	186	188	162	187	186	188	179	187	186	188	191	187	186	188
188	306	76	8	151	145	188	187	189	156	188	187	189	174	188	187	189	185	188	187	189
189	308	77	1	152	139	189	188	191	162	189	188	191	179	189	188	191	191	189	188	190
190	309	77	2.5	153.5	-139	189	188	191	-162	189	188	191	-179	189	188	191	179	190	189	191
191	311	78	3	154	116	191	189	192	156	191	189	192	168	191	189	192	179	191	190	192
% !!linebreak:original
192	314	79	5	156	116	192	191	193	168	192	191	193	179	192	191	193	196	192	191	193
193	316	80	7	158	139	193	192	194	162	193	192	194	179	193	192	194	191	193	192	194
194	317	80	8	159	145	194	193	195	156	194	193	195	174	194	193	195	185	194	193	195
195	319	81	1	160	128	195	194	197	151	195	194	197	168	195	194	197	180	195	194	197
196	321	82	3	162	-128	195	194	197	-151	195	194	197	-168	195	194	197	-180	195	194	197
197	322	82	4	163	105	197	195	198	145	197	195	198	156	197	195	198	185	197	195	198
198	324	83	5	164	105	198	197	199	145	198	197	199	168	198	197	199	185	198	197	199
% !!LO:LB:i:g=z
% !!section: Ad te solum
% !!!OMD: Ad te solum
199	333	84	7	166	145	199	198	200	156	199	198	200	0	199	198	211	0	199	198	211
200	334	84	8	167	128	200	199	201	156	200	199	201	0	199	198	211	0	199	198	211
201	335	84	8.5	167.5	134	201	200	202	156	201	200	202	0	199	198	211	0	199	198	211
% !!linebreak:original
202	338	85	1	168	139	202	201	203	151	202	201	205	0	199	198	211	0	199	198	211
203	339	85	1.75	168.75	134	203	202	204	-151	202	201	205	0	199	198	211	0	199	198	211
204	340	85	2	169	128	204	203	205	-151	202	201	205	0	199	198	211	0	199	198	211
205	341	85	2.5	169.5	122	205	204	206	151	205	202	206	0	199	198	211	0	199	198	211
206	343	86	3	170	116	206	205	207	156	206	205	207	0	199	198	211	0	199	198	211
207	344	86	3.75	170.75	122	207	206	208	151	207	206	208	0	199	198	211	0	199	198	211
208	345	86	4	171	116	208	207	209	145	208	207	209	0	199	198	211	0	199	198	211
209	346	86	4.5	171.5	111	209	208	210	140	209	208	210	0	199	198	211	0	199	198	211
210	348	87	5	172	105	210	209	211	145	210	209	211	0	199	198	211	0	199	198	211
211	350	88	7	174	0	211	210	224	0	211	210	224	185	211	199	212	196	211	199	212
212	351	88	8	175	0	211	210	224	0	211	210	224	168	212	211	213	196	212	211	213
213	352	88	8.5	175.5	0	211	210	224	0	211	210	224	174	213	212	214	196	213	212	214
214	354	89	1	176	0	211	210	224	0	211	210	224	179	214	213	215	191	214	213	217
215	355	89	1.75	176.75	0	211	210	224	0	211	210	224	174	215	214	216	-191	214	213	217
216	356	89	2	177	0	211	210	224	0	211	210	224	168	216	215	217	-191	214	213	217
217	357	89	2.5	177.5	0	211	210	224	0	211	210	224	162	217	216	218	191	217	214	218
218	359	90	3	178	0	211	210	224	0	211	210	224	156	218	217	219	196	218	217	219
219	360	90	3.75	178.75	0	211	210	224	0	211	210	224	162	219	218	220	191	219	218	220
220	361	90	4	179	0	211	210	224	0	211	210	224	156	220	219	221	185	220	219	221
221	362	90	4.5	179.5	0	211	210	224	0	211	210	224	151	221	220	222	180	221	220	222
% !!pagebreak:original
222	365	91	5	180	0	211	210	224	0	211	210	224	145	222	221	223	185	222	221	223
223	366	91	6	181	0	211	210	224	0	211	210	224	0	223	222	224	0	223	222	224
224	367	91	6.5	181.5	145	224	211	225	168	224	211	225	185	224	223	225	196	224	223	225
225	369	92	7	182	145	225	224	226	168	225	224	226	185	225	224	226	196	225	224	226
226	370	92	7.5	182.5	145	226	225	227	168	226	225	227	185	226	225	227	196	226	225	227
227	371	92	8	183	145	227	226	228	168	227	226	228	185	227	226	228	196	227	226	228
228	372	92	8.5	183.5	145	228	227	229	168	228	227	229	185	228	227	229	196	228	227	229
229	374	93	1	184	128	229	228	233	168	229	228	233	179	229	228	230	191	229	228	233
230	375	93	1.25	184.25	-128	229	228	233	-168	229	228	233	174	230	229	231	-191	229	228	233
231	376	93	1.5	184.5	-128	229	228	233	-168	229	228	233	168	231	230	232	-191	229	228	233
232	377	93	1.75	184.75	-128	229	228	233	-168	229	228	233	162	232	231	233	-191	229	228	233
233	378	93	2	185	134	233	229	235	145	233	229	235	156	233	232	234	185	233	229	235
234	379	93	2.5	185.5	-134	233	229	235	-145	233	229	235	162	234	233	235	-185	233	229	235
235	381	94	3	186	128	235	233	236	151	235	233	236	168	235	234	236	179	235	233	236
236	382	94	4	187	0	236	235	237	0	236	235	237	0	236	235	237	0	236	235	237
237	384	95	5	188	145	237	236	238	145	237	236	238	168	237	236	238	185	237	236	238
238	386	96	7	190	145	238	237	239	156	238	237	239	185	238	237	239	168	238	237	239
% !!linebreak:original
239	389	97	1	192	122	239	238	240	162	239	238	240	185	239	238	240	174	239	238	240
240	391	98	1	194	128	240	239	241	151	240	239	241	179	240	239	241	168	240	239	241
241	395	99	3	196	128	241	240	242	156	241	240	242	0	241	240	252	0	241	240	252
242	396	99	4	197	128	242	241	243	156	242	241	243	0	241	240	252	0	241	240	252
243	397	99	5	198	128	243	242	244	156	243	242	244	0	241	240	252	0	241	240	252
244	399	100	6	199	133	244	243	245	162	244	243	245	0	241	240	252	0	241	240	252
245	400	100	7.5	200.5	128	245	244	246	156	245	244	246	0	241	240	252	0	241	240	252
246	401	100	8	201	122	246	245	247	151	246	245	247	0	241	240	252	0	241	240	252
247	403	101	1	202	116	247	246	248	145	247	246	248	0	241	240	252	0	241	240	252
248	404	101	2	203	105	248	247	249	145	248	247	249	0	241	240	252	0	241	240	252
249	405	101	3	204	111	249	248	250	140	249	248	250	0	241	240	252	0	241	240	252
250	407	102	4	205	105	250	249	252	145	250	249	251	0	241	240	252	0	241	240	252
251	408	102	6	207	-105	250	249	252	0	251	250	252	0	241	240	252	0	241	240	252
% !!linebreak:original
252	411	103	7	208	0	252	250	263	168	252	251	253	179	252	241	253	196	252	241	253
253	412	103	8	209	0	252	250	263	168	253	252	254	179	253	252	254	196	253	252	254
254	413	103	9	210	0	252	250	263	168	254	253	255	179	254	253	255	196	254	253	255
255	415	104	10	211	0	252	250	263	173	255	254	256	185	255	254	256	202	255	254	256
256	416	104	11.5	212.5	0	252	250	263	168	256	255	257	179	256	255	257	196	256	255	257
257	417	104	12	213	0	252	250	263	162	257	256	258	174	257	256	258	191	257	256	258
258	419	105	1	214	0	252	250	263	156	258	257	259	168	258	257	259	185	258	257	259
259	420	105	2	215	0	252	250	263	145	259	258	260	168	259	258	260	185	259	258	260
260	421	105	3	216	0	252	250	263	151	260	259	261	162	260	259	261	180	260	259	261
261	423	106	4	217	0	252	250	263	145	261	260	263	168	261	260	263	185	261	260	263
262	424	106	5	218	0	252	250	263	-145	261	260	263	-168	261	260	263	-185	261	260	263
263	425	106	6	219	145	263	252	264	168	263	261	264	156	263	261	264	196	263	261	264
264	427	107	7	220	139	264	263	265	168	264	263	265	179	264	263	265	191	264	263	265
265	428	107	8	221	145	265	264	266	156	265	264	266	168	265	264	266	196	265	264	266
266	429	107	9	222	134	266	265	267	162	266	265	267	174	266	265	267	185	266	265	267
267	431	108	10	223	128	267	266	269	168	267	266	268	179	267	266	268	179	267	266	269
268	432	108	11	224	-128	267	266	269	179	268	267	269	168	268	267	269	-179	267	266	269
269	433	108	12	225	122	269	267	270	174	269	268	270	174	269	268	270	185	269	267	270
% !!linebreak:original
270	436	109	1	226	139	270	269	271	168	270	269	271	179	270	269	271	191	270	269	271
271	437	109	2	227	145	271	270	272	156	271	270	272	168	271	270	272	196	271	270	272
272	438	109	3	228	134	272	271	273	162	272	271	273	174	272	271	273	185	272	271	273
273	440	110	4	229	128	273	272	274	168	273	272	274	151	273	272	274	191	273	272	274
274	441	110	6	231	0	274	273	275	0	274	273	275	0	274	273	275	0	274	273	275
275	443	111	7	232	145	275	274	276	156	275	274	276	168	275	274	276	185	275	274	276
276	445	112	10	235	122	276	275	277	162	276	275	277	174	276	275	277	185	276	275	277
277	447	113	1	238	128	277	276	278	151	277	276	278	168	277	276	278	180	277	276	278
278	449	114	1	241	105	278	277	279	145	278	277	279	168	278	277	279	185	278	277	279
279	451	115	1	244	0	279	278	-1	0	279	278	-1	0	279	278	-1	0	279	278	-1
% !!!RDF**kern: l=long note in original notation
% !!!RDF**kern: i=editorial accidental
% !!!RDF**kern: V=start of tuplet marker
% !!!RDF**kern: Z=end of tuplet marker
% !!!ENC:	Jesse Rodin; Victoria Chang 2012/02/24
% !!!END:	2012/02/24/
% !!!EED:	Jesse Rodin
% !!!EEV:	2012/03/22/
% !!attribution-level: 3 (other)
% !!!ONB:	Translated from MusicXML and edited on 2012/03/22/ by Craig Sapp
% !!muse2ps: T^@{OPR}^u^@{ONM}{. }@{OTL}^C^@{COA}?\n@{SCT}^i2I150v90,85,85,100Q16
