% !!!COA:	Josquin des Prez
% !!!CDT:	~1450-1521/08/27
% !!!OPR:	Missa Allez regretz I
% !!!ONM:	1
% !!!OTL:	Kyrie
% !!!AGN:	Mass; Kyrie
% !!!SCT:	NJE 7.1
% !!!SCA:	New Josquin Edition 7.1
% !!!voices:	4
% !!!voices-OPR:	4
% !!section: Kyrie I
% !!!OMD: Kyrie I
%%idx	%%line	%%bar	%%beat	%%abs	%%b40	%%attk	%%last	%%next	%%b40	%%attk	%%last	%%next	%%b40	%%attk	%%last	%%next	%%b40	%%attk	%%last	%%next
0	2000	3000	4000	5000	1040	7100	7200	7300	1040	7100	7200	7300	1040	7100	7200	7300	1040	7100	7200	7300
1	25	1	1	0	0	1	-1	7	139	1	-1	2	0	1	-1	15	0	1	-1	24
2	26	1	2.5	1.5	0	1	-1	7	145	2	1	3	0	1	-1	15	0	1	-1	24
3	28	2	3	2	0	1	-1	7	151	3	2	4	0	1	-1	15	0	1	-1	24
4	29	2	3.25	2.25	0	1	-1	7	139	4	3	5	0	1	-1	15	0	1	-1	24
5	30	2	3.5	2.5	0	1	-1	7	162	5	4	6	0	1	-1	15	0	1	-1	24
6	31	2	4.5	3.5	0	1	-1	7	156	6	5	7	0	1	-1	15	0	1	-1	24
7	33	3	5	4	122	7	1	9	162	7	6	8	0	1	-1	15	0	1	-1	24
8	34	3	5.5	4.5	-122	7	1	9	162	8	7	9	0	1	-1	15	0	1	-1	24
9	35	3	6.5	5.5	128	9	7	11	156	9	8	10	0	1	-1	15	0	1	-1	24
10	36	3	6.75	5.75	-128	9	7	11	151	10	9	11	0	1	-1	15	0	1	-1	24
11	38	4	7	6	134	11	9	12	145	11	10	13	0	1	-1	15	0	1	-1	24
12	39	4	7.25	6.25	122	12	11	13	-145	11	10	13	0	1	-1	15	0	1	-1	24
13	40	4	7.5	6.5	145	13	12	14	156	13	11	14	0	1	-1	15	0	1	-1	24
14	41	4	8.5	7.5	139	14	13	15	151	14	13	15	0	1	-1	15	0	1	-1	24
15	43	5	1	8	145	15	14	17	145	15	14	16	156	15	1	17	0	1	-1	24
16	44	5	1.5	8.5	-145	15	14	17	168	16	15	17	-156	15	1	17	0	1	-1	24
17	45	5	2.5	9.5	134	17	15	18	145	17	16	18	162	17	15	18	0	1	-1	24
18	47	6	3	10	128	18	17	22	139	18	17	19	168	18	17	19	0	1	-1	24
19	48	6	3.25	10.25	-128	18	17	22	145	19	18	20	156	19	18	20	0	1	-1	24
20	49	6	3.5	10.5	-128	18	17	22	151	20	19	21	179	20	19	23	0	1	-1	24
21	50	6	3.75	10.75	-128	18	17	22	139	21	20	22	-179	20	19	23	0	1	-1	24
22	51	6	4	11	122	22	18	24	145	22	21	24	-179	20	19	23	0	1	-1	24
23	52	6	4.5	11.5	-122	22	18	24	-145	22	21	24	174	23	20	24	0	1	-1	24
24	54	7	5	12	139	24	22	27	139	24	22	27	179	24	23	25	162	24	1	26
25	55	7	6	13	-139	24	22	27	-139	24	22	27	0	25	24	26	-162	24	1	26
26	56	7	6.5	13.5	-139	24	22	27	-139	24	22	27	139	26	25	27	168	26	24	27
27	58	8	7	14	0	27	24	30	0	27	24	31	145	27	26	29	174	27	26	28
28	59	8	7.25	14.25	0	27	24	30	0	27	24	31	-145	27	26	29	162	28	27	29
29	60	8	7.5	14.5	0	27	24	30	0	27	24	31	156	29	27	30	185	29	28	31
30	61	8	8	15	128	30	27	32	0	27	24	31	151	30	29	32	-185	29	28	31
31	62	8	8.5	15.5	-128	30	27	32	151	31	27	32	-151	30	29	32	179	31	29	32
32	64	9	1	16	145	32	30	33	156	32	31	33	145	32	30	33	185	32	31	33
33	65	9	1.5	16.5	122	33	32	34	145	33	32	34	162	33	32	34	185	33	32	35
34	66	9	2	17	145	34	33	37	156	34	33	37	168	34	33	36	-185	33	32	35
35	67	9	2.5	17.5	-145	34	33	37	-156	34	33	37	-168	34	33	36	179	35	33	36
36	68	9	2.75	17.75	-145	34	33	37	-156	34	33	37	174	36	34	37	185	36	35	37
37	70	10	3	18	139	37	34	42	151	37	34	38	179	37	36	39	191	37	36	42
38	71	10	3.5	18.5	-139	37	34	42	162	38	37	40	-179	37	36	39	-191	37	36	42
39	72	10	4	19	-139	37	34	42	-162	38	37	40	0	39	37	40	-191	37	36	42
40	73	10	4.5	19.5	-139	37	34	42	156	40	38	41	179	40	39	43	-191	37	36	42
41	74	10	4.75	19.75	-139	37	34	42	151	41	40	42	-179	40	39	43	-191	37	36	42
42	76	11	5	20	128	42	37	46	156	42	41	44	-179	40	39	43	0	42	37	46
43	77	11	5.5	20.5	-128	42	37	46	-156	42	41	44	174	43	40	44	0	42	37	46
44	78	11	5.75	20.75	-128	42	37	46	151	44	42	45	168	44	43	46	0	42	37	46
45	79	11	5.875	20.875	-128	42	37	46	156	45	44	46	-168	44	43	46	0	42	37	46
46	80	11	6	21	122	46	42	47	162	46	45	47	174	46	44	47	185	46	42	48
47	82	12	7	22	134	47	46	50	0	47	46	48	162	47	46	50	-185	46	42	48
48	83	12	7.5	22.5	-134	47	46	50	145	48	47	50	-162	47	46	50	179	48	46	49
49	84	12	7.75	22.75	-134	47	46	50	-145	48	47	50	-162	47	46	50	174	49	48	50
50	85	12	8	23	128	50	47	53	151	50	48	53	168	50	47	60	179	50	49	51
51	86	12	8.5	23.5	-128	50	47	53	-151	50	48	53	-168	50	47	60	185	51	50	52
52	87	12	8.75	23.75	-128	50	47	53	-151	50	48	53	-168	50	47	60	191	52	51	53
53	89	13	1	24	105	53	50	54	145	53	50	54	-168	50	47	60	196	53	52	60
54	90	13	1.75	24.75	111	54	53	56	139	54	53	55	-168	50	47	60	-196	53	52	60
55	91	13	1.875	24.875	-111	54	53	56	134	55	54	56	-168	50	47	60	-196	53	52	60
56	92	13	2	25	116	56	54	57	128	56	55	57	-168	50	47	60	-196	53	52	60
57	93	13	2.25	25.25	122	57	56	58	134	57	56	58	-168	50	47	60	-196	53	52	60
58	94	13	2.5	25.5	128	58	57	59	139	58	57	59	-168	50	47	60	-196	53	52	60
59	95	13	2.75	25.75	134	59	58	60	145	59	58	60	-168	50	47	60	-196	53	52	60
60	97	14	3	26	139	60	59	63	151	60	59	61	162	60	50	63	191	60	53	63
61	98	14	3.25	26.25	-139	60	59	63	156	61	60	62	-162	60	50	63	-191	60	53	63
62	99	14	3.5	26.5	-139	60	59	63	162	62	61	64	-162	60	50	63	-191	60	53	63
63	100	14	4	27	122	63	60	64	-162	62	61	64	0	63	60	66	185	63	60	64
64	101	14	4.5	27.5	145	64	63	65	156	64	62	65	0	63	60	66	185	64	63	66
65	103	15	5	28	122	65	64	66	162	65	64	66	0	63	60	66	-185	64	63	66
66	104	15	5.5	28.5	128	66	65	70	139	66	65	70	151	66	63	69	179	66	64	67
67	105	15	5.75	28.75	-128	66	65	70	-139	66	65	70	-151	66	63	69	174	67	66	68
68	106	15	6	29	-128	66	65	70	-139	66	65	70	-151	66	63	69	168	68	67	70
69	107	15	6.25	29.25	-128	66	65	70	-139	66	65	70	156	69	66	70	-168	68	67	70
70	108	15	6.5	29.5	122	70	66	71	134	70	66	71	162	70	69	71	185	70	68	72
71	110	16	7	30	128	71	70	72	139	71	70	72	151	71	70	72	-185	70	68	72
72	111	16	7.5	30.5	139	72	71	73	151	72	71	73	139	72	71	73	179	72	70	74
73	112	16	8	31	122	73	72	75	145	73	72	75	162	73	72	75	-179	72	70	74
74	113	16	8.5	31.5	-122	73	72	75	-145	73	72	75	-162	73	72	75	174	74	72	75
75	115	17	1	32	139	75	73	76	139	75	73	76	162	75	73	76	179	75	74	76
% !!LO:LB:i:g=z
% !!section: Christe
% !!!OMD: Christe
76	125	18	3	34	139	76	75	80	162	76	75	80	179	76	75	80	0	76	75	77
77	126	18	4	35	-139	76	75	80	-162	76	75	80	-179	76	75	80	191	77	76	78
78	128	19	5	36	-139	76	75	80	-162	76	75	80	-179	76	75	80	191	78	77	79
79	129	19	6	37	-139	76	75	80	-162	76	75	80	-179	76	75	80	191	79	78	80
80	131	20	7	38	122	80	76	82	162	80	76	82	174	80	76	82	185	80	79	81
81	132	20	8	39	-122	80	76	82	-162	80	76	82	-174	80	76	82	202	81	80	82
82	134	21	1	40	0	82	80	83	0	82	80	83	168	82	80	88	196	82	81	83
83	135	21	1.5	40.5	139	83	82	84	139	83	82	86	-168	82	80	88	191	83	82	84
84	136	21	2	41	116	84	83	88	-139	83	82	86	-168	82	80	88	196	84	83	85
85	137	21	2.25	41.25	-116	84	83	88	-139	83	82	86	-168	82	80	88	191	85	84	86
86	138	21	2.5	41.5	-116	84	83	88	134	86	83	87	-168	82	80	88	185	86	85	87
87	139	21	2.75	41.75	-116	84	83	88	128	87	86	88	-168	82	80	88	179	87	86	88
88	141	22	3	42	122	88	84	93	134	88	87	89	162	88	82	93	174	88	87	91
89	142	22	3.25	42.25	-122	88	84	93	122	89	88	90	-162	88	82	93	-174	88	87	91
90	143	22	3.5	42.5	-122	88	84	93	145	90	89	91	-162	88	82	93	-174	88	87	91
91	144	22	4.5	43.5	-122	88	84	93	139	91	90	92	-162	88	82	93	168	91	88	92
92	145	22	4.75	43.75	-122	88	84	93	134	92	91	93	-162	88	82	93	162	92	91	93
93	147	23	5	44	0	93	88	94	139	93	92	94	151	93	88	95	168	93	92	94
94	148	23	5.5	44.5	128	94	93	96	128	94	93	95	-151	93	88	95	179	94	93	96
95	149	23	6	45	-128	94	93	96	151	95	94	101	0	95	93	97	-179	94	93	96
96	150	23	6.5	45.5	122	96	94	97	-151	95	94	101	0	95	93	97	174	96	94	97
97	152	24	7	46	128	97	96	99	-151	95	94	101	139	97	95	101	179	97	96	98
98	153	24	7.25	46.25	-128	97	96	99	-151	95	94	101	-139	97	95	101	174	98	97	99
99	154	24	7.5	46.5	139	99	97	102	-151	95	94	101	-139	97	95	101	168	99	98	100
100	155	24	7.75	46.75	-139	99	97	102	-151	95	94	101	-139	97	95	101	162	100	99	101
101	156	24	8	47	-139	99	97	102	0	101	95	103	145	101	97	103	156	101	100	103
102	157	24	8.5	47.5	134	102	99	103	0	101	95	103	-145	101	97	103	-156	101	100	103
103	159	25	1	48	139	103	102	105	162	103	101	105	139	103	101	104	151	103	101	105
104	160	25	2	49	-139	103	102	105	-162	103	101	105	179	104	103	105	-151	103	101	105
105	162	26	3	50	0	105	103	112	156	105	103	107	168	105	104	106	0	105	103	114
106	163	26	3.75	50.75	0	105	103	112	-156	105	103	107	174	106	105	107	0	105	103	114
107	164	26	4	51	0	105	103	112	151	107	105	108	179	107	106	108	0	105	103	114
108	165	26	4.5	51.5	0	105	103	112	145	108	107	110	174	108	107	110	0	105	103	114
109	167	27	5	52	0	105	103	112	-145	108	107	110	-174	108	107	110	0	105	103	114
110	168	27	5.5	52.5	0	105	103	112	139	110	108	111	168	110	108	111	0	105	103	114
111	169	27	5.75	52.75	0	105	103	112	134	111	110	112	162	111	110	112	0	105	103	114
112	170	27	6	53	116	112	105	113	128	112	111	113	156	112	111	113	0	105	103	114
113	172	28	7	54	111	113	112	120	122	113	112	115	162	113	112	116	0	105	103	114
114	173	28	8	55	-111	113	112	120	-122	113	112	115	-162	113	112	116	151	114	105	116
115	174	28	8.5	55.5	-111	113	112	120	128	115	113	116	-162	113	112	116	-151	114	105	116
116	176	29	1	56	-111	113	112	120	134	116	115	117	151	116	113	117	162	116	114	118
117	177	29	2	57	-111	113	112	120	134	117	116	120	0	117	116	118	-162	116	114	118
118	178	29	2.5	57.5	-111	113	112	120	-134	117	116	120	151	118	117	121	168	118	116	119
119	179	29	2.75	57.75	-111	113	112	120	-134	117	116	120	-151	118	117	121	174	119	118	120
120	181	30	3	58	128	120	113	123	128	120	117	122	-151	118	117	121	179	120	119	123
121	182	30	3.5	58.5	-128	120	113	123	-128	120	117	122	156	121	118	122	-179	120	119	123
122	183	30	4	59	-128	120	113	123	0	122	120	124	151	122	121	123	-179	120	119	123
123	184	30	4.5	59.5	122	123	120	124	0	122	120	124	151	123	122	125	174	123	120	124
124	186	31	5	60	116	124	123	127	128	124	122	127	-151	123	122	125	168	124	123	127
125	187	31	5.25	60.25	-116	124	123	127	-128	124	122	127	145	125	123	126	-168	124	123	127
126	188	31	5.5	60.5	-116	124	123	127	-128	124	122	127	145	126	125	127	-168	124	123	127
127	189	31	6	61	111	127	124	129	134	127	124	129	151	127	126	128	162	127	124	129
128	190	31	6.75	61.75	-111	127	124	129	-134	127	124	129	145	128	127	129	-162	127	124	129
129	192	32	7	62	116	129	127	132	128	129	127	131	139	129	128	130	168	129	127	136
130	193	32	7.5	62.5	-116	129	127	132	-128	129	127	131	128	130	129	133	-168	129	127	136
131	194	32	7.75	62.75	-116	129	127	132	134	131	129	132	-128	130	129	133	-168	129	127	136
132	195	32	8	63	128	132	129	136	139	132	131	133	-128	130	129	133	-168	129	127	136
133	196	32	8.25	63.25	-128	132	129	136	145	133	132	134	134	133	130	134	-168	129	127	136
134	197	32	8.5	63.5	-128	132	129	136	151	134	133	135	139	134	133	136	-168	129	127	136
135	198	32	8.75	63.75	-128	132	129	136	156	135	134	136	-139	134	133	136	-168	129	127	136
136	200	33	1	64	122	136	132	139	162	136	135	139	145	136	134	137	174	136	129	137
137	201	33	2.5	65.5	-122	136	132	139	-162	136	135	139	151	137	136	139	168	137	136	138
138	202	33	2.75	65.75	-122	136	132	139	-162	136	135	139	-151	137	136	139	162	138	137	139
139	204	34	3	66	0	139	136	152	0	139	136	152	156	139	137	140	168	139	138	140
140	205	34	4	67	0	139	136	152	0	139	136	152	162	140	139	141	174	140	139	141
141	206	34	4.5	67.5	0	139	136	152	0	139	136	152	139	141	140	142	179	141	140	142
142	208	35	5	68	0	139	136	152	0	139	136	152	0	142	141	144	174	142	141	143
143	209	35	5.25	68.25	0	139	136	152	0	139	136	152	0	142	141	144	168	143	142	144
144	210	35	5.5	68.5	0	139	136	152	0	139	136	152	162	144	142	145	191	144	143	145
145	211	35	6.25	69.25	0	139	136	152	0	139	136	152	139	145	144	147	185	145	144	146
146	212	35	6.375	69.375	0	139	136	152	0	139	136	152	-139	145	144	147	179	146	145	147
147	213	35	6.5	69.5	0	139	136	152	0	139	136	152	162	147	145	148	185	147	146	149
148	215	36	7	70	0	139	136	152	0	139	136	152	156	148	147	149	-185	147	146	149
149	216	36	7.25	70.25	0	139	136	152	0	139	136	152	151	149	148	150	179	149	147	150
150	217	36	7.5	70.5	0	139	136	152	0	139	136	152	145	150	149	151	179	150	149	153
151	218	36	7.75	70.75	0	139	136	152	0	139	136	152	139	151	150	152	-179	150	149	153
152	219	36	8	71	122	152	139	154	162	152	139	154	145	152	151	154	-179	150	149	153
153	220	36	8.5	71.5	-122	152	139	154	-162	152	139	154	-145	152	151	154	174	153	150	154
154	222	37	1	72	128	154	152	159	151	154	152	159	139	154	152	159	179	154	153	155
155	223	37	1.75	72.75	-128	154	152	159	-151	154	152	159	-139	154	152	159	185	155	154	156
156	224	37	2	73	-128	154	152	159	-151	154	152	159	-139	154	152	159	191	156	155	157
157	225	37	2.25	73.25	-128	154	152	159	-151	154	152	159	-139	154	152	159	196	157	156	158
158	226	37	2.5	73.5	-128	154	152	159	-151	154	152	159	-139	154	152	159	191	158	157	160
159	228	38	3	74	122	159	154	162	162	159	154	162	0	159	154	160	-191	158	157	160
160	229	38	3.5	74.5	-122	159	154	162	-162	159	154	162	145	160	159	162	185	160	158	161
161	230	38	4	75	-122	159	154	162	-162	159	154	162	-145	160	159	162	174	161	160	162
162	231	38	4.5	75.5	128	162	159	163	156	162	159	163	139	162	160	163	179	162	161	164
163	233	39	5	76	111	163	162	167	162	163	162	165	151	163	162	164	-179	162	161	164
164	234	39	5.25	76.25	-111	163	162	167	-162	163	162	165	145	164	163	165	174	164	162	165
165	235	39	5.5	76.5	-111	163	162	167	151	165	163	168	139	165	164	166	168	165	164	166
166	236	39	5.75	76.75	-111	163	162	167	-151	165	163	168	134	166	165	167	162	166	165	167
167	237	39	6	77	116	167	163	169	-151	165	163	168	128	167	166	169	168	167	166	169
168	238	39	6.5	77.5	-116	167	163	169	145	168	165	169	-128	167	166	169	-168	167	166	169
169	240	40	7	78	111	169	167	171	151	169	168	170	134	169	167	171	162	169	167	171
170	241	40	7.5	78.5	-111	169	167	171	162	170	169	172	-134	169	167	171	-162	169	167	171
171	242	40	8	79	128	171	169	174	-162	170	169	172	139	171	169	174	179	171	169	174
172	243	40	8.25	79.25	-128	171	169	174	156	172	170	173	-139	171	169	174	-179	171	169	174
173	244	40	8.5	79.5	-128	171	169	174	156	173	172	174	-139	171	169	174	-179	171	169	174
174	246	41	1	80	122	174	171	175	162	174	173	175	145	174	171	175	174	174	171	175
% !!LO:LB:i:g=z
% !!section: Kyrie II
% !!!OMD: Kyrie II
175	256	42	3	82	139	175	174	176	162	175	174	176	0	175	174	176	0	175	174	213
176	258	43	5	84	139	176	175	177	162	176	175	177	151	176	175	178	0	175	174	213
177	259	43	6	85	139	177	176	178	151	177	176	178	-151	176	175	178	0	175	174	213
178	261	44	7	86	145	178	177	180	145	178	177	179	168	178	176	180	0	175	174	213
179	262	44	7.5	86.5	-145	178	177	180	156	179	178	180	-168	178	176	180	0	175	174	213
180	263	44	8.5	87.5	139	180	178	181	151	180	179	181	174	180	178	182	0	175	174	213
181	264	44	8.75	87.75	134	181	180	182	145	181	180	182	-174	180	178	182	0	175	174	213
182	266	45	1	88	128	182	181	183	139	182	181	183	179	182	180	187	0	175	174	213
183	267	45	1.5	88.5	139	183	182	185	128	183	182	184	-179	182	180	187	0	175	174	213
184	268	45	1.75	88.75	-139	183	182	185	134	184	183	185	-179	182	180	187	0	175	174	213
185	269	45	2	89	128	185	183	187	139	185	184	186	-179	182	180	187	0	175	174	213
186	270	45	2.25	89.25	-128	185	183	187	145	186	185	187	-179	182	180	187	0	175	174	213
187	271	45	2.5	89.5	122	187	185	188	151	187	186	188	174	187	182	188	0	175	174	213
188	272	45	2.75	89.75	116	188	187	189	156	188	187	189	168	188	187	189	0	175	174	213
189	274	46	3	90	111	189	188	195	162	189	188	190	162	189	188	191	0	175	174	213
190	275	46	3.5	90.5	-111	189	188	195	151	190	189	193	-162	189	188	191	0	175	174	213
191	276	46	4	91	-111	189	188	195	-151	190	189	193	162	191	189	192	0	175	174	213
192	277	46	4.25	91.25	-111	189	188	195	-151	190	189	193	168	192	191	193	0	175	174	213
193	278	46	4.5	91.5	-111	189	188	195	145	193	190	194	174	193	192	194	0	175	174	213
194	279	46	4.75	91.75	-111	189	188	195	139	194	193	195	179	194	193	195	0	175	174	213
195	281	47	5	92	0	195	189	199	134	195	194	196	185	195	194	196	0	175	174	213
196	282	47	6	93	0	195	189	199	139	196	195	197	179	196	195	197	0	175	174	213
197	283	47	6.5	93.5	0	195	189	199	145	197	196	198	174	197	196	199	0	175	174	213
198	285	48	7	94	0	195	189	199	151	198	197	199	-174	197	196	199	0	175	174	213
199	286	48	7.5	94.5	128	199	195	201	156	199	198	200	168	199	197	201	0	175	174	213
200	287	48	8	95	-128	199	195	201	151	200	199	201	-168	199	197	201	0	175	174	213
201	288	48	8.5	95.5	111	201	199	202	151	201	200	203	162	201	199	202	0	175	174	213
202	290	49	1	96	116	202	201	205	-151	201	200	203	168	202	201	206	0	175	174	213
203	291	49	1.5	96.5	-116	202	201	205	145	203	201	204	-168	202	201	206	0	175	174	213
204	292	49	1.75	96.75	-116	202	201	205	139	204	203	205	-168	202	201	206	0	175	174	213
205	293	49	2	97	116	205	202	206	145	205	204	206	-168	202	201	206	0	175	174	213
206	295	50	3	98	111	206	205	208	151	206	205	207	162	206	202	208	0	175	174	213
207	296	50	3.5	98.5	-111	206	205	208	162	207	206	211	-162	206	202	208	0	175	174	213
208	297	50	3.75	98.75	116	208	206	210	-162	207	206	211	156	208	206	209	0	175	174	213
209	298	50	3.875	98.875	-116	208	206	210	-162	207	206	211	151	209	208	210	0	175	174	213
210	299	50	4	99	122	210	208	211	-162	207	206	211	145	210	209	211	0	175	174	213
211	300	50	4.5	99.5	128	211	210	213	151	211	207	212	139	211	210	215	0	175	174	213
212	302	51	5	100	-128	211	210	213	156	212	211	213	-139	211	210	215	0	175	174	213
213	303	51	5.5	100.5	128	213	211	215	151	213	212	214	-139	211	210	215	179	213	175	216
214	304	51	5.75	100.75	-128	213	211	215	156	214	213	215	-139	211	210	215	-179	213	175	216
215	305	51	6	101	122	215	213	217	162	215	214	222	145	215	211	217	-179	213	175	216
216	306	51	6.5	101.5	-122	215	213	217	-162	215	214	222	-145	215	211	217	174	216	213	217
217	308	52	7	102	139	217	215	218	-162	215	214	222	139	217	215	218	179	217	216	218
218	309	52	8	103	0	218	217	219	-162	215	214	222	0	218	217	232	185	218	217	219
219	310	52	8.5	103.5	139	219	218	221	-162	215	214	222	0	218	217	232	191	219	218	221
220	312	53	1	104	-139	219	218	221	-162	215	214	222	0	218	217	232	-191	219	218	221
221	313	53	1.5	104.5	134	221	219	222	-162	215	214	222	0	218	217	232	185	221	219	223
222	314	53	2	105	122	222	221	224	162	222	215	224	0	218	217	232	-185	221	219	223
223	315	53	2.5	105.5	-122	222	221	224	-162	222	215	224	0	218	217	232	202	223	221	225
224	317	54	3	106	145	224	222	226	168	224	222	226	0	218	217	232	-202	223	221	225
225	318	54	3.5	106.5	-145	224	222	226	-168	224	222	226	0	218	217	232	196	225	223	226
226	319	54	4	107	151	226	224	227	162	226	224	231	0	218	217	232	202	226	225	227
227	320	54	4.5	107.5	139	227	226	229	-162	226	224	231	0	218	217	232	191	227	226	229
228	322	55	5	108	-139	227	226	229	-162	226	224	231	0	218	217	232	-191	227	226	229
229	323	55	5.5	108.5	134	229	227	230	-162	226	224	231	0	218	217	232	185	229	227	230
230	324	55	5.75	108.75	128	230	229	231	-162	226	224	231	0	218	217	232	179	230	229	231
231	325	55	6	109	122	231	230	233	162	231	226	233	0	218	217	232	174	231	230	233
232	326	55	6.5	109.5	-122	231	230	233	-162	231	226	233	162	232	218	234	-174	231	230	233
233	328	56	7	110	128	233	231	235	139	233	231	235	-162	232	218	234	179	233	231	235
234	329	56	7.5	110.5	-128	233	231	235	-139	233	231	235	156	234	232	235	-179	233	231	235
235	330	56	8	111	122	235	233	236	145	235	233	236	162	235	234	237	174	235	233	236
236	331	56	8.5	111.5	99	236	235	237	151	236	235	237	-162	235	234	237	179	236	235	237
237	333	57	1	112	116	237	236	241	128	237	236	241	168	237	235	239	185	237	236	238
238	334	57	1.25	112.25	-116	237	236	241	-128	237	236	241	-168	237	235	239	179	238	237	239
239	335	57	1.5	112.5	-116	237	236	241	-128	237	236	241	156	239	237	241	174	239	238	240
240	336	57	1.75	112.75	-116	237	236	241	-128	237	236	241	-156	239	237	241	168	240	239	241
241	337	57	2	113	111	241	237	242	0	241	237	242	162	241	239	242	162	241	240	242
242	338	57	2.5	113.5	116	242	241	244	139	242	241	244	156	242	241	244	168	242	241	244
243	340	58	3	114	-116	242	241	244	-139	242	241	244	-156	242	241	244	-168	242	241	244
244	341	58	3.5	114.5	105	244	242	245	145	244	242	245	156	244	242	245	185	244	242	245
245	342	58	4	115	128	245	244	248	151	245	244	246	151	245	244	246	179	245	244	246
246	343	58	4.5	115.5	-128	245	244	248	156	246	245	248	139	246	245	248	174	246	245	247
247	344	58	4.75	115.75	-128	245	244	248	-156	246	245	248	-139	246	245	248	168	247	246	248
248	346	59	5	116	122	248	245	249	162	248	246	249	145	248	246	249	174	248	247	249
249	347	59	6	117	139	249	248	250	139	249	248	250	139	249	248	250	191	249	248	250
250	348	59	6.5	117.5	134	250	249	251	145	250	249	251	162	250	249	252	185	250	249	251
251	350	60	7	118	139	251	250	253	151	251	250	253	-162	250	249	252	202	251	250	254
252	351	60	7.25	118.25	-139	251	250	253	-151	251	250	253	168	252	250	253	-202	251	250	254
253	352	60	7.5	118.5	122	253	251	255	145	253	251	255	174	253	252	255	-202	251	250	254
254	353	60	7.75	118.75	-122	253	251	255	-145	253	251	255	-174	253	252	255	196	254	251	255
255	354	60	8	119	128	255	253	259	139	255	253	257	179	255	253	256	191	255	254	256
256	355	60	8.25	119.25	-128	255	253	259	-139	255	253	257	174	256	255	257	185	256	255	257
257	356	60	8.5	119.5	-128	255	253	259	179	257	255	261	168	257	256	258	179	257	256	259
258	357	60	8.75	119.75	-128	255	253	259	-179	257	255	261	162	258	257	259	-179	257	256	259
259	359	61	1	120	116	259	255	263	-179	257	255	261	168	259	258	261	196	259	257	260
260	360	61	1.25	120.25	-116	259	255	263	-179	257	255	261	-168	259	258	261	191	260	259	261
261	361	61	1.5	120.5	-116	259	255	263	168	261	257	263	156	261	259	263	185	261	260	262
262	362	61	1.75	120.75	-116	259	255	263	-168	261	257	263	-156	261	259	263	179	262	261	263
263	363	61	2	121	122	263	259	267	162	263	261	264	145	263	261	265	174	263	262	264
264	364	61	2.25	121.25	-122	263	259	267	156	264	263	265	-145	263	261	265	168	264	263	265
265	365	61	2.5	121.5	-122	263	259	267	151	265	264	266	162	265	263	269	162	265	264	266
266	366	61	2.75	121.75	-122	263	259	267	145	266	265	267	-162	265	263	269	156	266	265	267
267	368	62	1	122	128	267	263	270	139	267	266	270	-162	265	263	269	151	267	266	268
268	369	62	1.25	122.25	-128	267	263	270	-139	267	266	270	-162	265	263	269	139	268	267	269
269	370	62	1.5	122.5	-128	267	263	270	-139	267	266	270	156	269	265	270	179	269	268	271
270	371	62	2	123	122	270	267	272	145	270	267	272	162	270	269	272	-179	269	268	271
271	372	62	2.5	123.5	-122	270	267	272	-145	270	267	272	-162	270	269	272	174	271	269	272
272	374	63	1	124	139	272	270	273	139	272	270	273	162	272	270	273	179	272	271	273
273	376	64	1	126	0	273	272	-1	0	273	272	-1	0	273	272	-1	0	273	272	-1
% !!!RDF**kern: l=long note in original notation
% !!!RDF**kern: V=start of tuplet marker
% !!!RDF**kern: Z=end of tuplet marker
% !!!ENC:	Jesse Rodin; Victoria Chang 2012/02/27
% !!!END:	2012/02/27/
% !!!EED:	Jesse Rodin
% !!!EEV:	2012/08/13/
% !!attribution-level: 3 (other)
% !!!ONB:	Translated from MusicXML and edited on 2012/08/13/ by Craig Sapp
% !!muse2ps: T^@{OPR}^u^@{ONM}{. }@{OTL}^C^@{COA}?\n@{SCT}^i2I150v85,85,85,100Q16
