% !!!COA: Josquin des Prez
% !!!CDT: ~1450-1521/08/27
% !!!OTL@@FRA: Plusieurs regretz
% !!!AGN: Chanson
% !!!SCT: NJE 29.21
% !!!SCA: New Josquin Edition 29.21
% !!!voices: 5
%%idx	%%line	%%bar	%%beat	%%abs	%%b40	%%attk	%%last	%%next	%%b40	%%attk	%%last	%%next	%%b40	%%attk	%%last	%%next	%%b40	%%attk	%%last	%%next	%%b40	%%attk	%%last	%%next
0	2000	3000	4000	5000	1040	7100	7200	7300	1040	7100	7200	7300	1040	7100	7200	7300	1040	7100	7200	7300	1040	7100	7200	7300
1	19	1	1	0	0	1	-1	13	0	1	-1	12	0	1	-1	2	0	1	-1	24	168	1	-1	2
2	20	1	2	1	0	1	-1	13	0	1	-1	12	168	2	1	4	0	1	-1	24	168	2	1	3
3	21	1	2.75	1.75	0	1	-1	13	0	1	-1	12	-168	2	1	4	0	1	-1	24	174	3	2	4
4	23	2	3	2	0	1	-1	13	0	1	-1	12	168	4	2	7	0	1	-1	24	179	4	3	5
5	24	2	3.25	2.25	0	1	-1	13	0	1	-1	12	-168	4	2	7	0	1	-1	24	185	5	4	6
6	25	2	3.5	2.5	0	1	-1	13	0	1	-1	12	-168	4	2	7	0	1	-1	24	191	6	5	9
7	26	2	3.75	2.75	0	1	-1	13	0	1	-1	12	162	7	4	8	0	1	-1	24	-191	6	5	9
8	27	2	4	3	0	1	-1	13	0	1	-1	12	157	8	7	12	0	1	-1	24	-191	6	5	9
9	28	2	4.25	3.25	0	1	-1	13	0	1	-1	12	-157	8	7	12	0	1	-1	24	186	9	6	10
10	29	2	4.5	3.5	0	1	-1	13	0	1	-1	12	-157	8	7	12	0	1	-1	24	186	10	9	11
11	30	2	4.75	3.75	0	1	-1	13	0	1	-1	12	-157	8	7	12	0	1	-1	24	180	11	10	12
12	32	3	5	4	0	1	-1	13	128	12	1	13	151	12	8	13	0	1	-1	24	191	12	11	13
13	33	3	6	5	128	13	1	16	128	13	12	15	139	13	12	15	0	1	-1	24	0	13	12	14
14	34	3	6.5	5.5	-128	13	1	16	-128	13	12	15	-139	13	12	15	0	1	-1	24	179	14	13	16
15	35	3	6.75	5.75	-128	13	1	16	134	15	13	16	145	15	13	16	0	1	-1	24	-179	14	13	16
16	37	4	7	6	128	16	13	19	139	16	15	17	151	16	15	20	0	1	-1	24	179	16	14	19
17	38	4	7.25	6.25	-128	16	13	19	145	17	16	18	-151	16	15	20	0	1	-1	24	-179	16	14	19
18	39	4	7.5	6.5	-128	16	13	19	151	18	17	21	-151	16	15	20	0	1	-1	24	-179	16	14	19
19	40	4	7.75	6.75	122	19	16	20	-151	18	17	21	-151	16	15	20	0	1	-1	24	174	19	16	20
20	41	4	8	7	117	20	19	24	-151	18	17	21	128	20	16	24	0	1	-1	24	168	20	19	24
21	42	4	8.25	7.25	-117	20	19	24	146	21	18	22	-128	20	16	24	0	1	-1	24	-168	20	19	24
22	43	4	8.5	7.5	-117	20	19	24	146	22	21	23	-128	20	16	24	0	1	-1	24	-168	20	19	24
23	44	4	8.75	7.75	-117	20	19	24	140	23	22	24	-128	20	16	24	0	1	-1	24	-168	20	19	24
24	46	5	1	8	111	24	20	25	151	24	23	28	134	24	20	25	151	24	1	25	162	24	20	25
25	47	5	2	9	0	25	24	26	-151	24	23	28	162	25	24	27	151	25	24	27	0	25	24	26
26	48	5	2.5	9.5	151	26	25	28	-151	24	23	28	-162	25	24	27	-151	25	24	27	202	26	25	28
27	49	5	2.75	9.75	-151	26	25	28	-151	24	23	28	168	27	25	28	157	27	25	28	-202	26	25	28
28	51	6	3	10	151	28	26	31	0	28	24	38	174	28	27	32	162	28	27	29	202	28	26	31
29	52	6	3.25	10.25	-151	28	26	31	0	28	24	38	-174	28	27	32	168	29	28	30	-202	28	26	31
30	53	6	3.5	10.5	-151	28	26	31	0	28	24	38	-174	28	27	32	174	30	29	33	-202	28	26	31
31	54	6	3.75	10.75	145	31	28	32	0	28	24	38	-174	28	27	32	-174	30	29	33	197	31	28	32
32	55	6	4	11	139	32	31	36	0	28	24	38	151	32	28	36	-174	30	29	33	191	32	31	36
33	56	6	4.25	11.25	-139	32	31	36	0	28	24	38	-151	32	28	36	168	33	30	34	-191	32	31	36
34	57	6	4.5	11.5	-139	32	31	36	0	28	24	38	-151	32	28	36	168	34	33	35	-191	32	31	36
35	58	6	4.75	11.75	-139	32	31	36	0	28	24	38	-151	32	28	36	162	35	34	36	-191	32	31	36
% !!linebreak:original
36	61	7	5	12	134	36	32	40	0	28	24	38	157	36	32	37	174	36	35	40	185	36	32	40
37	62	7	5.5	12.5	-134	36	32	40	0	28	24	38	134	37	36	38	-174	36	35	40	-185	36	32	40
38	63	7	6	13	-134	36	32	40	134	38	28	40	145	38	37	39	-174	36	35	40	-185	36	32	40
39	64	7	6.75	13.75	-134	36	32	40	-134	38	28	40	151	39	38	40	-174	36	35	40	-185	36	32	40
40	66	8	7	14	0	40	36	43	145	40	38	43	157	40	39	41	0	40	36	50	0	40	36	43
41	67	8	7.5	14.5	0	40	36	43	-145	40	38	43	134	41	40	42	0	40	36	50	0	40	36	43
42	68	8	7.75	14.75	0	40	36	43	-145	40	38	43	139	42	41	43	0	40	36	50	0	40	36	43
43	69	8	8	15	134	43	40	46	145	43	40	45	145	43	42	44	0	40	36	50	185	43	40	46
44	70	8	8.25	15.25	-134	43	40	46	-145	43	40	45	151	44	43	45	0	40	36	50	-185	43	40	46
45	71	8	8.5	15.5	-134	43	40	46	145	45	43	47	157	45	44	46	0	40	36	50	-185	43	40	46
46	73	9	1	16	145	46	43	50	-145	45	43	47	134	46	45	48	0	40	36	50	185	46	43	50
47	74	9	1.25	16.25	-145	46	43	50	139	47	45	48	-134	46	45	48	0	40	36	50	-185	46	43	50
48	75	9	1.5	16.5	-145	46	43	50	134	48	47	49	174	48	46	51	0	40	36	50	-185	46	43	50
49	76	9	1.75	16.75	-145	46	43	50	128	49	48	50	-174	48	46	51	0	40	36	50	-185	46	43	50
50	77	9	2	17	145	50	46	54	134	50	49	54	-174	48	46	51	157	50	40	54	185	50	46	54
51	78	9	2.25	17.25	-145	50	46	54	-134	50	49	54	179	51	48	52	-157	50	40	54	-185	50	46	54
52	79	9	2.5	17.5	-145	50	46	54	-134	50	49	54	185	52	51	53	-157	50	40	54	-185	50	46	54
53	80	9	2.75	17.75	-145	50	46	54	-134	50	49	54	174	53	52	54	-157	50	40	54	-185	50	46	54
54	82	10	3	18	139	54	50	58	128	54	50	60	179	54	53	55	168	54	50	57	191	54	50	56
55	83	10	3.5	18.5	-139	54	50	58	-128	54	50	60	168	55	54	57	-168	54	50	57	-191	54	50	56
56	84	10	3.75	18.75	-139	54	50	58	-128	54	50	60	-168	55	54	57	-168	54	50	57	185	56	54	57
57	85	10	4	19	-139	54	50	58	-128	54	50	60	179	57	55	60	168	57	54	58	191	57	56	58
58	86	10	4.5	19.5	134	58	54	59	-128	54	50	60	-179	57	55	60	168	58	57	61	197	58	57	61
59	87	10	4.75	19.75	128	59	58	60	-128	54	50	60	-179	57	55	60	-168	58	57	61	-197	58	57	61
60	89	11	5	20	134	60	59	63	0	60	54	79	174	60	57	63	-168	58	57	61	-197	58	57	61
61	90	11	5.25	20.25	-134	60	59	63	0	60	54	79	-174	60	57	63	162	61	58	62	191	61	58	62
62	91	11	5.5	20.5	-134	60	59	63	0	60	54	79	-174	60	57	63	157	62	61	63	191	62	61	65
63	92	11	5.75	20.75	139	63	60	64	0	60	54	79	168	63	60	64	151	63	62	64	-191	62	61	65
64	93	11	6	21	134	64	63	68	0	60	54	79	174	64	63	68	157	64	63	68	-191	62	61	65
65	94	11	6.25	21.25	-134	64	63	68	0	60	54	79	-174	64	63	68	-157	64	63	68	186	65	62	66
66	95	11	6.5	21.5	-134	64	63	68	0	60	54	79	-174	64	63	68	-157	64	63	68	186	66	65	67
67	96	11	6.75	21.75	-134	64	63	68	0	60	54	79	-174	64	63	68	-157	64	63	68	180	67	66	68
68	98	12	7	22	111	68	64	70	0	60	54	79	162	68	64	70	151	68	64	70	191	68	67	69
69	99	12	8	23	-111	68	64	70	0	60	54	79	-162	68	64	70	-151	68	64	70	0	69	68	70
70	101	13	1	24	0	70	68	80	0	60	54	79	0	70	68	71	0	70	68	91	168	70	69	71
71	102	13	2	25	0	70	68	80	0	60	54	79	168	71	70	73	0	70	68	91	168	71	70	72
72	103	13	2.75	25.75	0	70	68	80	0	60	54	79	-168	71	70	73	0	70	68	91	174	72	71	73
% !!pagebreak:original
73	106	14	3	26	0	70	68	80	0	60	54	79	168	73	71	76	0	70	68	91	179	73	72	74
74	107	14	3.25	26.25	0	70	68	80	0	60	54	79	-168	73	71	76	0	70	68	91	185	74	73	75
75	108	14	3.5	26.5	0	70	68	80	0	60	54	79	-168	73	71	76	0	70	68	91	191	75	74	78
76	109	14	3.75	26.75	0	70	68	80	0	60	54	79	162	76	73	77	0	70	68	91	-191	75	74	78
77	110	14	4	27	0	70	68	80	0	60	54	79	157	77	76	79	0	70	68	91	-191	75	74	78
78	111	14	4.5	27.5	0	70	68	80	0	60	54	79	-157	77	76	79	0	70	68	91	186	78	75	79
79	113	15	5	28	0	70	68	80	128	79	60	80	151	79	77	80	0	70	68	91	191	79	78	80
80	114	15	6	29	128	80	70	83	128	80	79	82	139	80	79	82	0	70	68	91	0	80	79	81
81	115	15	6.5	29.5	-128	80	70	83	-128	80	79	82	-139	80	79	82	0	70	68	91	179	81	80	83
82	116	15	6.75	29.75	-128	80	70	83	134	82	80	83	145	82	80	83	0	70	68	91	-179	81	80	83
83	118	16	7	30	128	83	80	86	139	83	82	84	151	83	82	87	0	70	68	91	179	83	81	86
84	119	16	7.25	30.25	-128	83	80	86	145	84	83	85	-151	83	82	87	0	70	68	91	-179	83	81	86
85	120	16	7.5	30.5	-128	83	80	86	151	85	84	88	-151	83	82	87	0	70	68	91	-179	83	81	86
86	121	16	7.75	30.75	122	86	83	87	-151	85	84	88	-151	83	82	87	0	70	68	91	174	86	83	87
87	122	16	8	31	117	87	86	91	-151	85	84	88	128	87	83	91	0	70	68	91	168	87	86	91
88	123	16	8.25	31.25	-117	87	86	91	146	88	85	89	-128	87	83	91	0	70	68	91	-168	87	86	91
89	124	16	8.5	31.5	-117	87	86	91	146	89	88	90	-128	87	83	91	0	70	68	91	-168	87	86	91
90	125	16	8.75	31.75	-117	87	86	91	140	90	89	91	-128	87	83	91	0	70	68	91	-168	87	86	91
91	127	17	1	32	111	91	87	92	151	91	90	95	134	91	87	92	151	91	70	92	162	91	87	92
92	128	17	2	33	0	92	91	93	-151	91	90	95	162	92	91	94	151	92	91	94	0	92	91	93
93	129	17	2.5	33.5	151	93	92	95	-151	91	90	95	-162	92	91	94	-151	92	91	94	202	93	92	95
94	130	17	2.75	33.75	-151	93	92	95	-151	91	90	95	168	94	92	95	157	94	92	95	-202	93	92	95
95	132	18	3	34	151	95	93	98	0	95	91	105	174	95	94	99	162	95	94	96	202	95	93	98
96	133	18	3.25	34.25	-151	95	93	98	0	95	91	105	-174	95	94	99	168	96	95	97	-202	95	93	98
97	134	18	3.5	34.5	-151	95	93	98	0	95	91	105	-174	95	94	99	174	97	96	100	-202	95	93	98
98	135	18	3.75	34.75	145	98	95	99	0	95	91	105	-174	95	94	99	-174	97	96	100	197	98	95	99
99	136	18	4	35	139	99	98	103	0	95	91	105	151	99	95	103	-174	97	96	100	191	99	98	103
100	137	18	4.25	35.25	-139	99	98	103	0	95	91	105	-151	99	95	103	168	100	97	101	-191	99	98	103
101	138	18	4.5	35.5	-139	99	98	103	0	95	91	105	-151	99	95	103	168	101	100	102	-191	99	98	103
102	139	18	4.75	35.75	-139	99	98	103	0	95	91	105	-151	99	95	103	162	102	101	103	-191	99	98	103
103	141	19	5	36	134	103	99	107	0	95	91	105	157	103	99	104	174	103	102	107	185	103	99	107
104	142	19	5.5	36.5	-134	103	99	107	0	95	91	105	134	104	103	105	-174	103	102	107	-185	103	99	107
105	143	19	6	37	-134	103	99	107	134	105	95	107	145	105	104	106	-174	103	102	107	-185	103	99	107
106	144	19	6.75	37.75	-134	103	99	107	-134	105	95	107	151	106	105	107	-174	103	102	107	-185	103	99	107
107	146	20	7	38	0	107	103	110	145	107	105	110	157	107	106	108	0	107	103	117	0	107	103	110
108	147	20	7.5	38.5	0	107	103	110	-145	107	105	110	134	108	107	109	0	107	103	117	0	107	103	110
109	148	20	7.75	38.75	0	107	103	110	-145	107	105	110	139	109	108	110	0	107	103	117	0	107	103	110
110	149	20	8	39	134	110	107	113	145	110	107	112	145	110	109	111	0	107	103	117	185	110	107	113
111	150	20	8.25	39.25	-134	110	107	113	-145	110	107	112	151	111	110	112	0	107	103	117	-185	110	107	113
112	151	20	8.5	39.5	-134	110	107	113	145	112	110	114	157	112	111	113	0	107	103	117	-185	110	107	113
% !!linebreak:original
113	154	21	1	40	145	113	110	117	-145	112	110	114	134	113	112	115	0	107	103	117	185	113	110	117
114	155	21	1.25	40.25	-145	113	110	117	139	114	112	115	-134	113	112	115	0	107	103	117	-185	113	110	117
115	156	21	1.5	40.5	-145	113	110	117	134	115	114	116	174	115	113	118	0	107	103	117	-185	113	110	117
116	157	21	1.75	40.75	-145	113	110	117	128	116	115	117	-174	115	113	118	0	107	103	117	-185	113	110	117
117	158	21	2	41	145	117	113	121	134	117	116	121	-174	115	113	118	157	117	107	121	185	117	113	121
118	159	21	2.25	41.25	-145	117	113	121	-134	117	116	121	179	118	115	119	-157	117	107	121	-185	117	113	121
119	160	21	2.5	41.5	-145	117	113	121	-134	117	116	121	185	119	118	120	-157	117	107	121	-185	117	113	121
120	161	21	2.75	41.75	-145	117	113	121	-134	117	116	121	174	120	119	121	-157	117	107	121	-185	117	113	121
121	163	22	3	42	139	121	117	125	128	121	117	127	179	121	120	122	168	121	117	124	191	121	117	123
122	164	22	3.5	42.5	-139	121	117	125	-128	121	117	127	168	122	121	124	-168	121	117	124	-191	121	117	123
123	165	22	3.75	42.75	-139	121	117	125	-128	121	117	127	-168	122	121	124	-168	121	117	124	185	123	121	124
124	166	22	4	43	-139	121	117	125	-128	121	117	127	179	124	122	127	168	124	121	125	191	124	123	125
125	167	22	4.5	43.5	134	125	121	126	-128	121	117	127	-179	124	122	127	168	125	124	128	197	125	124	128
126	168	22	4.75	43.75	128	126	125	127	-128	121	117	127	-179	124	122	127	-168	125	124	128	-197	125	124	128
127	170	23	5	44	134	127	126	130	0	127	121	137	174	127	124	130	-168	125	124	128	-197	125	124	128
128	171	23	5.25	44.25	-134	127	126	130	0	127	121	137	-174	127	124	130	162	128	125	129	191	128	125	129
129	172	23	5.5	44.5	-134	127	126	130	0	127	121	137	-174	127	124	130	157	129	128	130	191	129	128	132
130	173	23	5.75	44.75	139	130	127	131	0	127	121	137	168	130	127	131	151	130	129	131	-191	129	128	132
131	174	23	6	45	134	131	130	135	0	127	121	137	174	131	130	135	157	131	130	135	-191	129	128	132
132	175	23	6.25	45.25	-134	131	130	135	0	127	121	137	-174	131	130	135	-157	131	130	135	186	132	129	133
133	176	23	6.5	45.5	-134	131	130	135	0	127	121	137	-174	131	130	135	-157	131	130	135	186	133	132	134
134	177	23	6.75	45.75	-134	131	130	135	0	127	121	137	-174	131	130	135	-157	131	130	135	180	134	133	135
135	179	24	7	46	111	135	131	139	0	127	121	137	162	135	131	136	151	135	131	139	191	135	134	139
136	180	24	7.5	46.5	-111	135	131	139	0	127	121	137	174	136	135	137	-151	135	131	139	-191	135	134	139
137	181	24	8	47	-111	135	131	139	134	137	127	139	174	137	136	138	-151	135	131	139	-191	135	134	139
138	182	24	8.5	47.5	-111	135	131	139	-134	137	127	139	174	138	137	140	-151	135	131	139	-191	135	134	139
139	184	25	1	48	128	139	135	143	139	139	137	142	-174	138	137	140	0	139	135	144	0	139	135	142
140	185	25	1.5	48.5	-128	139	135	143	-139	139	137	142	168	140	138	141	0	139	135	144	0	139	135	142
141	186	25	1.75	48.75	-128	139	135	143	-139	139	137	142	162	141	140	142	0	139	135	144	0	139	135	142
142	187	25	2	49	-128	139	135	143	139	142	139	143	168	142	141	143	0	139	135	144	151	142	139	143
143	189	26	3	50	0	143	139	147	134	143	142	145	174	143	142	145	0	139	135	144	157	143	142	144
144	190	26	4	51	0	143	139	147	-134	143	142	145	-174	143	142	145	157	144	139	145	157	144	143	145
145	192	27	5	52	0	143	139	147	0	145	143	147	0	145	143	146	162	145	144	147	151	145	144	151
146	193	27	5.5	52.5	0	143	139	147	0	145	143	147	174	146	145	147	-162	145	144	147	-151	145	144	151
147	194	27	6	53	111	147	143	151	151	147	145	151	174	147	146	148	162	147	145	151	-151	145	144	151
148	195	27	6.25	53.25	-111	147	143	151	-151	147	145	151	168	148	147	149	-162	147	145	151	-151	145	144	151
149	196	27	6.5	53.5	-111	147	143	151	-151	147	145	151	174	149	148	150	-162	147	145	151	-151	145	144	151
150	197	27	6.75	53.75	-111	147	143	151	-151	147	145	151	179	150	149	151	-162	147	145	151	-151	145	144	151
% !!linebreak:original
151	200	28	7	54	134	151	147	154	145	151	147	154	185	151	150	152	157	151	147	158	0	151	145	154
152	201	28	7.25	54.25	-134	151	147	154	-145	151	147	154	174	152	151	153	-157	151	147	158	0	151	145	154
153	202	28	7.5	54.5	-134	151	147	154	-145	151	147	154	185	153	152	155	-157	151	147	158	0	151	145	154
154	203	28	8	55	134	154	151	158	145	154	151	158	-185	153	152	155	-157	151	147	158	197	154	151	158
155	204	28	8.25	55.25	-134	154	151	158	-145	154	151	158	179	155	153	156	-157	151	147	158	-197	154	151	158
156	205	28	8.5	55.5	-134	154	151	158	-145	154	151	158	174	156	155	157	-157	151	147	158	-197	154	151	158
157	206	28	8.75	55.75	-134	154	151	158	-145	154	151	158	168	157	156	158	-157	151	147	158	-197	154	151	158
158	208	29	1	56	111	158	154	162	151	158	154	161	162	158	157	159	0	158	151	160	202	158	154	161
159	209	29	1.5	56.5	-111	158	154	162	-151	158	154	161	151	159	158	160	0	158	151	160	-202	158	154	161
160	210	29	2	57	-111	158	154	162	-151	158	154	161	151	160	159	161	174	160	158	162	-202	158	154	161
161	211	29	2.5	57.5	-111	158	154	162	134	161	158	162	151	161	160	162	-174	160	158	162	202	161	158	162
162	213	30	3	58	0	162	158	165	145	162	161	164	157	162	161	163	168	162	160	165	197	162	161	165
163	214	30	3.5	58.5	0	162	158	165	-145	162	161	164	145	163	162	165	-168	162	160	165	-197	162	161	165
164	215	30	3.75	58.75	0	162	158	165	151	164	162	165	-145	163	162	165	-168	162	160	165	-197	162	161	165
165	216	30	4	59	128	165	162	166	139	165	164	166	151	165	163	166	168	165	162	166	191	165	162	166
166	218	31	5	60	145	166	165	170	134	166	165	172	157	166	165	167	174	166	165	170	185	166	165	167
167	219	31	5.75	60.75	-145	166	165	170	-134	166	165	172	134	167	166	168	-174	166	165	170	191	167	166	168
168	220	31	6	61	-145	166	165	170	-134	166	165	172	134	168	167	169	-174	166	165	170	197	168	167	172
169	221	31	6.25	61.25	-145	166	165	170	-134	166	165	172	139	169	168	170	-174	166	165	170	-197	168	167	172
170	222	31	6.5	61.5	145	170	166	172	-134	166	165	172	145	170	169	171	157	170	166	172	-197	168	167	172
171	223	31	6.75	61.75	-145	170	166	172	-134	166	165	172	151	171	170	172	-157	170	166	172	-197	168	167	172
172	225	32	7	62	145	172	170	173	0	172	166	180	157	172	171	174	168	172	170	174	0	172	168	173
173	226	32	7.5	62.5	145	173	172	175	0	172	166	180	-157	172	171	174	-168	172	170	174	197	173	172	175
174	227	32	7.75	62.75	-145	173	172	175	0	172	166	180	134	174	172	175	174	174	172	175	-197	173	172	175
175	228	32	8	63	151	175	173	177	0	172	166	180	174	175	174	177	162	175	174	177	202	175	173	176
176	229	32	8.5	63.5	-151	175	173	177	0	172	166	180	-174	175	174	177	-162	175	174	177	191	176	175	177
177	231	33	1	64	134	177	175	182	0	172	166	180	0	177	175	178	157	177	175	182	191	177	176	178
178	232	33	1.5	64.5	-134	177	175	182	0	172	166	180	174	178	177	180	-157	177	175	182	186	178	177	179
179	233	33	1.75	64.75	-134	177	175	182	0	172	166	180	-174	178	177	180	-157	177	175	182	180	179	178	180
180	234	33	2	65	-134	177	175	182	134	180	172	182	174	180	178	181	-157	177	175	182	186	180	179	182
181	235	33	2.5	65.5	-134	177	175	182	-134	180	172	182	174	181	180	183	-157	177	175	182	-186	180	179	182
182	237	34	3	66	0	182	177	183	139	182	180	185	-174	181	180	183	0	182	177	190	191	182	180	185
183	238	34	3.5	66.5	151	183	182	185	-139	182	180	185	168	183	181	184	0	182	177	190	-191	182	180	185
184	239	34	3.75	66.75	-151	183	182	185	-139	182	180	185	162	184	183	185	0	182	177	190	-191	182	180	185
185	240	34	4	67	151	185	183	186	139	185	182	187	168	185	184	187	0	182	177	190	151	185	182	187
186	241	34	4.5	67.5	151	186	185	188	-139	185	182	187	-168	185	184	187	0	182	177	190	-151	185	182	187
% !!pagebreak:original
187	244	35	5	68	-151	186	185	188	134	187	185	191	174	187	185	191	0	182	177	190	157	187	185	190
188	245	35	5.5	68.5	146	188	186	189	-134	187	185	191	-174	187	185	191	0	182	177	190	-157	187	185	190
189	246	35	5.75	68.75	140	189	188	190	-134	187	185	191	-174	187	185	191	0	182	177	190	-157	187	185	190
190	247	35	6	69	146	190	189	191	-134	187	185	191	-174	187	185	191	157	190	182	191	157	190	187	191
191	249	36	7	70	151	191	190	195	0	191	187	193	0	191	187	192	162	191	190	193	151	191	190	197
192	250	36	7.5	70.5	-151	191	190	195	0	191	187	193	174	192	191	193	-162	191	190	193	-151	191	190	197
193	251	36	8	71	-151	191	190	195	151	193	191	197	174	193	192	194	162	193	191	197	-151	191	190	197
194	252	36	8.25	71.25	-151	191	190	195	-151	193	191	197	168	194	193	195	-162	193	191	197	-151	191	190	197
195	253	36	8.5	71.5	111	195	191	197	-151	193	191	197	174	195	194	196	-162	193	191	197	-151	191	190	197
196	254	36	8.75	71.75	-111	195	191	197	-151	193	191	197	179	196	195	197	-162	193	191	197	-151	191	190	197
197	256	37	1	72	134	197	195	200	145	197	193	200	185	197	196	198	157	197	193	204	0	197	191	200
198	257	37	1.25	72.25	-134	197	195	200	-145	197	193	200	174	198	197	199	-157	197	193	204	0	197	191	200
199	258	37	1.5	72.5	-134	197	195	200	-145	197	193	200	185	199	198	201	-157	197	193	204	0	197	191	200
200	259	37	2	73	134	200	197	204	145	200	197	204	-185	199	198	201	-157	197	193	204	197	200	197	204
201	260	37	2.25	73.25	-134	200	197	204	-145	200	197	204	179	201	199	202	-157	197	193	204	-197	200	197	204
202	261	37	2.5	73.5	-134	200	197	204	-145	200	197	204	174	202	201	203	-157	197	193	204	-197	200	197	204
203	262	37	2.75	73.75	-134	200	197	204	-145	200	197	204	168	203	202	204	-157	197	193	204	-197	200	197	204
204	264	38	3	74	111	204	200	208	151	204	200	207	162	204	203	205	0	204	197	206	202	204	200	207
205	265	38	3.5	74.5	-111	204	200	208	-151	204	200	207	151	205	204	206	0	204	197	206	-202	204	200	207
206	266	38	4	75	-111	204	200	208	-151	204	200	207	151	206	205	207	174	206	204	208	-202	204	200	207
207	267	38	4.5	75.5	-111	204	200	208	134	207	204	208	151	207	206	208	-174	206	204	208	202	207	204	208
208	269	39	5	76	0	208	204	211	145	208	207	210	157	208	207	209	168	208	206	211	197	208	207	211
209	270	39	5.5	76.5	0	208	204	211	-145	208	207	210	145	209	208	211	-168	208	206	211	-197	208	207	211
210	271	39	5.75	76.75	0	208	204	211	151	210	208	211	-145	209	208	211	-168	208	206	211	-197	208	207	211
211	272	39	6	77	128	211	208	212	139	211	210	212	151	211	209	212	168	211	208	212	191	211	208	212
212	274	40	7	78	145	212	211	216	134	212	211	218	157	212	211	213	174	212	211	216	185	212	211	213
213	275	40	7.75	78.75	-145	212	211	216	-134	212	211	218	134	213	212	214	-174	212	211	216	191	213	212	214
214	276	40	8	79	-145	212	211	216	-134	212	211	218	134	214	213	215	-174	212	211	216	197	214	213	219
215	277	40	8.25	79.25	-145	212	211	216	-134	212	211	218	139	215	214	216	-174	212	211	216	-197	214	213	219
216	278	40	8.5	79.5	145	216	212	218	-134	212	211	218	145	216	215	217	157	216	212	218	-197	214	213	219
217	279	40	8.75	79.75	-145	216	212	218	-134	212	211	218	151	217	216	218	-157	216	212	218	-197	214	213	219
218	281	41	1	80	145	218	216	219	0	218	212	227	157	218	217	220	168	218	216	220	-197	214	213	219
219	282	41	1.5	80.5	145	219	218	221	0	218	212	227	-157	218	217	220	-168	218	216	220	197	219	214	221
220	283	41	1.75	80.75	-145	219	218	221	0	218	212	227	134	220	218	221	174	220	218	221	-197	219	214	221
221	284	41	2	81	151	221	219	223	0	218	212	227	174	221	220	223	162	221	220	223	202	221	219	222
222	285	41	2.5	81.5	-151	221	219	223	0	218	212	227	-174	221	220	223	-162	221	220	223	191	222	221	223
% !!linebreak:original
223	288	42	3	82	134	223	221	227	0	218	212	227	174	223	221	227	157	223	221	227	191	223	222	224
224	289	42	3.5	82.5	-134	223	221	227	0	218	212	227	-174	223	221	227	-157	223	221	227	186	224	223	225
225	290	42	3.75	82.75	-134	223	221	227	0	218	212	227	-174	223	221	227	-157	223	221	227	180	225	224	226
226	291	42	4	83	-134	223	221	227	0	218	212	227	-174	223	221	227	-157	223	221	227	186	226	225	227
227	293	43	5	84	0	227	223	228	151	227	218	230	0	227	223	228	0	227	223	233	191	227	226	228
228	294	43	5.5	84.5	111	228	227	229	-151	227	218	230	162	228	227	229	0	227	223	233	174	228	227	229
229	295	43	6	85	128	229	228	230	-151	227	218	230	168	229	228	230	0	227	223	233	179	229	228	230
230	297	44	7	86	128	230	229	231	151	230	227	231	168	230	229	231	0	227	223	233	179	230	229	231
231	298	44	8	87	111	231	230	232	151	231	230	233	162	231	230	235	0	227	223	233	174	231	230	232
232	299	44	8.75	87.75	117	232	231	233	-151	231	230	233	-162	231	230	235	0	227	223	233	168	232	231	233
233	301	45	1	88	122	233	232	234	145	233	231	241	-162	231	230	235	174	233	227	241	174	233	232	234
234	302	45	1.25	88.25	128	234	233	235	-145	233	231	241	-162	231	230	235	-174	233	227	241	179	234	233	235
235	303	45	1.5	88.5	134	235	234	238	-145	233	231	241	157	235	231	236	-174	233	227	241	185	235	234	238
236	304	45	1.75	88.75	-134	235	234	238	-145	233	231	241	151	236	235	237	-174	233	227	241	-185	235	234	238
237	305	45	2	89	-134	235	234	238	-145	233	231	241	157	237	236	241	-174	233	227	241	-185	235	234	238
238	306	45	2.25	89.25	139	238	235	239	-145	233	231	241	-157	237	236	241	-174	233	227	241	179	238	235	239
239	307	45	2.5	89.5	145	239	238	241	-145	233	231	241	-157	237	236	241	-174	233	227	241	174	239	238	240
240	308	45	2.75	89.75	-145	239	238	241	-145	233	231	241	-157	237	236	241	-174	233	227	241	168	240	239	241
241	310	46	3	90	151	241	239	242	0	241	233	243	151	241	237	243	174	241	233	243	162	241	240	246
242	311	46	3.5	90.5	111	242	241	243	0	241	233	243	-151	241	237	243	-174	241	233	243	-162	241	240	246
243	312	46	4	91	122	243	242	245	151	243	241	246	0	243	241	244	174	243	241	246	-162	241	240	246
244	313	46	4.5	91.5	-122	243	242	245	-151	243	241	246	134	244	243	246	-174	243	241	246	-162	241	240	246
245	314	46	4.75	91.75	117	245	243	246	-151	243	241	246	-134	244	243	246	-174	243	241	246	-162	241	240	246
246	316	47	5	92	105	246	245	248	156	246	243	249	145	246	244	247	168	246	243	251	0	246	241	247
247	317	47	5.5	92.5	-105	246	245	248	-156	246	243	249	128	247	246	248	-168	246	243	251	168	247	246	248
248	318	47	6	93	0	248	246	249	-156	246	243	249	168	248	247	250	-168	246	243	251	179	248	247	250
249	319	47	6.5	93.5	128	249	248	251	151	249	246	251	-168	248	247	250	-168	246	243	251	-179	248	247	250
250	320	47	6.75	93.75	-128	249	248	251	-151	249	246	251	162	250	248	251	-168	246	243	251	179	250	248	251
251	322	48	7	94	134	251	249	253	145	251	249	253	157	251	250	252	0	251	246	254	174	251	250	253
252	323	48	7.25	94.25	-134	251	249	253	-145	251	249	253	151	252	251	253	0	251	246	254	-174	251	250	253
253	324	48	7.5	94.5	139	253	251	254	139	253	251	254	151	253	252	256	0	251	246	254	168	253	251	255
254	325	48	8	95	145	254	253	256	134	254	253	258	-151	253	252	256	174	254	251	258	-168	253	251	255
255	326	48	8.25	95.25	-145	254	253	256	-134	254	253	258	-151	253	252	256	-174	254	251	258	163	255	253	256
256	327	48	8.5	95.5	122	256	254	258	-134	254	253	258	145	256	253	258	-174	254	251	258	163	256	255	257
257	328	48	8.75	95.75	-122	256	254	258	-134	254	253	258	-145	256	253	258	-174	254	251	258	157	257	256	258
% !!linebreak:original
258	331	49	1	96	139	258	256	259	128	258	254	266	151	258	256	259	179	258	254	263	168	258	257	261
259	332	49	1.5	96.5	145	259	258	260	-128	258	254	266	128	259	258	261	-179	258	254	263	-168	258	257	261
260	333	49	1.66667	96.6667	151	260	259	261	-128	258	254	266	-128	259	258	261	-179	258	254	263	-168	258	257	261
261	334	49	2	97	128	261	260	262	-128	258	254	266	168	261	259	265	-179	258	254	263	0	261	258	272
262	335	49	2.33333	97.3333	134	262	261	264	-128	258	254	266	-168	261	259	265	-179	258	254	263	0	261	258	272
263	336	49	2.5	97.5	-134	262	261	264	-128	258	254	266	-168	261	259	265	174	263	258	266	0	261	258	272
264	337	49	2.66667	97.6667	139	264	262	266	-128	258	254	266	-168	261	259	265	-174	263	258	266	0	261	258	272
265	338	49	2.75	97.75	-139	264	262	266	-128	258	254	266	162	265	261	266	-174	263	258	266	0	261	258	272
266	340	50	3	98	145	266	264	268	0	266	258	271	157	266	265	267	168	266	263	268	0	261	258	272
267	341	50	3.25	98.25	-145	266	264	268	0	266	258	271	151	267	266	268	-168	266	263	268	0	261	258	272
268	342	50	3.5	98.5	151	268	266	269	0	266	258	271	151	268	267	270	162	268	266	269	0	261	258	272
269	343	50	4	99	134	269	268	271	0	266	258	271	-151	268	267	270	157	269	268	271	0	261	258	272
270	344	50	4.5	99.5	-134	269	268	271	0	266	258	271	146	270	268	271	-157	269	268	271	0	261	258	272
271	346	51	5	100	0	271	269	272	151	271	266	275	151	271	270	273	151	271	269	275	0	261	258	272
272	347	51	5.5	100.5	111	272	271	273	-151	271	266	275	-151	271	270	273	-151	271	269	275	174	272	261	273
273	348	51	6	101	128	273	272	275	-151	271	266	275	0	273	271	274	-151	271	269	275	179	273	272	275
274	349	51	6.5	101.5	-128	273	272	275	-151	271	266	275	151	274	273	275	-151	271	269	275	-179	273	272	275
275	351	52	7	102	128	275	273	277	151	275	271	277	168	275	274	276	0	275	271	279	179	275	273	277
276	352	52	7.5	102.5	-128	275	273	277	-151	275	271	277	168	276	275	277	0	275	271	279	-179	275	273	277
277	353	52	8	103	111	277	275	278	151	277	275	279	162	277	276	281	0	275	271	279	174	277	275	278
278	354	52	8.75	103.75	117	278	277	279	-151	277	275	279	-162	277	276	281	0	275	271	279	168	278	277	279
279	356	53	1	104	122	279	278	280	145	279	277	287	-162	277	276	281	174	279	275	287	174	279	278	280
280	357	53	1.25	104.25	128	280	279	281	-145	279	277	287	-162	277	276	281	-174	279	275	287	179	280	279	281
281	358	53	1.5	104.5	134	281	280	284	-145	279	277	287	157	281	277	282	-174	279	275	287	185	281	280	284
282	359	53	1.75	104.75	-134	281	280	284	-145	279	277	287	151	282	281	283	-174	279	275	287	-185	281	280	284
283	360	53	2	105	-134	281	280	284	-145	279	277	287	157	283	282	287	-174	279	275	287	-185	281	280	284
284	361	53	2.25	105.25	139	284	281	285	-145	279	277	287	-157	283	282	287	-174	279	275	287	179	284	281	285
285	362	53	2.5	105.5	145	285	284	287	-145	279	277	287	-157	283	282	287	-174	279	275	287	174	285	284	286
286	363	53	2.75	105.75	-145	285	284	287	-145	279	277	287	-157	283	282	287	-174	279	275	287	168	286	285	287
287	365	54	3	106	151	287	285	288	0	287	279	289	151	287	283	289	174	287	279	289	162	287	286	292
288	366	54	3.5	106.5	111	288	287	289	0	287	279	289	-151	287	283	289	-174	287	279	289	-162	287	286	292
289	367	54	4	107	122	289	288	291	151	289	287	292	0	289	287	290	174	289	287	292	-162	287	286	292
290	368	54	4.5	107.5	-122	289	288	291	-151	289	287	292	134	290	289	292	-174	289	287	292	-162	287	286	292
291	369	54	4.75	107.75	117	291	289	292	-151	289	287	292	-134	290	289	292	-174	289	287	292	-162	287	286	292
292	371	55	5	108	105	292	291	294	156	292	289	295	145	292	290	293	168	292	289	297	0	292	287	293
293	372	55	5.5	108.5	-105	292	291	294	-156	292	289	295	128	293	292	294	-168	292	289	297	168	293	292	294
294	373	55	6	109	0	294	292	295	-156	292	289	295	168	294	293	296	-168	292	289	297	179	294	293	296
295	374	55	6.5	109.5	128	295	294	297	151	295	292	297	-168	294	293	296	-168	292	289	297	-179	294	293	296
296	375	55	6.75	109.75	-128	295	294	297	-151	295	292	297	162	296	294	297	-168	292	289	297	179	296	294	297
% !!pagebreak:original
297	378	56	7	110	134	297	295	299	145	297	295	299	157	297	296	298	0	297	292	300	174	297	296	299
298	379	56	7.25	110.25	-134	297	295	299	-145	297	295	299	151	298	297	299	0	297	292	300	-174	297	296	299
299	380	56	7.5	110.5	139	299	297	300	139	299	297	300	151	299	298	302	0	297	292	300	168	299	297	301
300	381	56	8	111	145	300	299	302	134	300	299	304	-151	299	298	302	174	300	297	304	-168	299	297	301
301	382	56	8.25	111.25	-145	300	299	302	-134	300	299	304	-151	299	298	302	-174	300	297	304	163	301	299	302
302	383	56	8.5	111.5	122	302	300	304	-134	300	299	304	145	302	299	304	-174	300	297	304	163	302	301	303
303	384	56	8.75	111.75	-122	302	300	304	-134	300	299	304	-145	302	299	304	-174	300	297	304	157	303	302	304
304	386	57	1	112	139	304	302	307	128	304	300	318	151	304	302	305	179	304	300	309	168	304	303	318
305	387	57	1.33333	112.333	-139	304	302	307	-128	304	300	318	128	305	304	306	-179	304	300	309	-168	304	303	318
306	388	57	1.66667	112.667	-139	304	302	307	-128	304	300	318	134	306	305	308	-179	304	300	309	-168	304	303	318
307	389	57	1.75	112.75	134	307	304	308	-128	304	300	318	-134	306	305	308	-179	304	300	309	-168	304	303	318
308	390	57	2	113	128	308	307	309	-128	304	300	318	139	308	306	309	-179	304	300	309	-168	304	303	318
309	391	57	2.5	113.5	122	309	308	311	-128	304	300	318	145	309	308	310	174	309	304	311	-168	304	303	318
310	392	57	2.66667	113.667	-122	309	308	311	-128	304	300	318	151	310	309	311	-174	309	304	311	-168	304	303	318
311	394	58	1	114	116	311	309	312	-128	304	300	318	128	311	310	312	168	311	309	312	-168	304	303	318
312	395	58	1.5	114.5	111	312	311	314	-128	304	300	318	134	312	311	313	162	312	311	314	-168	304	303	318
313	396	58	1.66667	114.667	-111	312	311	314	-128	304	300	318	139	313	312	314	-162	312	311	314	-168	304	303	318
314	397	58	2	115	105	314	312	317	-128	304	300	318	145	314	313	315	156	314	312	317	-168	304	303	318
315	398	58	2.33333	115.333	-105	314	312	317	-128	304	300	318	128	315	314	316	-156	314	312	317	-168	304	303	318
316	399	58	2.66667	115.667	-105	314	312	317	-128	304	300	318	145	316	315	317	-156	314	312	317	-168	304	303	318
317	401	59	1	116	128	317	314	318	-128	304	300	318	139	317	316	318	151	317	314	318	-168	304	303	318
318	403	60	1	118	0	318	317	-1	0	318	304	-1	0	318	317	-1	0	318	317	-1	0	318	304	-1
% !!!RDF**kern: l=long note in original notation
% !!!RDF**kern: i=editorial accidental
% !!!RDF**kern: V=start of tuplet marker
% !!!RDF**kern: Z=end of tuplet marker
% !!!ENC: Will Watson 30/10/2011
% !!!END: 2011/10/30/
% !!!EED: Jesse Rodin
% !!!EEV: 2012/04/22/
% !!attribution-level: 3 (other)
% !!!ONB: Translated from MusicXML and edited on 2011/12/01/ by Craig Sapp
% !!muse2ps:  C^@{COA}?\n@{SCT}^v90,90,90,90,90,120Q16
