% !!!COM:	Josquin des Prez
% !!!CDT:	~1450-1521/08/27
% !!!OTL: Credo  De tous biens playne
% !!!AGN:	Mass section; Credo
% !!!SCT:	NJE 13.2
% !!!SCA:	New Josquin Edition 13.2
% !!!voices: 4
% !!section: Factorem celi
% !!!OMD: Factorem celi
%%idx	%%line	%%bar	%%beat	%%abs	%%b40	%%attk	%%last	%%next	%%b40	%%attk	%%last	%%next	%%b40	%%attk	%%last	%%next	%%b40	%%attk	%%last	%%next	%%b40	%%attk	%%last	%%next
0	2000	3000	4000	5000	1040	7100	7200	7300	1040	7100	7200	7300	1040	7100	7200	7300	1040	7100	7200	7300	1040	7100	7200	7300
1	28	1	1	0	0	1	-1	468	134	1	-1	2	145	1	-1	10	0	1	-1	3	0	1	-1	5
2	29	1	1.5	0.5	0	1	-1	468	139	2	1	3	-145	1	-1	10	0	1	-1	3	0	1	-1	5
3	30	1	2	1	0	1	-1	468	145	3	2	5	-145	1	-1	10	134	3	1	4	0	1	-1	5
4	31	1	2.5	1.5	0	1	-1	468	-145	3	2	5	-145	1	-1	10	139	4	3	5	0	1	-1	5
5	33	2	3	2	0	1	-1	468	122	5	3	8	-145	1	-1	10	145	5	4	7	174	5	1	6
6	34	2	3.5	2.5	0	1	-1	468	-122	5	3	8	-145	1	-1	10	-145	5	4	7	179	6	5	7
7	35	2	4	3	0	1	-1	468	-122	5	3	8	-145	1	-1	10	122	7	5	10	185	7	6	10
8	36	2	4.5	3.5	0	1	-1	468	116	8	5	9	-145	1	-1	10	-122	7	5	10	-185	7	6	10
9	37	2	4.75	3.75	0	1	-1	468	111	9	8	10	-145	1	-1	10	-122	7	5	10	-185	7	6	10
10	39	3	5	4	0	1	-1	468	105	10	9	11	156	10	1	13	145	10	7	11	185	10	7	11
11	40	3	6	5	0	1	-1	468	128	11	10	12	-156	10	1	13	0	11	10	12	179	11	10	12
12	41	3	6.5	5.5	0	1	-1	468	134	12	11	13	-156	10	1	13	145	12	11	13	185	12	11	13
13	43	4	7	6	0	1	-1	468	139	13	12	14	151	13	10	18	128	13	12	14	191	13	12	14
14	44	4	7.5	6.5	0	1	-1	468	145	14	13	15	-151	13	10	18	168	14	13	16	185	14	13	17
15	45	4	8	7	0	1	-1	468	128	15	14	18	-151	13	10	18	-168	14	13	16	-185	14	13	17
16	46	4	8.25	7.25	0	1	-1	468	-128	15	14	18	-151	13	10	18	162	16	14	17	-185	14	13	17
17	47	4	8.5	7.5	0	1	-1	468	-128	15	14	18	-151	13	10	18	151	17	16	18	180	17	14	18
18	49	5	1	8	0	1	-1	468	105	18	15	21	145	18	13	19	157	18	17	19	185	18	17	21
19	50	5	2	9	0	1	-1	468	-105	18	15	21	156	19	18	21	145	19	18	20	-185	18	17	21
20	51	5	2.5	9.5	0	1	-1	468	-105	18	15	21	-156	19	18	21	145	20	19	21	-185	18	17	21
21	53	6	3	10	0	1	-1	468	145	21	18	23	156	21	19	23	145	21	20	22	0	21	18	26
22	54	6	3.5	10.5	0	1	-1	468	-145	21	18	23	-156	21	19	23	145	22	21	23	0	21	18	26
23	55	6	4	11	0	1	-1	468	139	23	21	24	162	23	21	24	151	23	22	24	0	21	18	26
% !!linebreak:default
24	58	7	5	12	0	1	-1	468	156	24	23	25	168	24	23	28	145	24	23	31	0	21	18	26
25	59	7	5.75	12.75	0	1	-1	468	151	25	24	26	-168	24	23	28	-145	24	23	31	0	21	18	26
26	60	7	6	13	0	1	-1	468	156	26	25	27	-168	24	23	28	-145	24	23	31	185	26	21	27
27	61	7	6.5	13.5	0	1	-1	468	145	27	26	28	-168	24	23	28	-145	24	23	31	185	27	26	28
28	63	8	7	14	0	1	-1	468	122	28	27	29	173	28	24	31	-145	24	23	31	185	28	27	29
29	64	8	7.5	14.5	0	1	-1	468	128	29	28	30	-173	28	24	31	-145	24	23	31	185	29	28	31
30	65	8	7.75	14.75	0	1	-1	468	134	30	29	31	-173	28	24	31	-145	24	23	31	-185	29	28	31
31	66	8	8	15	0	1	-1	468	139	31	30	32	168	31	28	33	139	31	24	33	191	31	29	33
32	67	8	8.5	15.5	0	1	-1	468	128	32	31	33	-168	31	28	33	-139	31	24	33	-191	31	29	33
33	69	9	1	16	0	1	-1	468	105	33	32	34	156	33	31	36	145	33	31	38	185	33	31	35
34	70	9	2	17	0	1	-1	468	145	34	33	36	-156	33	31	36	-145	33	31	38	-185	33	31	35
35	71	9	2.5	17.5	0	1	-1	468	-145	34	33	36	-156	33	31	36	-145	33	31	38	179	35	33	36
36	73	10	3	18	0	1	-1	468	122	36	34	37	162	36	33	37	-145	33	31	38	174	36	35	37
37	74	10	4	19	0	1	-1	468	145	37	36	38	156	37	36	38	-145	33	31	38	168	37	36	38
38	76	11	5	20	0	1	-1	468	139	38	37	39	168	38	37	40	128	38	33	40	191	38	37	39
39	77	11	6	21	0	1	-1	468	116	39	38	40	-168	38	37	40	-128	38	33	40	196	39	38	40
40	79	12	7	22	0	1	-1	468	139	40	39	41	162	40	38	41	0	40	38	56	191	40	39	42
41	80	12	8	23	0	1	-1	468	128	41	40	43	168	41	40	43	0	40	38	56	-191	40	39	42
42	81	12	8.5	23.5	0	1	-1	468	-128	41	40	43	-168	41	40	43	0	40	38	56	179	42	40	43
% !!pagebreak:default
43	84	13	1	24	0	1	-1	468	134	43	41	45	145	43	41	48	0	40	38	56	185	43	42	44
44	85	13	1.5	24.5	0	1	-1	468	-134	43	41	45	-145	43	41	48	0	40	38	56	191	44	43	46
45	86	13	1.75	24.75	0	1	-1	468	139	45	43	46	-145	43	41	48	0	40	38	56	-191	44	43	46
46	87	13	2	25	0	1	-1	468	145	46	45	47	-145	43	41	48	0	40	38	56	196	46	44	47
47	88	13	2.5	25.5	0	1	-1	468	122	47	46	48	-145	43	41	48	0	40	38	56	202	47	46	49
48	90	14	3	26	0	1	-1	468	139	48	47	51	151	48	43	54	0	40	38	56	-202	47	46	49
49	91	14	3.25	26.25	0	1	-1	468	-139	48	47	51	-151	48	43	54	0	40	38	56	196	49	47	50
50	92	14	3.5	26.5	0	1	-1	468	-139	48	47	51	-151	48	43	54	0	40	38	56	191	50	49	51
51	93	14	3.75	26.75	0	1	-1	468	134	51	48	52	-151	48	43	54	0	40	38	56	185	51	50	52
52	94	14	4	27	0	1	-1	468	128	52	51	54	-151	48	43	54	0	40	38	56	180	52	51	53
53	95	14	4.75	27.75	0	1	-1	468	-128	52	51	54	-151	48	43	54	0	40	38	56	174	53	52	54
54	97	15	5	28	0	1	-1	468	0	54	52	55	145	54	48	62	0	40	38	56	185	54	53	62
55	98	15	5.5	28.5	0	1	-1	468	105	55	54	57	-145	54	48	62	0	40	38	56	-185	54	53	62
56	99	15	6	29	0	1	-1	468	-105	55	54	57	-145	54	48	62	157	56	40	57	-185	54	53	62
57	100	15	6.5	29.5	0	1	-1	468	122	57	55	58	-145	54	48	62	162	57	56	58	-185	54	53	62
58	102	16	7	30	0	1	-1	468	116	58	57	59	-145	54	48	62	168	58	57	60	-185	54	53	62
59	103	16	7.5	30.5	0	1	-1	468	105	59	58	61	-145	54	48	62	-168	58	57	60	-185	54	53	62
60	104	16	8	31	0	1	-1	468	-105	59	58	61	-145	54	48	62	174	60	58	62	-185	54	53	62
61	105	16	8.5	31.5	0	1	-1	468	122	61	59	62	-145	54	48	62	-174	60	58	62	-185	54	53	62
62	107	17	1	32	0	1	-1	468	116	62	61	63	0	62	54	64	168	62	60	63	0	62	54	86
63	108	17	1.5	32.5	0	1	-1	468	122	63	62	64	0	62	54	64	162	63	62	64	0	62	54	86
64	109	17	2	33	0	1	-1	468	105	64	63	65	145	64	62	66	157	64	63	66	0	62	54	86
65	110	17	2.5	33.5	0	1	-1	468	145	65	64	66	-145	64	62	66	-157	64	63	66	0	62	54	86
66	112	18	3	34	0	1	-1	468	151	66	65	67	139	66	64	70	162	66	64	68	0	62	54	86
67	113	18	3.25	34.25	0	1	-1	468	145	67	66	68	-139	66	64	70	-162	66	64	68	0	62	54	86
68	114	18	3.5	34.5	0	1	-1	468	139	68	67	69	-139	66	64	70	162	68	66	70	0	62	54	86
69	115	18	3.75	34.75	0	1	-1	468	134	69	68	70	-139	66	64	70	-162	68	66	70	0	62	54	86
70	116	18	4	35	0	1	-1	468	128	70	69	71	139	70	66	71	168	70	68	72	0	62	54	86
% !!linebreak:default
71	119	19	5	36	0	1	-1	468	145	71	70	73	156	71	70	72	-168	70	68	72	0	62	54	86
72	120	19	6	37	0	1	-1	468	-145	71	70	73	156	72	71	75	174	72	70	75	0	62	54	86
73	121	19	6.5	37.5	0	1	-1	468	139	73	71	74	-156	72	71	75	-174	72	70	75	0	62	54	86
74	122	19	6.75	37.75	0	1	-1	468	145	74	73	75	-156	72	71	75	-174	72	70	75	0	62	54	86
75	124	20	7	38	0	1	-1	468	151	75	74	76	151	75	72	76	174	75	72	76	0	62	54	86
76	125	20	8	39	0	1	-1	468	128	76	75	77	168	76	75	78	179	76	75	77	0	62	54	86
77	127	21	1	40	0	1	-1	468	151	77	76	81	-168	76	75	78	174	77	76	78	0	62	54	86
78	128	21	1.5	40.5	0	1	-1	468	-151	77	76	81	163	78	76	79	174	78	77	79	0	62	54	86
79	129	21	2	41	0	1	-1	468	-151	77	76	81	163	79	78	80	174	79	78	80	0	62	54	86
80	130	21	2.5	41.5	0	1	-1	468	-151	77	76	81	157	80	79	81	174	80	79	81	0	62	54	86
81	132	22	3	42	0	1	-1	468	128	81	77	86	168	81	80	84	168	81	80	82	0	62	54	86
82	133	22	3.5	42.5	0	1	-1	468	-128	81	77	86	-168	81	80	84	179	82	81	83	0	62	54	86
83	134	22	4.25	43.25	0	1	-1	468	-128	81	77	86	-168	81	80	84	174	83	82	84	0	62	54	86
84	135	22	4.5	43.5	0	1	-1	468	-128	81	77	86	162	84	81	85	168	84	83	87	0	62	54	86
85	136	22	4.75	43.75	0	1	-1	468	-128	81	77	86	156	85	84	86	-168	84	83	87	0	62	54	86
86	138	23	5	44	0	1	-1	468	0	86	81	98	151	86	85	88	-168	84	83	87	174	86	62	87
87	139	23	5.5	44.5	0	1	-1	468	0	86	81	98	-151	86	85	88	162	87	84	88	179	87	86	88
88	140	23	6	45	0	1	-1	468	0	86	81	98	156	88	86	89	168	88	87	89	185	88	87	89
89	142	24	7	46	0	1	-1	468	0	86	81	98	162	89	88	92	0	89	88	91	174	89	88	90
90	143	24	7.5	46.5	0	1	-1	468	0	86	81	98	-162	89	88	92	0	89	88	91	179	90	89	91
91	144	24	8	47	0	1	-1	468	0	86	81	98	-162	89	88	92	174	91	89	92	185	91	90	92
% !!linebreak:default
92	147	25	1	48	0	1	-1	468	0	86	81	98	151	92	89	94	179	92	91	93	191	92	91	93
93	148	25	2	49	0	1	-1	468	0	86	81	98	-151	92	89	94	174	93	92	94	191	93	92	94
94	150	26	3	50	0	1	-1	468	0	86	81	98	145	94	92	96	0	94	93	95	196	94	93	96
95	151	26	3.5	50.5	0	1	-1	468	0	86	81	98	-145	94	92	96	174	95	94	96	-196	94	93	96
96	152	26	4	51	0	1	-1	468	0	86	81	98	139	96	94	98	162	96	95	97	191	96	94	100
97	153	26	4.5	51.5	0	1	-1	468	0	86	81	98	-139	96	94	98	168	97	96	98	-191	96	94	100
98	155	27	5	52	0	1	-1	468	111	98	86	100	134	98	96	102	174	98	97	99	-191	96	94	100
99	156	27	5.5	52.5	0	1	-1	468	-111	98	86	100	-134	98	96	102	168	99	98	101	-191	96	94	100
100	157	27	6	53	0	1	-1	468	111	100	98	101	-134	98	96	102	-168	99	98	101	191	100	96	102
101	158	27	6.5	53.5	0	1	-1	468	111	101	100	102	-134	98	96	102	163	101	99	102	-191	100	96	102
102	160	28	7	54	0	1	-1	468	116	102	101	103	128	102	98	110	168	102	101	105	179	102	100	103
103	161	28	7.5	54.5	0	1	-1	468	105	103	102	104	-128	102	98	110	-168	102	101	105	185	103	102	104
104	162	28	8	55	0	1	-1	468	99	104	103	105	-128	102	98	110	-168	102	101	105	191	104	103	105
105	163	28	8.5	55.5	0	1	-1	468	105	105	104	106	-128	102	98	110	157	105	102	106	185	105	104	107
106	165	29	1	56	0	1	-1	468	128	106	105	108	-128	102	98	110	151	106	105	108	-185	105	104	107
107	166	29	1.5	56.5	0	1	-1	468	-128	106	105	108	-128	102	98	110	-151	106	105	108	180	107	105	108
108	167	29	2	57	0	1	-1	468	105	108	106	110	-128	102	98	110	145	108	106	110	185	108	107	109
109	168	29	2.5	57.5	0	1	-1	468	-105	108	106	110	-128	102	98	110	-145	108	106	110	185	109	108	110
110	170	30	3	58	0	1	-1	468	128	110	108	112	0	110	102	112	0	110	108	117	179	110	109	111
111	171	30	3.5	58.5	0	1	-1	468	-128	110	108	112	0	110	102	112	0	110	108	117	191	111	110	113
112	172	30	4	59	0	1	-1	468	105	112	110	114	168	112	110	115	0	110	108	117	-191	111	110	113
113	173	30	4.25	59.25	0	1	-1	468	-105	112	110	114	-168	112	110	115	0	110	108	117	185	113	111	114
114	174	30	4.5	59.5	0	1	-1	468	116	114	112	115	-168	112	110	115	0	110	108	117	185	114	113	116
% !!pagebreak:default
115	177	31	5	60	0	1	-1	468	111	115	114	117	162	115	112	117	0	110	108	117	-185	114	113	116
116	178	31	5.5	60.5	0	1	-1	468	-111	115	114	117	-162	115	112	117	0	110	108	117	180	116	114	117
117	179	31	6	61	0	1	-1	468	105	117	115	119	156	117	115	118	168	117	110	118	185	117	116	118
118	181	32	7	62	0	1	-1	468	-105	117	115	119	145	118	117	120	168	118	117	119	0	118	117	130
119	182	32	8	63	0	1	-1	468	122	119	117	121	-145	118	117	120	174	119	118	123	0	118	117	130
120	184	33	1	64	0	1	-1	468	-122	119	117	121	151	120	118	125	-174	119	118	123	0	118	117	130
121	185	33	1.5	64.5	0	1	-1	468	116	121	119	122	-151	120	118	125	-174	119	118	123	0	118	117	130
122	186	33	1.75	64.75	0	1	-1	468	111	122	121	123	-151	120	118	125	-174	119	118	123	0	118	117	130
123	187	33	2	65	0	1	-1	468	128	123	122	125	-151	120	118	125	168	123	119	124	0	118	117	130
124	188	33	2.5	65.5	0	1	-1	468	-128	123	122	125	-151	120	118	125	162	124	123	125	0	118	117	130
125	190	34	3	66	0	1	-1	468	105	125	123	128	145	125	120	127	157	125	124	126	0	118	117	130
126	191	34	3.5	66.5	0	1	-1	468	-105	125	123	128	-145	125	120	127	162	126	125	127	0	118	117	130
127	192	34	4	67	0	1	-1	468	-105	125	123	128	156	127	125	131	168	127	126	129	0	118	117	130
128	193	34	4.5	67.5	0	1	-1	468	145	128	125	131	-156	127	125	131	-168	127	126	129	0	118	117	130
129	195	35	5	68	0	1	-1	468	-145	128	125	131	-156	127	125	131	168	129	127	131	0	118	117	130
130	196	35	5.5	68.5	0	1	-1	468	-145	128	125	131	-156	127	125	131	-168	129	127	131	185	130	118	131
131	197	35	6	69	0	1	-1	468	122	131	128	135	162	131	127	133	174	131	129	133	185	131	130	132
132	198	35	6.5	69.5	0	1	-1	468	-122	131	128	135	-162	131	127	133	-174	131	129	133	191	132	131	134
133	200	36	7	70	0	1	-1	468	-122	131	128	135	151	133	131	138	0	133	131	139	-191	132	131	134
134	201	36	7.25	70.25	0	1	-1	468	-122	131	128	135	-151	133	131	138	0	133	131	139	185	134	132	135
135	202	36	7.5	70.5	0	1	-1	468	128	135	131	138	-151	133	131	138	0	133	131	139	180	135	134	136
136	203	36	7.75	70.75	0	1	-1	468	-128	135	131	138	-151	133	131	138	0	133	131	139	174	136	135	137
137	204	36	8	71	0	1	-1	468	-128	135	131	138	-151	133	131	138	0	133	131	139	180	137	136	138
% !!linebreak:default
138	207	37	1	72	0	1	-1	468	105	138	135	139	145	138	133	141	0	133	131	139	185	138	137	141
139	208	37	2	73	0	1	-1	468	116	139	138	142	-145	138	133	141	168	139	133	140	-185	138	137	141
140	209	37	2.5	73.5	0	1	-1	468	-116	139	138	142	-145	138	133	141	168	140	139	141	-185	138	137	141
141	211	38	3	74	0	1	-1	468	-116	139	138	142	156	141	138	143	168	141	140	143	0	141	138	162
142	212	38	3.5	74.5	0	1	-1	468	116	142	139	143	-156	141	138	143	-168	141	140	143	0	141	138	162
143	213	38	4	75	0	1	-1	468	122	143	142	144	151	143	141	145	174	143	141	145	0	141	138	162
144	214	38	4.5	75.5	0	1	-1	468	122	144	143	145	-151	143	141	145	-174	143	141	145	0	141	138	162
145	216	39	5	76	0	1	-1	468	128	145	144	146	139	145	143	146	168	145	143	146	0	141	138	162
146	217	39	6	77	0	1	-1	468	105	146	145	147	145	146	145	148	157	146	145	147	0	141	138	162
147	219	40	7	78	0	1	-1	468	122	147	146	149	-145	146	145	148	162	147	146	149	0	141	138	162
148	220	40	7.5	78.5	0	1	-1	468	-122	147	146	149	140	148	146	149	-162	147	146	149	0	141	138	162
149	221	40	8	79	0	1	-1	468	128	149	147	151	140	149	148	150	151	149	147	151	0	141	138	162
150	222	40	8.5	79.5	0	1	-1	468	-128	149	147	151	134	150	149	151	-151	149	147	151	0	141	138	162
151	224	41	1	80	0	1	-1	468	105	151	149	152	145	151	150	159	157	151	149	152	0	141	138	162
152	225	41	1.5	80.5	0	1	-1	468	122	152	151	153	-145	151	150	159	162	152	151	153	0	141	138	162
153	226	41	2	81	0	1	-1	468	116	153	152	154	-145	151	150	159	168	153	152	155	0	141	138	162
154	227	41	2.5	81.5	0	1	-1	468	105	154	153	156	-145	151	150	159	-168	153	152	155	0	141	138	162
155	229	42	3	82	0	1	-1	468	-105	154	153	156	-145	151	150	159	157	155	153	156	0	141	138	162
156	230	42	3.5	82.5	0	1	-1	468	122	156	154	158	-145	151	150	159	162	156	155	157	0	141	138	162
157	231	42	4	83	0	1	-1	468	-122	156	154	158	-145	151	150	159	168	157	156	159	0	141	138	162
158	232	42	4.5	83.5	0	1	-1	468	117	158	156	159	-145	151	150	159	-168	157	156	159	0	141	138	162
% !!linebreak:default
159	235	43	5	84	0	1	-1	468	122	159	158	161	0	159	151	160	174	159	157	160	0	141	138	162
160	236	43	6	85	0	1	-1	468	-122	159	158	161	145	160	159	161	0	160	159	161	0	141	138	162
161	238	44	7	86	0	1	-1	468	122	161	159	162	151	161	160	162	174	161	160	162	0	141	138	162
162	239	44	8	87	0	1	-1	468	128	162	161	163	139	162	161	163	179	162	161	163	191	162	141	163
163	241	45	1	88	0	1	-1	468	105	163	162	165	145	163	162	165	174	163	162	164	196	163	162	165
164	242	45	1.5	88.5	0	1	-1	468	-105	163	162	165	-145	163	162	165	168	164	163	165	-196	163	162	165
165	243	45	2	89	0	1	-1	468	128	165	163	167	128	165	163	167	179	165	164	166	191	165	163	167
166	244	45	2.5	89.5	0	1	-1	468	-128	165	163	167	-128	165	163	167	174	166	165	167	-191	165	163	167
167	246	46	3	90	0	1	-1	468	111	167	165	171	134	167	165	171	162	167	166	168	0	167	165	168
168	247	46	3.5	90.5	0	1	-1	468	-111	167	165	171	-134	167	165	171	168	168	167	170	191	168	167	169
169	248	46	4	91	0	1	-1	468	-111	167	165	171	-134	167	165	171	-168	168	167	170	191	169	168	170
170	249	46	4.5	91.5	0	1	-1	468	-111	167	165	171	-134	167	165	171	163	170	168	171	191	170	169	171
171	251	47	5	92	0	1	-1	468	116	171	167	173	128	171	167	180	168	171	170	175	179	171	170	172
172	252	47	5.5	92.5	0	1	-1	468	-116	171	167	173	-128	171	167	180	-168	171	170	175	196	172	171	174
173	253	47	6	93	0	1	-1	468	105	173	171	176	-128	171	167	180	-168	171	170	175	-196	172	171	174
174	254	47	6.25	93.25	0	1	-1	468	-105	173	171	176	-128	171	167	180	-168	171	170	175	191	174	172	175
175	255	47	6.5	93.5	0	1	-1	468	-105	173	171	176	-128	171	167	180	157	175	171	176	185	175	174	177
176	257	48	7	94	0	1	-1	468	128	176	173	178	-128	171	167	180	151	176	175	178	-185	175	174	177
177	258	48	7.5	94.5	0	1	-1	468	-128	176	173	178	-128	171	167	180	-151	176	175	178	180	177	175	178
178	259	48	8	95	0	1	-1	468	105	178	176	180	-128	171	167	180	145	178	176	179	185	178	177	180
179	260	48	8.5	95.5	0	1	-1	468	-105	178	176	180	-128	171	167	180	157	179	178	180	-185	178	177	180
% !!pagebreak:default
180	263	49	1	96	0	1	-1	468	122	180	178	181	0	180	171	182	162	180	179	181	174	180	178	181
181	264	49	1.5	96.5	0	1	-1	468	116	181	180	182	0	180	171	182	168	181	180	183	179	181	180	182
182	265	49	2	97	0	1	-1	468	105	182	181	185	128	182	180	185	-168	181	180	183	185	182	181	185
183	266	49	2.5	97.5	0	1	-1	468	-105	182	181	185	-128	182	180	185	162	183	181	184	-185	182	181	185
184	267	49	2.75	97.75	0	1	-1	468	-105	182	181	185	-128	182	180	185	157	184	183	185	-185	182	181	185
185	269	50	3	98	0	1	-1	468	99	185	182	186	139	185	182	191	151	185	184	186	191	185	182	186
186	270	50	3.5	98.5	0	1	-1	468	139	186	185	188	-139	185	182	191	128	186	185	187	191	186	185	189
187	271	50	4	99	0	1	-1	468	-139	186	185	188	-139	185	182	191	151	187	186	190	-191	186	185	189
188	272	50	4.25	99.25	0	1	-1	468	134	188	186	189	-139	185	182	191	-151	187	186	190	-191	186	185	189
189	273	50	4.5	99.5	0	1	-1	468	128	189	188	191	-139	185	182	191	-151	187	186	190	179	189	186	191
190	274	50	4.75	99.75	0	1	-1	468	-128	189	188	191	-139	185	182	191	157	190	187	191	-179	189	186	191
191	276	51	5	100	0	1	-1	468	122	191	189	192	145	191	185	195	162	191	190	193	174	191	189	193
192	277	51	5.75	100.75	0	1	-1	468	116	192	191	193	-145	191	185	195	-162	191	190	193	-174	191	189	193
193	278	51	6	101	0	1	-1	468	105	193	192	194	-145	191	185	195	168	193	191	195	168	193	191	194
194	279	51	6.5	101.5	0	1	-1	468	116	194	193	195	-145	191	185	195	-168	193	191	195	185	194	193	195
195	281	52	7	102	0	1	-1	468	111	195	194	196	151	195	191	197	0	195	193	200	174	195	194	196
196	282	52	7.5	102.5	0	1	-1	468	151	196	195	197	-151	195	191	197	0	195	193	200	179	196	195	197
197	283	52	8	103	0	1	-1	468	145	197	196	198	156	197	195	199	0	195	193	200	185	197	196	199
198	284	52	8.5	103.5	0	1	-1	468	156	198	197	199	-156	197	195	199	0	195	193	200	-185	197	196	199
199	286	53	1	104	0	1	-1	468	151	199	198	201	162	199	197	201	0	195	193	200	174	199	197	200
200	287	53	1.5	104.5	0	1	-1	468	-151	199	198	201	-162	199	197	201	162	200	195	201	179	200	199	201
201	288	53	2	105	0	1	-1	468	145	201	199	202	168	201	199	207	156	201	200	202	185	201	200	205
202	289	53	2.5	105.5	0	1	-1	468	156	202	201	204	-168	201	199	207	145	202	201	205	-185	201	200	205
203	291	54	3	106	0	1	-1	468	-156	202	201	204	-168	201	199	207	-145	202	201	205	-185	201	200	205
204	292	54	3.25	106.25	0	1	-1	468	151	204	202	205	-168	201	199	207	-145	202	201	205	-185	201	200	205
205	293	54	3.5	106.5	0	1	-1	468	145	205	204	206	-168	201	199	207	156	205	202	208	185	205	201	207
206	294	54	3.75	106.75	0	1	-1	468	139	206	205	207	-168	201	199	207	-156	205	202	208	-185	205	201	207
207	295	54	4	107	0	1	-1	468	133	207	206	208	173	207	201	209	-156	205	202	208	185	207	205	208
208	296	54	4.5	107.5	0	1	-1	468	122	208	207	209	-173	207	201	209	162	208	205	209	185	208	207	209
% !!linebreak:default
209	299	55	5	108	0	1	-1	468	128	209	208	210	168	209	207	212	151	209	208	212	179	209	208	210
210	300	55	5.5	108.5	0	1	-1	468	134	210	209	211	-168	209	207	212	-151	209	208	212	191	210	209	213
211	301	55	5.75	108.75	0	1	-1	468	139	211	210	212	-168	209	207	212	-151	209	208	212	-191	210	209	213
212	302	55	6	109	0	1	-1	468	145	212	211	214	156	212	209	218	0	212	209	214	-191	210	209	213
213	303	55	6.25	109.25	0	1	-1	468	-145	212	211	214	-156	212	209	218	0	212	209	214	185	213	210	214
214	304	55	6.5	109.5	0	1	-1	468	105	214	212	215	-156	212	209	218	145	214	212	215	196	214	213	216
215	306	56	7	110	0	1	-1	468	145	215	214	217	-156	212	209	218	156	215	214	217	-196	214	213	216
216	307	56	7.25	110.25	0	1	-1	468	-145	215	214	217	-156	212	209	218	-156	215	214	217	202	216	214	217
217	308	56	7.5	110.5	0	1	-1	468	156	217	215	218	-156	212	209	218	145	217	215	218	208	217	216	218
218	309	56	8	111	0	1	-1	468	151	218	217	219	162	218	212	222	151	218	217	222	202	218	217	220
219	310	56	8.25	111.25	0	1	-1	468	145	219	218	220	-162	218	212	222	-151	218	217	222	-202	218	217	220
220	311	56	8.5	111.5	0	1	-1	468	139	220	219	221	-162	218	212	222	-151	218	217	222	191	220	218	223
221	312	56	8.75	111.75	0	1	-1	468	134	221	220	222	-162	218	212	222	-151	218	217	222	-191	220	218	223
222	314	57	1	112	0	1	-1	468	128	222	221	224	168	222	218	225	139	222	218	227	-191	220	218	223
223	315	57	1.25	112.25	0	1	-1	468	-128	222	221	224	-168	222	218	225	-139	222	218	227	185	223	220	224
224	316	57	1.5	112.5	0	1	-1	468	116	224	222	225	-168	222	218	225	-139	222	218	227	196	224	223	226
225	317	57	2	113	0	1	-1	468	139	225	224	231	162	225	222	229	-139	222	218	227	-196	224	223	226
226	318	57	2.25	113.25	0	1	-1	468	-139	225	224	231	-162	225	222	229	-139	222	218	227	191	226	224	227
227	319	57	2.5	113.5	0	1	-1	468	-139	225	224	231	-162	225	222	229	145	227	222	228	202	227	226	230
228	320	57	2.75	113.75	0	1	-1	468	-139	225	224	231	-162	225	222	229	151	228	227	229	-202	227	226	230
229	322	58	3	114	0	1	-1	468	-139	225	224	231	168	229	225	232	128	229	228	231	-202	227	226	230
230	323	58	3.25	114.25	0	1	-1	468	-139	225	224	231	-168	229	225	232	-128	229	228	231	196	230	227	231
231	324	58	3.5	114.5	0	1	-1	468	128	231	225	232	-168	229	225	232	168	231	229	234	196	231	230	233
232	325	58	4	115	0	1	-1	468	145	232	231	235	156	232	229	235	-168	231	229	234	-196	231	230	233
233	326	58	4.25	115.25	0	1	-1	468	-145	232	231	235	-156	232	229	235	-168	231	229	234	191	233	231	234
234	327	58	4.5	115.5	0	1	-1	468	-145	232	231	235	-156	232	229	235	156	234	231	235	185	234	233	236
235	329	59	5	116	0	1	-1	468	122	235	232	238	151	235	232	241	162	235	234	237	-185	234	233	236
236	330	59	5.25	116.25	0	1	-1	468	-122	235	232	238	-151	235	232	241	-162	235	234	237	179	236	234	237
237	331	59	5.5	116.5	0	1	-1	468	-122	235	232	238	-151	235	232	241	174	237	235	238	191	237	236	239
238	332	59	6	117	0	1	-1	468	128	238	235	241	-151	235	232	241	168	238	237	242	-191	237	236	239
239	333	59	6.25	117.25	0	1	-1	468	-128	238	235	241	-151	235	232	241	-168	238	237	242	174	239	237	240
240	334	59	6.5	117.5	0	1	-1	468	-128	238	235	241	-151	235	232	241	-168	238	237	242	180	240	239	241
241	336	60	7	118	0	1	-1	468	105	241	238	242	145	241	235	242	-168	238	237	242	185	241	240	242
% !!LO:LB:i:g=z
% !!linebreak:default
% !!section: Et incarnatus est
% !!!OMD: Et incarnatus est
242	346	61	1	120	0	1	-1	468	0	242	241	243	145	242	241	246	0	242	238	285	0	242	241	257
243	348	62	3	122	0	1	-1	468	134	243	242	244	-145	242	241	246	0	242	238	285	0	242	241	257
244	349	62	4	123	0	1	-1	468	145	244	243	245	-145	242	241	246	0	242	238	285	0	242	241	257
245	350	62	4.5	123.5	0	1	-1	468	145	245	244	246	-145	242	241	246	0	242	238	285	0	242	241	257
246	352	63	5	124	0	1	-1	468	145	246	245	247	156	246	242	249	0	242	238	285	0	242	241	257
247	353	63	5.5	124.5	0	1	-1	468	145	247	246	248	-156	246	242	249	0	242	238	285	0	242	241	257
248	354	63	6	125	0	1	-1	468	145	248	247	249	-156	246	242	249	0	242	238	285	0	242	241	257
249	356	64	7	126	0	1	-1	468	0	249	248	250	151	249	246	252	0	242	238	285	0	242	241	257
250	357	64	7.5	126.5	0	1	-1	468	139	250	249	251	-151	249	246	252	0	242	238	285	0	242	241	257
251	358	64	8.5	127.5	0	1	-1	468	128	251	250	252	-151	249	246	252	0	242	238	285	0	242	241	257
252	360	65	1	128	0	1	-1	468	134	252	251	253	145	252	249	254	0	242	238	285	0	242	241	257
253	361	65	1.5	128.5	0	1	-1	468	139	253	252	254	-145	252	249	254	0	242	238	285	0	242	241	257
254	362	65	2	129	0	1	-1	468	145	254	253	256	156	254	252	255	0	242	238	285	0	242	241	257
255	364	66	3	130	0	1	-1	468	-145	254	253	256	156	255	254	256	0	242	238	285	0	242	241	257
256	365	66	4	131	0	1	-1	468	151	256	254	257	162	256	255	257	0	242	238	285	0	242	241	257
% !!pagebreak:default
257	368	67	5	132	0	1	-1	468	0	257	256	264	168	257	256	261	0	242	238	285	191	257	242	258
258	369	67	5.5	132.5	0	1	-1	468	0	257	256	264	-168	257	256	261	0	242	238	285	196	258	257	259
259	370	67	6	133	0	1	-1	468	0	257	256	264	-168	257	256	261	0	242	238	285	191	259	258	260
260	371	67	6.5	133.5	0	1	-1	468	0	257	256	264	-168	257	256	261	0	242	238	285	179	260	259	261
261	373	68	7	134	0	1	-1	468	0	257	256	264	173	261	257	263	0	242	238	285	185	261	260	262
262	374	68	7.5	134.5	0	1	-1	468	0	257	256	264	-173	261	257	263	0	242	238	285	185	262	261	263
263	375	68	8	135	0	1	-1	468	0	257	256	264	168	263	261	264	0	242	238	285	179	263	262	264
264	377	69	1	136	0	1	-1	468	145	264	257	265	156	264	263	268	0	242	238	285	0	264	263	270
265	378	69	1.75	136.75	0	1	-1	468	139	265	264	266	-156	264	263	268	0	242	238	285	0	264	263	270
266	379	69	2	137	0	1	-1	468	145	266	265	267	-156	264	263	268	0	242	238	285	0	264	263	270
267	380	69	2.5	137.5	0	1	-1	468	156	267	266	268	-156	264	263	268	0	242	238	285	0	264	263	270
268	382	70	3	138	0	1	-1	468	151	268	267	269	162	268	264	269	0	242	238	285	0	264	263	270
269	383	70	4	139	0	1	-1	468	145	269	268	270	156	269	268	270	0	242	238	285	0	264	263	270
270	385	71	5	140	0	1	-1	468	0	270	269	273	168	270	269	272	0	242	238	285	191	270	264	271
271	386	71	6	141	0	1	-1	468	0	270	269	273	-168	270	269	272	0	242	238	285	196	271	270	272
272	388	72	7	142	0	1	-1	468	0	270	269	273	162	272	270	273	0	242	238	285	191	272	271	273
273	389	72	8	143	0	1	-1	468	128	273	270	274	168	273	272	274	0	242	238	285	179	273	272	274
% !!linebreak:default
274	392	73	1	144	0	1	-1	468	134	274	273	275	145	274	273	279	0	242	238	285	185	274	273	275
275	393	73	1.5	144.5	0	1	-1	468	145	275	274	276	-145	274	273	279	0	242	238	285	196	275	274	276
276	394	73	2.25	145.25	0	1	-1	468	139	276	275	277	-145	274	273	279	0	242	238	285	191	276	275	277
277	395	73	2.5	145.5	0	1	-1	468	134	277	276	278	-145	274	273	279	0	242	238	285	202	277	276	280
278	396	73	2.75	145.75	0	1	-1	468	128	278	277	279	-145	274	273	279	0	242	238	285	-202	277	276	280
279	398	74	3	146	0	1	-1	468	139	279	278	281	151	279	274	285	0	242	238	285	-202	277	276	280
280	399	74	3.25	146.25	0	1	-1	468	-139	279	278	281	-151	279	274	285	0	242	238	285	196	280	277	281
281	400	74	3.5	146.5	0	1	-1	468	145	281	279	283	-151	279	274	285	0	242	238	285	191	281	280	282
282	401	74	3.75	146.75	0	1	-1	468	-145	281	279	283	-151	279	274	285	0	242	238	285	185	282	281	283
283	402	74	4	147	0	1	-1	468	128	283	281	285	-151	279	274	285	0	242	238	285	180	283	282	284
284	403	74	4.75	147.75	0	1	-1	468	-128	283	281	285	-151	279	274	285	0	242	238	285	174	284	283	285
285	405	75	5	148	0	1	-1	468	105	285	283	286	145	285	279	291	168	285	242	286	185	285	284	291
286	406	75	6	149	0	1	-1	468	0	286	285	287	-145	285	279	291	174	286	285	287	-185	285	284	291
287	408	76	7	150	0	1	-1	468	145	287	286	288	-145	285	279	291	168	287	286	289	-185	285	284	291
288	409	76	7.5	150.5	0	1	-1	468	156	288	287	290	-145	285	279	291	-168	287	286	289	-185	285	284	291
289	410	76	8	151	0	1	-1	468	-156	288	287	290	-145	285	279	291	157	289	287	291	-185	285	284	291
290	411	76	8.5	151.5	0	1	-1	468	145	290	288	291	-145	285	279	291	-157	289	287	291	-185	285	284	291
291	413	77	1	152	0	1	-1	468	151	291	290	292	0	291	285	293	162	291	289	292	0	291	285	300
292	414	77	1.5	152.5	0	1	-1	468	139	292	291	293	0	291	285	293	151	292	291	293	0	291	285	300
293	415	77	2	153	0	1	-1	468	134	293	292	295	145	293	291	295	157	293	292	294	0	291	285	300
294	416	77	2.5	153.5	0	1	-1	468	-134	293	292	295	-145	293	291	295	162	294	293	295	0	291	285	300
295	418	78	3	154	0	1	-1	468	128	295	293	298	139	295	293	297	168	295	294	296	0	291	285	300
296	419	78	3.75	154.75	0	1	-1	468	-128	295	293	298	-139	295	293	297	162	296	295	297	0	291	285	300
297	420	78	4	155	0	1	-1	468	-128	295	293	298	139	297	295	298	151	297	296	298	0	291	285	300
% !!linebreak:default
298	423	79	5	156	0	1	-1	468	0	298	295	310	156	298	297	300	0	298	297	299	0	291	285	300
299	424	79	5.5	156.5	0	1	-1	468	0	298	295	310	-156	298	297	300	145	299	298	301	0	291	285	300
300	425	79	6	157	0	1	-1	468	0	298	295	310	156	300	298	304	-145	299	298	301	185	300	291	304
301	426	79	6.25	157.25	0	1	-1	468	0	298	295	310	-156	300	298	304	139	301	299	302	-185	300	291	304
302	427	79	6.5	157.5	0	1	-1	468	0	298	295	310	-156	300	298	304	134	302	301	303	-185	300	291	304
303	428	79	6.75	157.75	0	1	-1	468	0	298	295	310	-156	300	298	304	128	303	302	304	-185	300	291	304
304	430	80	7	158	0	1	-1	468	0	298	295	310	151	304	300	305	139	304	303	305	191	304	300	305
305	431	80	8	159	0	1	-1	468	0	298	295	310	168	305	304	307	145	305	304	306	185	305	304	306
306	433	81	1	160	0	1	-1	468	0	298	295	310	-168	305	304	307	151	306	305	310	174	306	305	310
307	434	81	1.5	160.5	0	1	-1	468	0	298	295	310	163	307	305	308	-151	306	305	310	-174	306	305	310
308	435	81	2	161	0	1	-1	468	0	298	295	310	163	308	307	309	-151	306	305	310	-174	306	305	310
309	436	81	2.5	161.5	0	1	-1	468	0	298	295	310	157	309	308	310	-151	306	305	310	-174	306	305	310
310	438	82	3	162	0	1	-1	468	128	310	298	312	168	310	309	314	0	310	306	321	0	310	306	311
311	439	82	3.5	162.5	0	1	-1	468	-128	310	298	312	-168	310	309	314	0	310	306	321	179	311	310	314
312	440	82	3.75	162.75	0	1	-1	468	134	312	310	313	-168	310	309	314	0	310	306	321	-179	311	310	314
313	441	82	4	163	0	1	-1	468	139	313	312	314	-168	310	309	314	0	310	306	321	-179	311	310	314
314	442	82	4.5	163.5	0	1	-1	468	145	314	313	316	162	314	310	315	0	310	306	321	168	314	311	316
315	443	82	4.75	163.75	0	1	-1	468	-145	314	313	316	156	315	314	316	0	310	306	321	-168	314	311	316
316	445	83	5	164	0	1	-1	468	122	316	314	317	151	316	315	318	0	310	306	321	174	316	314	317
317	446	83	5.5	164.5	0	1	-1	468	128	317	316	318	-151	316	315	318	0	310	306	321	179	317	316	318
318	447	83	6	165	0	1	-1	468	105	318	317	319	156	318	316	319	0	310	306	321	185	318	317	321
319	449	84	7	166	0	1	-1	468	0	319	318	320	162	319	318	323	0	310	306	321	-185	318	317	321
320	450	84	7.5	166.5	0	1	-1	468	122	320	319	321	-162	319	318	323	0	310	306	321	-185	318	317	321
321	451	84	8	167	0	1	-1	468	111	321	320	322	-162	319	318	323	174	321	310	323	191	321	318	323
322	452	84	8.5	167.5	0	1	-1	468	122	322	321	323	-162	319	318	323	-174	321	310	323	-191	321	318	323
% !!pagebreak:default
323	455	85	1	168	0	1	-1	468	99	323	322	324	151	323	319	327	179	323	321	325	0	323	321	337
324	456	85	1.75	168.75	0	1	-1	468	105	324	323	325	-151	323	319	327	-179	323	321	325	0	323	321	337
325	457	85	2	169	0	1	-1	468	111	325	324	326	-151	323	319	327	174	325	323	327	0	323	321	337
326	458	85	2.75	169.75	0	1	-1	468	116	326	325	327	-151	323	319	327	-174	325	323	327	0	323	321	337
327	460	86	3	170	0	1	-1	468	122	327	326	328	145	327	323	330	174	327	325	330	0	323	321	337
328	461	86	3.5	170.5	0	1	-1	468	128	328	327	329	-145	327	323	330	-174	327	325	330	0	323	321	337
329	462	86	3.75	170.75	0	1	-1	468	134	329	328	330	-145	327	323	330	-174	327	325	330	0	323	321	337
330	463	86	4	171	0	1	-1	468	139	330	329	331	139	330	327	332	162	330	327	331	0	323	321	337
331	464	86	4.5	171.5	0	1	-1	468	128	331	330	332	-139	330	327	332	168	331	330	332	0	323	321	337
332	466	87	5	172	0	1	-1	468	111	332	331	337	134	332	330	337	174	332	331	333	0	323	321	337
333	467	87	5.25	172.25	0	1	-1	468	-111	332	331	337	-134	332	330	337	168	333	332	334	0	323	321	337
334	468	87	5.5	172.5	0	1	-1	468	-111	332	331	337	-134	332	330	337	163	334	333	335	0	323	321	337
335	469	87	5.75	172.75	0	1	-1	468	-111	332	331	337	-134	332	330	337	157	335	334	336	0	323	321	337
336	470	87	6	173	0	1	-1	468	-111	332	331	337	-134	332	330	337	163	336	335	337	0	323	321	337
337	472	88	7	174	0	1	-1	468	128	337	332	338	128	337	332	342	168	337	336	342	191	337	323	338
338	473	88	8	175	0	1	-1	468	105	338	337	339	-128	337	332	342	-168	337	336	342	196	338	337	339
339	475	89	1	176	0	1	-1	468	0	339	338	341	-128	337	332	342	-168	337	336	342	191	339	338	340
340	476	89	2	177	0	1	-1	468	0	339	338	341	-128	337	332	342	-168	337	336	342	191	340	339	342
341	477	89	2.5	177.5	0	1	-1	468	128	341	339	343	-128	337	332	342	-168	337	336	342	-191	340	339	342
342	479	90	3	178	0	1	-1	468	-128	341	339	343	0	342	337	344	0	342	337	348	179	342	340	343
343	480	90	3.5	178.5	0	1	-1	468	105	343	341	344	0	342	337	344	0	342	337	348	185	343	342	344
344	481	90	4	179	0	1	-1	468	128	344	343	345	168	344	342	346	0	342	337	348	191	344	343	345
345	482	90	4.5	179.5	0	1	-1	468	116	345	344	346	-168	344	342	346	0	342	337	348	185	345	344	347
% !!linebreak:default
346	485	91	5	180	0	1	-1	468	111	346	345	348	162	346	344	348	0	342	337	348	-185	345	344	347
347	486	91	5.5	180.5	0	1	-1	468	-111	346	345	348	-162	346	344	348	0	342	337	348	180	347	345	348
348	487	91	6	181	0	1	-1	468	105	348	346	349	156	348	346	349	168	348	342	349	185	348	347	349
349	489	92	7	182	0	1	-1	468	0	349	348	356	145	349	348	353	168	349	348	350	0	349	348	370
350	490	92	7.5	182.5	0	1	-1	468	0	349	348	356	-145	349	348	353	174	350	349	351	0	349	348	370
351	491	92	8	183	0	1	-1	468	0	349	348	356	-145	349	348	353	168	351	350	352	0	349	348	370
352	492	92	8.5	183.5	0	1	-1	468	0	349	348	356	-145	349	348	353	157	352	351	353	0	349	348	370
353	494	93	1	184	0	1	-1	468	0	349	348	356	151	353	349	356	0	353	352	354	0	349	348	370
354	495	93	1.5	184.5	0	1	-1	468	0	349	348	356	-151	353	349	356	162	354	353	355	0	349	348	370
355	496	93	2.5	185.5	0	1	-1	468	0	349	348	356	-151	353	349	356	151	355	354	356	0	349	348	370
356	498	94	3	186	0	1	-1	468	145	356	349	359	145	356	353	358	157	356	355	357	0	349	348	370
357	499	94	3.5	186.5	0	1	-1	468	-145	356	349	359	-145	356	353	358	162	357	356	358	0	349	348	370
358	500	94	4	187	0	1	-1	468	-145	356	349	359	156	358	356	363	168	358	357	363	0	349	348	370
359	501	94	4.5	187.5	0	1	-1	468	139	359	356	360	-156	358	356	363	-168	358	357	363	0	349	348	370
360	502	94	4.75	187.75	0	1	-1	468	134	360	359	361	-156	358	356	363	-168	358	357	363	0	349	348	370
361	504	95	5	188	0	1	-1	468	128	361	360	362	-156	358	356	363	-168	358	357	363	0	349	348	370
362	505	95	5.5	188.5	0	1	-1	468	145	362	361	363	-156	358	356	363	-168	358	357	363	0	349	348	370
363	506	95	6	189	0	1	-1	468	122	363	362	364	162	363	358	366	174	363	358	366	0	349	348	370
364	507	95	6.5	189.5	0	1	-1	468	128	364	363	365	-162	363	358	366	-174	363	358	366	0	349	348	370
365	508	95	6.75	189.75	0	1	-1	468	134	365	364	366	-162	363	358	366	-174	363	358	366	0	349	348	370
366	510	96	7	190	0	1	-1	468	139	366	365	367	151	366	363	371	0	366	363	384	0	349	348	370
367	511	96	7.25	190.25	0	1	-1	468	134	367	366	368	-151	366	363	371	0	366	363	384	0	349	348	370
368	512	96	7.5	190.5	0	1	-1	468	128	368	367	369	-151	366	363	371	0	366	363	384	0	349	348	370
369	513	96	7.75	190.75	0	1	-1	468	122	369	368	370	-151	366	363	371	0	366	363	384	0	349	348	370
370	514	96	8	191	0	1	-1	468	128	370	369	371	-151	366	363	371	0	366	363	384	191	370	349	371
% !!linebreak:default
371	517	97	1	192	0	1	-1	468	0	371	370	384	145	371	366	374	0	366	363	384	196	371	370	372
372	518	97	2.5	193.5	0	1	-1	468	0	371	370	384	-145	371	366	374	0	366	363	384	191	372	371	373
373	519	97	2.75	193.75	0	1	-1	468	0	371	370	384	-145	371	366	374	0	366	363	384	185	373	372	374
374	521	98	3	194	0	1	-1	468	0	371	370	384	156	374	371	376	0	366	363	384	179	374	373	375
375	522	98	3.5	194.5	0	1	-1	468	0	371	370	384	-156	374	371	376	0	366	363	384	185	375	374	376
376	523	98	4	195	0	1	-1	468	0	371	370	384	151	376	374	377	0	366	363	384	191	376	375	378
377	525	99	5	196	0	1	-1	468	0	371	370	384	139	377	376	378	0	366	363	384	-191	376	375	378
378	526	99	6	197	0	1	-1	468	0	371	370	384	145	378	377	380	0	366	363	384	196	378	376	380
379	528	100	7	198	0	1	-1	468	0	371	370	384	-145	378	377	380	0	366	363	384	-196	378	376	380
380	529	100	7.5	198.5	0	1	-1	468	0	371	370	384	140	380	378	382	0	366	363	384	191	380	378	381
381	530	100	7.75	198.75	0	1	-1	468	0	371	370	384	-140	380	378	382	0	366	363	384	185	381	380	382
382	531	100	8	199	0	1	-1	468	0	371	370	384	140	382	380	383	0	366	363	384	191	382	381	384
383	532	100	8.5	199.5	0	1	-1	468	0	371	370	384	134	383	382	384	0	366	363	384	-191	382	381	384
384	534	101	1	200	0	1	-1	468	105	384	371	392	145	384	383	392	157	384	366	385	185	384	382	386
385	535	101	1.5	200.5	0	1	-1	468	-105	384	371	392	-145	384	383	392	162	385	384	386	-185	384	382	386
386	536	101	2	201	0	1	-1	468	-105	384	371	392	-145	384	383	392	168	386	385	388	0	386	384	387
387	537	101	2.5	201.5	0	1	-1	468	-105	384	371	392	-145	384	383	392	-168	386	385	388	185	387	386	389
388	539	102	3	202	0	1	-1	468	-105	384	371	392	-145	384	383	392	157	388	386	389	-185	387	386	389
389	540	102	3.5	202.5	0	1	-1	468	-105	384	371	392	-145	384	383	392	162	389	388	391	179	389	387	390
390	541	102	3.75	202.75	0	1	-1	468	-105	384	371	392	-145	384	383	392	-162	389	388	391	174	390	389	391
391	542	102	4	203	0	1	-1	468	-105	384	371	392	-145	384	383	392	168	391	389	392	168	391	390	392
% !!pagebreak:default
392	545	103	5	204	0	1	-1	468	122	392	384	394	0	392	384	393	174	392	391	393	162	392	391	394
393	546	103	6	205	0	1	-1	468	-122	392	384	394	145	393	392	394	0	393	392	394	-162	392	391	394
394	548	104	7	206	0	1	-1	468	0	394	392	408	151	394	393	395	174	394	393	395	0	394	392	395
395	549	104	8	207	0	1	-1	468	0	394	392	408	139	395	394	396	179	395	394	396	191	395	394	396
396	551	105	1	208	0	1	-1	468	0	394	392	408	145	396	395	398	174	396	395	397	196	396	395	398
397	552	105	1.5	208.5	0	1	-1	468	0	394	392	408	-145	396	395	398	168	397	396	398	-196	396	395	398
398	553	105	2	209	0	1	-1	468	0	394	392	408	128	398	396	400	179	398	397	399	191	398	396	400
399	554	105	2.75	209.75	0	1	-1	468	0	394	392	408	-128	398	396	400	174	399	398	400	-191	398	396	400
400	556	106	3	210	0	1	-1	468	0	394	392	408	134	400	398	404	162	400	399	401	185	400	398	401
401	557	106	3.5	210.5	0	1	-1	468	0	394	392	408	-134	400	398	404	168	401	400	402	196	401	400	402
402	558	106	4.5	211.5	0	1	-1	468	0	394	392	408	-134	400	398	404	162	402	401	404	191	402	401	403
403	559	106	4.75	211.75	0	1	-1	468	0	394	392	408	-134	400	398	404	-162	402	401	404	185	403	402	404
404	561	107	5	212	0	1	-1	468	0	394	392	408	128	404	400	412	168	404	402	405	179	404	403	405
405	562	107	5.5	212.5	0	1	-1	468	0	394	392	408	-128	404	400	412	157	405	404	406	185	405	404	407
406	563	107	6	213	0	1	-1	468	0	394	392	408	-128	404	400	412	151	406	405	408	-185	405	404	407
407	564	107	6.5	213.5	0	1	-1	468	0	394	392	408	-128	404	400	412	-151	406	405	408	180	407	405	408
408	566	108	7	214	0	1	-1	468	105	408	394	410	-128	404	400	412	0	408	406	409	185	408	407	410
409	567	108	7.5	214.5	0	1	-1	468	-105	408	394	410	-128	404	400	412	145	409	408	410	-185	408	407	410
410	568	108	8	215	0	1	-1	468	105	410	408	411	-128	404	400	412	157	410	409	411	0	410	408	411
411	569	108	8.5	215.5	0	1	-1	468	105	411	410	412	-128	404	400	412	157	411	410	412	185	411	410	412
% !!linebreak:default
412	572	109	1	216	0	1	-1	468	105	412	411	413	0	412	404	414	145	412	411	413	185	412	411	413
413	573	109	1.5	216.5	0	1	-1	468	105	413	412	414	0	412	404	414	145	413	412	414	185	413	412	414
414	574	109	2	217	0	1	-1	468	105	414	413	415	128	414	412	416	157	414	413	415	185	414	413	415
415	575	109	2.5	217.5	0	1	-1	468	105	415	414	416	-128	414	412	416	157	415	414	416	185	415	414	416
416	577	110	3	218	0	1	-1	468	128	416	415	418	139	416	414	420	151	416	415	418	179	416	415	417
417	578	110	3.5	218.5	0	1	-1	468	-128	416	415	418	-139	416	414	420	-151	416	415	418	185	417	416	418
418	579	110	4	219	0	1	-1	468	0	418	416	419	-139	416	414	420	128	418	416	420	191	418	417	419
419	580	110	4.5	219.5	0	1	-1	468	128	419	418	420	-139	416	414	420	-128	418	416	420	191	419	418	420
420	582	111	5	220	0	1	-1	468	134	420	419	423	145	420	416	425	0	420	418	421	185	420	419	422
421	583	111	5.5	220.5	0	1	-1	468	-134	420	419	423	-145	420	416	425	145	421	420	423	-185	420	419	422
422	584	111	5.75	220.75	0	1	-1	468	-134	420	419	423	-145	420	416	425	-145	421	420	423	179	422	420	423
423	585	111	6	221	0	1	-1	468	145	423	420	425	-145	420	416	425	122	423	421	424	174	423	422	424
424	586	111	6.5	221.5	0	1	-1	468	-145	423	420	425	-145	420	416	425	145	424	423	425	168	424	423	425
425	588	112	7	222	0	1	-1	468	128	425	423	426	151	425	420	427	139	425	424	426	179	425	424	427
426	589	112	7.5	222.5	0	1	-1	468	128	426	425	427	-151	425	420	427	151	426	425	427	-179	425	424	427
427	590	112	8	223	0	1	-1	468	145	427	426	429	156	427	425	429	145	427	426	428	185	427	425	429
428	591	112	8.5	223.5	0	1	-1	468	-145	427	426	429	-156	427	425	429	156	428	427	429	-185	427	425	429
429	593	113	1	224	0	1	-1	468	139	429	427	430	162	429	427	430	151	429	428	430	191	429	427	430
430	594	113	2	225	0	1	-1	468	128	430	429	432	168	430	429	434	0	430	429	431	0	430	429	431
431	595	113	2.5	225.5	0	1	-1	468	-128	430	429	432	-168	430	429	434	139	431	430	432	191	431	430	432
432	597	114	3	226	0	1	-1	468	0	432	430	433	-168	430	429	434	145	432	431	433	196	432	431	433
433	598	114	3.5	226.5	0	1	-1	468	128	433	432	434	-168	430	429	434	151	433	432	434	191	433	432	435
434	599	114	4	227	0	1	-1	468	122	434	433	436	173	434	430	438	162	434	433	437	-191	433	432	435
435	600	114	4.25	227.25	0	1	-1	468	-122	434	433	436	-173	434	430	438	-162	434	433	437	185	435	433	436
436	601	114	4.5	227.5	0	1	-1	468	122	436	434	438	-173	434	430	438	-162	434	433	437	185	436	435	439
437	602	114	4.75	227.75	0	1	-1	468	-122	436	434	438	-173	434	430	438	156	437	434	438	-185	436	435	439
% !!linebreak:default
438	605	115	5	228	0	1	-1	468	128	438	436	439	168	438	434	440	151	438	437	440	-185	436	435	439
439	606	115	5.5	228.5	0	1	-1	468	128	439	438	440	-168	438	434	440	-151	438	437	440	180	439	436	440
440	607	115	6	229	0	1	-1	468	105	440	439	441	156	440	438	444	145	440	438	442	185	440	439	444
441	608	115	6.5	229.5	0	1	-1	468	145	441	440	443	-156	440	438	444	-145	440	438	442	-185	440	439	444
442	610	116	7	230	0	1	-1	468	-145	441	440	443	-156	440	438	444	0	442	440	443	-185	440	439	444
443	611	116	7.5	230.5	0	1	-1	468	156	443	441	444	-156	440	438	444	168	443	442	444	-185	440	439	444
444	612	116	8	231	0	1	-1	468	151	444	443	446	162	444	440	446	162	444	443	445	174	444	440	445
445	613	116	8.5	231.5	0	1	-1	468	-151	444	443	446	-162	444	440	446	151	445	444	446	179	445	444	446
446	615	117	1	232	0	1	-1	468	145	446	444	448	168	446	444	449	157	446	445	449	185	446	445	447
447	616	117	1.66667	232.667	0	1	-1	468	-145	446	444	448	-168	446	444	449	-157	446	445	449	185	447	446	450
448	617	117	1.75	232.75	0	1	-1	468	139	448	446	449	-168	446	444	449	-157	446	445	449	-185	447	446	450
449	618	117	2	233	0	1	-1	468	134	449	448	451	162	449	446	451	145	449	446	451	-185	447	446	450
450	619	117	2.33333	233.333	0	1	-1	468	-134	449	448	451	-162	449	446	451	-145	449	446	451	185	450	447	451
451	621	118	3	234	0	1	-1	468	128	451	449	454	168	451	449	454	151	451	449	452	179	451	450	453
452	622	118	3.5	234.5	0	1	-1	468	-128	451	449	454	-168	451	449	454	128	452	451	454	-179	451	450	453
453	623	118	3.66667	234.667	0	1	-1	468	-128	451	449	454	-168	451	449	454	-128	452	451	454	196	453	451	455
454	624	118	4	235	0	1	-1	468	105	454	451	456	156	454	451	456	168	454	452	458	-196	453	451	455
455	625	118	4.66667	235.667	0	1	-1	468	-105	454	451	456	-156	454	451	456	-168	454	452	458	191	455	453	456
456	627	119	5	236	0	1	-1	468	128	456	454	461	151	456	454	461	-168	454	452	458	179	456	455	457
457	628	119	5.66667	236.667	0	1	-1	468	-128	456	454	461	-151	456	454	461	-168	454	452	458	185	457	456	459
458	629	119	6	237	0	1	-1	468	-128	456	454	461	-151	456	454	461	168	458	454	460	-185	457	456	459
459	630	119	6.33333	237.333	0	1	-1	468	-128	456	454	461	-151	456	454	461	-168	458	454	460	180	459	457	461
460	631	119	6.75	237.75	0	1	-1	468	-128	456	454	461	-151	456	454	461	162	460	458	461	-180	459	457	461
461	633	120	7	238	0	1	-1	468	105	461	456	466	145	461	456	466	168	461	460	462	185	461	459	466
462	634	120	7.5	238.5	0	1	-1	468	-105	461	456	466	-145	461	456	466	174	462	461	463	-185	461	459	466
463	635	120	8	239	0	1	-1	468	-105	461	456	466	-145	461	456	466	157	463	462	464	-185	461	459	466
464	636	120	8.5	239.5	0	1	-1	468	-105	461	456	466	-145	461	456	466	162	464	463	465	-185	461	459	466
% !!pagebreak:default
465	639	121	1	240	0	1	-1	468	-105	461	456	466	-145	461	456	466	168	465	464	466	-185	461	459	466
% !!LO:LB:i:g=z
% !!section: Et in spiritum
% !!!OMD: Et in spiritum
466	649	122	3	242	0	1	-1	468	134	466	461	467	0	466	461	573	0	466	465	573	0	466	461	595
467	650	122	4	243	0	1	-1	468	139	467	466	468	0	466	461	573	0	466	465	573	0	466	461	595
468	652	123	5	244	134	468	1	470	145	468	467	469	0	466	461	573	0	466	465	573	0	466	461	595
469	653	123	5.75	244.75	-134	468	1	470	139	469	468	470	0	466	461	573	0	466	465	573	0	466	461	595
470	654	123	6	245	139	470	468	471	128	470	469	471	0	466	461	573	0	466	465	573	0	466	461	595
471	656	124	7	246	145	471	470	473	105	471	470	472	0	466	461	573	0	466	465	573	0	466	461	595
472	657	124	7.5	246.5	-145	471	470	473	145	472	471	474	0	466	461	573	0	466	465	573	0	466	461	595
473	658	124	7.75	246.75	139	473	471	474	-145	472	471	474	0	466	461	573	0	466	465	573	0	466	461	595
474	659	124	8	247	128	474	473	476	151	474	472	475	0	466	461	573	0	466	465	573	0	466	461	595
475	660	124	8.5	247.5	-128	474	473	476	156	475	474	477	0	466	461	573	0	466	465	573	0	466	461	595
476	662	125	1	248	105	476	474	478	-156	475	474	477	0	466	461	573	0	466	465	573	0	466	461	595
477	663	125	1.25	248.25	-105	476	474	478	151	477	475	478	0	466	461	573	0	466	465	573	0	466	461	595
478	664	125	1.5	248.5	145	478	476	479	145	478	477	479	0	466	461	573	0	466	465	573	0	466	461	595
479	665	125	2	249	151	479	478	480	139	479	478	480	0	466	461	573	0	466	465	573	0	466	461	595
480	666	125	2.5	249.5	156	480	479	482	128	480	479	481	0	466	461	573	0	466	465	573	0	466	461	595
481	668	126	3	250	-156	480	479	482	134	481	480	484	0	466	461	573	0	466	465	573	0	466	461	595
482	669	126	3.25	250.25	151	482	480	483	-134	481	480	484	0	466	461	573	0	466	465	573	0	466	461	595
483	670	126	3.5	250.5	145	483	482	484	-134	481	480	484	0	466	461	573	0	466	465	573	0	466	461	595
484	671	126	4	251	139	484	483	485	128	484	481	486	0	466	461	573	0	466	465	573	0	466	461	595
485	672	126	4.5	251.5	128	485	484	486	-128	484	481	486	0	466	461	573	0	466	465	573	0	466	461	595
% !!linebreak:default
486	675	127	5	252	134	486	485	488	0	486	484	487	0	466	461	573	0	466	465	573	0	466	461	595
487	676	127	5.5	252.5	-134	486	485	488	145	487	486	488	0	466	461	573	0	466	465	573	0	466	461	595
488	677	127	6	253	128	488	486	490	151	488	487	489	0	466	461	573	0	466	465	573	0	466	461	595
489	678	127	6.5	253.5	-128	488	486	490	156	489	488	491	0	466	461	573	0	466	465	573	0	466	461	595
490	680	128	7	254	0	490	488	492	-156	489	488	491	0	466	461	573	0	466	465	573	0	466	461	595
491	681	128	7.25	254.25	0	490	488	492	151	491	489	492	0	466	461	573	0	466	465	573	0	466	461	595
492	682	128	7.5	254.5	145	492	490	493	145	492	491	493	0	466	461	573	0	466	465	573	0	466	461	595
493	683	128	8	255	151	493	492	494	139	493	492	494	0	466	461	573	0	466	465	573	0	466	461	595
494	684	128	8.5	255.5	156	494	493	496	145	494	493	496	0	466	461	573	0	466	465	573	0	466	461	595
495	686	129	1	256	-156	494	493	496	-145	494	493	496	0	466	461	573	0	466	465	573	0	466	461	595
496	687	129	1.25	256.25	151	496	494	497	151	496	494	497	0	466	461	573	0	466	465	573	0	466	461	595
497	688	129	1.5	256.5	145	497	496	499	156	497	496	498	0	466	461	573	0	466	465	573	0	466	461	595
498	689	129	1.75	256.75	-145	497	496	499	162	498	497	499	0	466	461	573	0	466	465	573	0	466	461	595
499	690	129	2	257	139	499	497	500	151	499	498	500	0	466	461	573	0	466	465	573	0	466	461	595
500	691	129	2.5	257.5	145	500	499	502	156	500	499	502	0	466	461	573	0	466	465	573	0	466	461	595
501	693	130	3	258	-145	500	499	502	-156	500	499	502	0	466	461	573	0	466	465	573	0	466	461	595
502	694	130	3.25	258.25	151	502	500	503	151	502	500	503	0	466	461	573	0	466	465	573	0	466	461	595
503	695	130	3.5	258.5	156	503	502	504	145	503	502	505	0	466	461	573	0	466	465	573	0	466	461	595
504	696	130	3.75	258.75	162	504	503	505	-145	503	502	505	0	466	461	573	0	466	465	573	0	466	461	595
505	697	130	4	259	151	505	504	506	139	505	503	506	0	466	461	573	0	466	465	573	0	466	461	595
506	698	130	4.5	259.5	156	506	505	508	128	506	505	507	0	466	461	573	0	466	465	573	0	466	461	595
507	700	131	5	260	-156	506	505	508	145	507	506	509	0	466	461	573	0	466	465	573	0	466	461	595
508	701	131	5.25	260.25	151	508	506	509	-145	507	506	509	0	466	461	573	0	466	465	573	0	466	461	595
509	702	131	5.5	260.5	145	509	508	510	156	509	507	510	0	466	461	573	0	466	465	573	0	466	461	595
510	703	131	6	261	139	510	509	511	151	510	509	512	0	466	461	573	0	466	465	573	0	466	461	595
511	704	131	6.5	261.5	128	511	510	512	-151	510	509	512	0	466	461	573	0	466	465	573	0	466	461	595
512	706	132	7	262	145	512	511	513	145	512	510	514	0	466	461	573	0	466	465	573	0	466	461	595
513	707	132	7.5	262.5	156	513	512	514	-145	512	510	514	0	466	461	573	0	466	465	573	0	466	461	595
514	708	132	8	263	151	514	513	515	0	514	512	515	0	466	461	573	0	466	465	573	0	466	461	595
% !!linebreak:default
515	711	133	1	264	145	515	514	517	134	515	514	516	0	466	461	573	0	466	465	573	0	466	461	595
516	712	133	1.5	264.5	-145	515	514	517	139	516	515	517	0	466	461	573	0	466	465	573	0	466	461	595
517	713	133	2	265	0	517	515	519	145	517	516	518	0	466	461	573	0	466	465	573	0	466	461	595
518	714	133	2.5	265.5	0	517	515	519	145	518	517	519	0	466	461	573	0	466	465	573	0	466	461	595
519	716	134	3	266	134	519	517	520	145	519	518	520	0	466	461	573	0	466	465	573	0	466	461	595
520	717	134	3.5	266.5	139	520	519	521	151	520	519	521	0	466	461	573	0	466	465	573	0	466	461	595
521	718	134	4	267	145	521	520	522	156	521	520	523	0	466	461	573	0	466	465	573	0	466	461	595
522	719	134	4.5	267.5	145	522	521	524	-156	521	520	523	0	466	461	573	0	466	465	573	0	466	461	595
523	720	134	4.75	267.75	-145	522	521	524	151	523	521	524	0	466	461	573	0	466	465	573	0	466	461	595
524	722	135	5	268	145	524	522	525	145	524	523	525	0	466	461	573	0	466	465	573	0	466	461	595
525	723	135	5.5	268.5	151	525	524	526	139	525	524	526	0	466	461	573	0	466	465	573	0	466	461	595
526	724	135	6	269	156	526	525	528	145	526	525	527	0	466	461	573	0	466	465	573	0	466	461	595
527	725	135	6.5	269.5	-156	526	525	528	168	527	526	530	0	466	461	573	0	466	465	573	0	466	461	595
528	726	135	6.75	269.75	151	528	526	529	-168	527	526	530	0	466	461	573	0	466	465	573	0	466	461	595
529	728	136	7	270	145	529	528	531	-168	527	526	530	0	466	461	573	0	466	465	573	0	466	461	595
530	729	136	7.25	270.25	-145	529	528	531	162	530	527	531	0	466	461	573	0	466	465	573	0	466	461	595
531	730	136	7.5	270.5	139	531	529	532	151	531	530	532	0	466	461	573	0	466	465	573	0	466	461	595
532	731	136	8	271	145	532	531	533	145	532	531	533	0	466	461	573	0	466	465	573	0	466	461	595
533	732	136	8.5	271.5	168	533	532	535	156	533	532	535	0	466	461	573	0	466	465	573	0	466	461	595
534	734	137	1	272	-168	533	532	535	-156	533	532	535	0	466	461	573	0	466	465	573	0	466	461	595
535	735	137	1.25	272.25	162	535	533	536	151	535	533	536	0	466	461	573	0	466	465	573	0	466	461	595
536	736	137	1.5	272.5	151	536	535	537	139	536	535	537	0	466	461	573	0	466	465	573	0	466	461	595
537	737	137	2	273	145	537	536	538	145	537	536	539	0	466	461	573	0	466	465	573	0	466	461	595
538	738	137	2.5	273.5	156	538	537	541	-145	537	536	539	0	466	461	573	0	466	465	573	0	466	461	595
539	739	137	2.75	273.75	-156	538	537	541	139	539	537	540	0	466	461	573	0	466	465	573	0	466	461	595
540	741	138	3	274	-156	538	537	541	128	540	539	542	0	466	461	573	0	466	465	573	0	466	461	595
541	742	138	3.25	274.25	151	541	538	542	-128	540	539	542	0	466	461	573	0	466	465	573	0	466	461	595
542	743	138	3.5	274.5	139	542	541	543	151	542	540	543	0	466	461	573	0	466	465	573	0	466	461	595
543	744	138	4	275	145	543	542	545	156	543	542	544	0	466	461	573	0	466	465	573	0	466	461	595
544	745	138	4.5	275.5	-145	543	542	545	162	544	543	546	0	466	461	573	0	466	465	573	0	466	461	595
545	746	138	4.75	275.75	139	545	543	546	-162	544	543	546	0	466	461	573	0	466	465	573	0	466	461	595
% !!pagebreak:default
546	749	139	5	276	128	546	545	547	168	546	544	548	0	466	461	573	0	466	465	573	0	466	461	595
547	750	139	5.5	276.5	151	547	546	549	-168	546	544	548	0	466	461	573	0	466	465	573	0	466	461	595
548	751	139	5.75	276.75	-151	547	546	549	162	548	546	549	0	466	461	573	0	466	465	573	0	466	461	595
549	752	139	6	277	156	549	547	550	156	549	548	550	0	466	461	573	0	466	465	573	0	466	461	595
550	753	139	6.5	277.5	162	550	549	551	151	550	549	551	0	466	461	573	0	466	465	573	0	466	461	595
551	755	140	7	278	168	551	550	553	156	551	550	552	0	466	461	573	0	466	465	573	0	466	461	595
552	756	140	7.5	278.5	-168	551	550	553	145	552	551	555	0	466	461	573	0	466	465	573	0	466	461	595
553	757	140	7.75	278.75	162	553	551	554	-145	552	551	555	0	466	461	573	0	466	465	573	0	466	461	595
554	758	140	8	279	156	554	553	555	-145	552	551	555	0	466	461	573	0	466	465	573	0	466	461	595
555	759	140	8.5	279.5	151	555	554	556	139	555	552	556	0	466	461	573	0	466	465	573	0	466	461	595
556	761	141	1	280	156	556	555	557	145	556	555	557	0	466	461	573	0	466	465	573	0	466	461	595
557	762	141	1.5	280.5	145	557	556	559	156	557	556	558	0	466	461	573	0	466	465	573	0	466	461	595
558	763	141	2	281	-145	557	556	559	151	558	557	560	0	466	461	573	0	466	465	573	0	466	461	595
559	764	141	2.5	281.5	139	559	557	561	-151	558	557	560	0	466	461	573	0	466	465	573	0	466	461	595
560	765	141	2.75	281.75	-139	559	557	561	145	560	558	561	0	466	461	573	0	466	465	573	0	466	461	595
561	767	142	3	282	145	561	559	563	134	561	560	562	0	466	461	573	0	466	465	573	0	466	461	595
562	768	142	3.25	282.25	-145	561	559	563	128	562	561	563	0	466	461	573	0	466	465	573	0	466	461	595
563	769	142	3.5	282.5	156	563	561	564	145	563	562	565	0	466	461	573	0	466	465	573	0	466	461	595
564	770	142	4	283	151	564	563	566	-145	563	562	565	0	466	461	573	0	466	465	573	0	466	461	595
565	771	142	4.5	283.5	-151	564	563	566	139	565	563	567	0	466	461	573	0	466	465	573	0	466	461	595
566	772	142	4.75	283.75	145	566	564	567	-139	565	563	567	0	466	461	573	0	466	465	573	0	466	461	595
567	774	143	5	284	134	567	566	568	145	567	565	569	0	466	461	573	0	466	465	573	0	466	461	595
568	775	143	5.25	284.25	128	568	567	569	-145	567	565	569	0	466	461	573	0	466	465	573	0	466	461	595
569	776	143	5.5	284.5	145	569	568	571	156	569	567	570	0	466	461	573	0	466	465	573	0	466	461	595
570	777	143	6	285	-145	569	568	571	151	570	569	572	0	466	461	573	0	466	465	573	0	466	461	595
571	778	143	6.5	285.5	140	571	569	572	-151	570	569	572	0	466	461	573	0	466	465	573	0	466	461	595
572	780	144	7	286	145	572	571	573	145	572	570	573	0	466	461	573	0	466	465	573	0	466	461	595
% !!LO:LB:i:g=z
% !!linebreak:default
% !!section: Qui cum patre
% !!!OMD: Qui cum patre
573	790	145	1	288	0	573	572	-1	0	573	572	576	145	573	466	578	157	573	466	574	0	466	461	595
574	791	145	1.5	288.5	0	573	572	-1	0	573	572	576	-145	573	466	578	162	574	573	575	0	466	461	595
575	792	145	2	289	0	573	572	-1	0	573	572	576	-145	573	466	578	168	575	574	576	0	466	461	595
576	794	146	3	290	0	573	572	-1	105	576	573	577	-145	573	466	578	168	576	575	577	0	466	461	595
577	795	146	4	291	0	573	572	-1	122	577	576	578	-145	573	466	578	174	577	576	578	0	466	461	595
578	797	147	5	292	0	573	572	-1	116	578	577	580	156	578	573	582	168	578	577	579	0	466	461	595
579	798	147	5.5	292.5	0	573	572	-1	-116	578	577	580	-156	578	573	582	156	579	578	580	0	466	461	595
580	799	147	6	293	0	573	572	-1	105	580	578	581	-156	578	573	582	168	580	579	581	0	466	461	595
581	800	147	6.5	293.5	0	573	572	-1	145	581	580	582	-156	578	573	582	145	581	580	582	0	466	461	595
582	802	148	7	294	0	573	572	-1	151	582	581	583	151	582	578	588	0	582	581	584	0	466	461	595
583	803	148	7.25	294.25	0	573	572	-1	145	583	582	584	-151	582	578	588	0	582	581	584	0	466	461	595
584	804	148	7.5	294.5	0	573	572	-1	140	584	583	585	-151	582	578	588	162	584	582	587	0	466	461	595
585	805	148	7.75	294.75	0	573	572	-1	134	585	584	586	-151	582	578	588	-162	584	582	587	0	466	461	595
586	806	148	8	295	0	573	572	-1	140	586	585	588	-151	582	578	588	-162	584	582	587	0	466	461	595
587	807	148	8.5	295.5	0	573	572	-1	-140	586	585	588	-151	582	578	588	151	587	584	588	0	466	461	595
588	809	149	1	296	0	573	572	-1	145	588	586	589	145	588	582	590	157	588	587	589	0	466	461	595
589	810	149	1.5	296.5	0	573	572	-1	134	589	588	590	-145	588	582	590	162	589	588	590	0	466	461	595
590	811	149	2	297	0	573	572	-1	128	590	589	591	156	590	588	592	168	590	589	594	0	466	461	595
591	812	149	2.5	297.5	0	573	572	-1	145	591	590	593	-156	590	588	592	-168	590	589	594	0	466	461	595
592	814	150	3	298	0	573	572	-1	-145	591	590	593	156	592	590	594	-168	590	589	594	0	466	461	595
593	815	150	3.5	298.5	0	573	572	-1	156	593	591	594	-156	592	590	594	-168	590	589	594	0	466	461	595
594	816	150	4	299	0	573	572	-1	151	594	593	595	162	594	592	595	174	594	590	595	0	466	461	595
% !!linebreak:default
595	819	151	5	300	0	573	572	-1	128	595	594	599	168	595	594	599	0	595	594	596	191	595	466	597
596	820	151	5.5	300.5	0	573	572	-1	-128	595	594	599	-168	595	594	599	168	596	595	597	-191	595	466	597
597	821	151	6	301	0	573	572	-1	-128	595	594	599	-168	595	594	599	179	597	596	598	191	597	595	599
598	822	151	6.75	301.75	0	573	572	-1	-128	595	594	599	-168	595	594	599	174	598	597	599	-191	597	595	599
599	824	152	7	302	0	573	572	-1	0	599	595	612	173	599	595	601	162	599	598	600	185	599	597	601
600	825	152	7.5	302.5	0	573	572	-1	0	599	595	612	-173	599	595	601	162	600	599	601	-185	599	597	601
601	826	152	8	303	0	573	572	-1	0	599	595	612	168	601	599	603	168	601	600	602	179	601	599	602
602	827	152	8.5	303.5	0	573	572	-1	0	599	595	612	-168	601	599	603	156	602	601	603	196	602	601	604
603	829	153	1	304	0	573	572	-1	0	599	595	612	156	603	601	609	145	603	602	605	-196	602	601	604
604	830	153	1.25	304.25	0	573	572	-1	0	599	595	612	-156	603	601	609	-145	603	602	605	191	604	602	605
605	831	153	1.5	304.5	0	573	572	-1	0	599	595	612	-156	603	601	609	168	605	603	608	185	605	604	606
606	832	153	2	305	0	573	572	-1	0	599	595	612	-156	603	601	609	-168	605	603	608	179	606	605	607
607	833	153	2.25	305.25	0	573	572	-1	0	599	595	612	-156	603	601	609	-168	605	603	608	168	607	606	608
608	834	153	2.5	305.5	0	573	572	-1	0	599	595	612	-156	603	601	609	156	608	605	609	185	608	607	610
609	836	154	3	306	0	573	572	-1	0	599	595	612	162	609	603	611	151	609	608	611	-185	608	607	610
610	837	154	3.5	306.5	0	573	572	-1	0	599	595	612	-162	609	603	611	-151	609	608	611	180	610	608	611
611	838	154	4	307	0	573	572	-1	0	599	595	612	156	611	609	612	145	611	609	614	185	611	610	614
612	840	155	5	308	0	573	572	-1	156	612	599	613	168	612	611	616	-145	611	609	614	-185	611	610	614
613	841	155	5.5	308.5	0	573	572	-1	156	613	612	614	-168	612	611	616	-145	611	609	614	-185	611	610	614
614	842	155	6	309	0	573	572	-1	156	614	613	615	-168	612	611	616	0	614	611	619	0	614	611	616
615	843	155	6.5	309.5	0	573	572	-1	156	615	614	616	-168	612	611	616	0	614	611	619	0	614	611	616
616	845	156	7	310	0	573	572	-1	151	616	615	618	162	616	612	618	0	614	611	619	174	616	614	617
617	846	156	7.5	310.5	0	573	572	-1	-151	616	615	618	-162	616	612	618	0	614	611	619	179	617	616	618
618	847	156	8	311	0	573	572	-1	145	618	616	621	168	618	616	619	0	614	611	619	185	618	617	620
% !!pagebreak:default
619	850	157	1	312	0	573	572	-1	-145	618	616	621	145	619	618	623	157	619	614	621	-185	618	617	620
620	851	157	1.5	312.5	0	573	572	-1	-145	618	616	621	-145	619	618	623	-157	619	614	621	185	620	618	621
621	852	157	2	313	0	573	572	-1	134	621	618	623	-145	619	618	623	162	621	619	623	185	621	620	622
622	853	157	2.5	313.5	0	573	572	-1	-134	621	618	623	-145	619	618	623	-162	621	619	623	185	622	621	623
623	855	158	3	314	0	573	572	-1	128	623	621	627	151	623	619	627	168	623	621	625	179	623	622	624
624	856	158	3.5	314.5	0	573	572	-1	-128	623	621	627	-151	623	619	627	-168	623	621	625	185	624	623	626
625	857	158	4	315	0	573	572	-1	-128	623	621	627	-151	623	619	627	168	625	623	627	-185	624	623	626
626	858	158	4.5	315.5	0	573	572	-1	-128	623	621	627	-151	623	619	627	-168	625	623	627	180	626	624	627
627	860	159	5	316	0	573	572	-1	105	627	623	628	145	627	623	634	168	627	625	628	185	627	626	634
628	861	159	6	317	0	573	572	-1	122	628	627	629	-145	627	623	634	174	628	627	630	-185	627	626	634
629	862	159	6.5	317.5	0	573	572	-1	122	629	628	630	-145	627	623	634	-174	628	627	630	-185	627	626	634
630	864	160	7	318	0	573	572	-1	116	630	629	631	-145	627	623	634	168	630	628	631	-185	627	626	634
631	865	160	7.5	318.5	0	573	572	-1	122	631	630	632	-145	627	623	634	162	631	630	632	-185	627	626	634
632	866	160	8	319	0	573	572	-1	105	632	631	633	-145	627	623	634	157	632	631	634	-185	627	626	634
633	867	160	8.5	319.5	0	573	572	-1	105	633	632	634	-145	627	623	634	-157	632	631	634	-185	627	626	634
634	869	161	1	320	0	573	572	-1	128	634	633	635	0	634	627	636	151	634	632	636	0	634	627	660
635	870	161	1.5	320.5	0	573	572	-1	128	635	634	636	0	634	627	636	-151	634	632	636	0	634	627	660
636	871	161	2	321	0	573	572	-1	122	636	635	638	145	636	634	638	0	636	634	637	0	634	627	660
637	872	161	2.5	321.5	0	573	572	-1	-122	636	635	638	-145	636	634	638	174	637	636	638	0	634	627	660
638	874	162	3	322	0	573	572	-1	0	638	636	639	139	638	636	640	179	638	637	639	0	634	627	660
639	875	162	3.5	322.5	0	573	572	-1	99	639	638	640	-139	638	636	640	179	639	638	640	0	634	627	660
640	876	162	4	323	0	573	572	-1	116	640	639	641	139	640	638	642	179	640	639	641	0	634	627	660
641	877	162	4.5	323.5	0	573	572	-1	116	641	640	642	-139	640	638	642	179	641	640	642	0	634	627	660
% !!linebreak:default
642	880	163	5	324	0	573	572	-1	116	642	641	643	156	642	640	644	179	642	641	643	0	634	627	660
643	881	163	5.5	324.5	0	573	572	-1	116	643	642	644	-156	642	640	644	168	643	642	644	0	634	627	660
644	882	163	6	325	0	573	572	-1	116	644	643	646	156	644	642	646	179	644	643	645	0	634	627	660
645	883	163	6.75	325.75	0	573	572	-1	-116	644	643	646	-156	644	642	646	174	645	644	646	0	634	627	660
646	885	164	7	326	0	573	572	-1	139	646	644	648	151	646	644	648	162	646	645	647	0	634	627	660
647	886	164	7.5	326.5	0	573	572	-1	-139	646	644	648	-151	646	644	648	168	647	646	649	0	634	627	660
648	887	164	8	327	0	573	572	-1	128	648	646	651	168	648	646	652	-168	647	646	649	0	634	627	660
649	888	164	8.25	327.25	0	573	572	-1	-128	648	646	651	-168	648	646	652	174	649	647	650	0	634	627	660
650	889	164	8.5	327.5	0	573	572	-1	-128	648	646	651	-168	648	646	652	179	650	649	652	0	634	627	660
651	891	165	1	328	0	573	572	-1	111	651	648	656	-168	648	646	652	-179	650	649	652	0	634	627	660
652	892	165	1.5	328.5	0	573	572	-1	-111	651	648	656	163	652	648	654	174	652	650	653	0	634	627	660
653	893	165	1.75	328.75	0	573	572	-1	-111	651	648	656	-163	652	648	654	168	653	652	654	0	634	627	660
654	894	165	2	329	0	573	572	-1	-111	651	648	656	163	654	652	655	174	654	653	656	0	634	627	660
655	895	165	2.5	329.5	0	573	572	-1	-111	651	648	656	157	655	654	656	-174	654	653	656	0	634	627	660
656	897	166	3	330	0	573	572	-1	128	656	651	660	168	656	655	658	168	656	654	657	0	634	627	660
657	898	166	4	331	0	573	572	-1	-128	656	651	660	-168	656	655	658	0	657	656	658	0	634	627	660
658	899	166	4.5	331.5	0	573	572	-1	-128	656	651	660	162	658	656	659	168	658	657	660	0	634	627	660
659	900	166	4.75	331.75	0	573	572	-1	-128	656	651	660	156	659	658	660	-168	658	657	660	0	634	627	660
660	902	167	5	332	0	573	572	-1	0	660	656	662	151	660	659	662	162	660	658	662	174	660	634	661
661	903	167	5.5	332.5	0	573	572	-1	0	660	656	662	-151	660	659	662	-162	660	658	662	179	661	660	662
662	904	167	6	333	0	573	572	-1	105	662	660	663	156	662	660	663	168	662	660	663	185	662	661	663
663	906	168	7	334	0	573	572	-1	122	663	662	664	162	663	662	667	145	663	662	664	185	663	662	665
664	907	168	7.5	334.5	0	573	572	-1	122	664	663	665	-162	663	662	667	145	664	663	665	-185	663	662	665
665	908	168	8	335	0	573	572	-1	122	665	664	666	-162	663	662	667	173	665	664	666	185	665	663	667
666	909	168	8.5	335.5	0	573	572	-1	122	666	665	667	-162	663	662	667	173	666	665	667	-185	665	663	667
% !!linebreak:default
667	912	169	1	336	0	573	572	-1	128	667	666	668	151	667	663	672	168	667	666	669	179	667	665	668
668	913	169	1.5	336.5	0	573	572	-1	128	668	667	669	-151	667	663	672	-168	667	666	669	191	668	667	670
669	914	169	2	337	0	573	572	-1	139	669	668	672	-151	667	663	672	162	669	667	672	-191	668	667	670
670	915	169	2.25	337.25	0	573	572	-1	-139	669	668	672	-151	667	663	672	-162	669	667	672	185	670	668	671
671	916	169	2.5	337.5	0	573	572	-1	-139	669	668	672	-151	667	663	672	-162	669	667	672	179	671	670	672
672	918	170	3	338	0	573	572	-1	122	672	669	674	145	672	667	674	162	672	669	673	174	672	671	674
673	919	170	3.5	338.5	0	573	572	-1	-122	672	669	674	-145	672	667	674	162	673	672	674	-174	672	671	674
674	920	170	4	339	0	573	572	-1	128	674	672	676	139	674	672	676	151	674	673	675	179	674	672	675
675	921	170	4.5	339.5	0	573	572	-1	-128	674	672	676	-139	674	672	676	151	675	674	676	168	675	674	676
676	923	171	5	340	0	573	572	-1	111	676	674	679	134	676	674	680	162	676	675	678	174	676	675	677
677	924	171	5.5	340.5	0	573	572	-1	-111	676	674	679	-134	676	674	680	-162	676	675	678	179	677	676	679
678	925	171	5.75	340.75	0	573	572	-1	-111	676	674	679	-134	676	674	680	157	678	676	679	-179	677	676	679
679	926	171	6	341	0	573	572	-1	134	679	676	680	-134	676	674	680	145	679	678	680	185	679	677	680
680	928	172	7	342	0	573	572	-1	139	680	679	681	128	680	676	689	168	680	679	682	191	680	679	681
681	929	172	7.5	342.5	0	573	572	-1	128	681	680	683	-128	680	676	689	-168	680	679	682	179	681	680	683
682	930	172	7.75	342.75	0	573	572	-1	-128	681	680	683	-128	680	676	689	162	682	680	683	-179	681	680	683
683	931	172	8	343	0	573	572	-1	105	683	681	684	-128	680	676	689	157	683	682	684	185	683	681	684
684	932	172	8.5	343.5	0	573	572	-1	128	684	683	685	-128	680	676	689	151	684	683	685	191	684	683	685
685	934	173	1	344	0	573	572	-1	116	685	684	686	-128	680	676	689	145	685	684	686	168	685	684	686
686	935	173	1.5	344.5	0	573	572	-1	105	686	685	687	-128	680	676	689	157	686	685	687	185	686	685	688
687	936	173	2	345	0	573	572	-1	128	687	686	689	-128	680	676	689	151	687	686	689	-185	686	685	688
688	937	173	2.5	345.5	0	573	572	-1	-128	687	686	689	-128	680	676	689	-151	687	686	689	180	688	686	689
689	939	174	3	346	0	573	572	-1	105	689	687	692	0	689	680	690	145	689	687	690	185	689	688	694
690	940	174	4	347	0	573	572	-1	-105	689	687	692	168	690	689	692	0	690	689	691	-185	689	688	694
691	941	174	4.5	347.5	0	573	572	-1	-105	689	687	692	-168	690	689	692	168	691	690	692	-185	689	688	694
% !!pagebreak:default
692	944	175	5	348	0	573	572	-1	0	692	689	728	162	692	690	693	174	692	691	693	-185	689	688	694
693	945	175	6	349	0	573	572	-1	0	692	689	728	156	693	692	694	168	693	692	695	-185	689	688	694
694	947	176	7	350	0	573	572	-1	0	692	689	728	145	694	693	696	-168	693	692	695	0	694	689	728
695	948	176	8	351	0	573	572	-1	0	692	689	728	-145	694	693	696	157	695	693	696	0	694	689	728
696	950	177	1	352	0	573	572	-1	0	692	689	728	151	696	694	699	0	696	695	697	0	694	689	728
697	951	177	1.5	352.5	0	573	572	-1	0	692	689	728	-151	696	694	699	162	697	696	698	0	694	689	728
698	952	177	2.5	353.5	0	573	572	-1	0	692	689	728	-151	696	694	699	151	698	697	699	0	694	689	728
699	954	178	3	354	0	573	572	-1	0	692	689	728	145	699	696	701	157	699	698	700	0	694	689	728
700	955	178	3.5	354.5	0	573	572	-1	0	692	689	728	-145	699	696	701	162	700	699	701	0	694	689	728
701	956	178	4	355	0	573	572	-1	0	692	689	728	156	701	699	703	168	701	700	703	0	694	689	728
702	958	179	5	356	0	573	572	-1	0	692	689	728	-156	701	699	703	-168	701	700	703	0	694	689	728
703	959	179	6	357	0	573	572	-1	0	692	689	728	162	703	701	704	174	703	701	704	0	694	689	728
704	961	180	7	358	0	573	572	-1	0	692	689	728	151	704	703	708	162	704	703	705	0	694	689	728
705	962	180	7.75	358.75	0	573	572	-1	0	692	689	728	-151	704	703	708	168	705	704	706	0	694	689	728
706	963	180	8	359	0	573	572	-1	0	692	689	728	-151	704	703	708	174	706	705	707	0	694	689	728
707	964	180	8.5	359.5	0	573	572	-1	0	692	689	728	-151	704	703	708	179	707	706	708	0	694	689	728
% !!linebreak:default
708	967	181	1	360	0	573	572	-1	0	692	689	728	145	708	704	711	174	708	707	709	0	694	689	728
709	968	181	1.5	360.5	0	573	572	-1	0	692	689	728	-145	708	704	711	168	709	708	710	0	694	689	728
710	969	181	2.5	361.5	0	573	572	-1	0	692	689	728	-145	708	704	711	185	710	709	712	0	694	689	728
711	971	182	3	362	0	573	572	-1	0	692	689	728	156	711	708	714	-185	710	709	712	0	694	689	728
712	972	182	3.25	362.25	0	573	572	-1	0	692	689	728	-156	711	708	714	179	712	710	713	0	694	689	728
713	973	182	3.5	362.5	0	573	572	-1	0	692	689	728	-156	711	708	714	168	713	712	714	0	694	689	728
714	974	182	4	363	0	573	572	-1	0	692	689	728	151	714	711	716	162	714	713	715	0	694	689	728
715	975	182	4.5	363.5	0	573	572	-1	0	692	689	728	-151	714	711	716	179	715	714	717	0	694	689	728
716	977	183	5	364	0	573	572	-1	0	692	689	728	139	716	714	719	-179	715	714	717	0	694	689	728
717	978	183	5.25	364.25	0	573	572	-1	0	692	689	728	-139	716	714	719	174	717	715	718	0	694	689	728
718	979	183	5.5	364.5	0	573	572	-1	0	692	689	728	-139	716	714	719	168	718	717	720	0	694	689	728
719	980	183	6	365	0	573	572	-1	0	692	689	728	145	719	716	724	-168	718	717	720	0	694	689	728
720	981	183	6.25	365.25	0	573	572	-1	0	692	689	728	-145	719	716	724	162	720	718	721	0	694	689	728
721	982	183	6.5	365.5	0	573	572	-1	0	692	689	728	-145	719	716	724	174	721	720	723	0	694	689	728
722	984	184	7	366	0	573	572	-1	0	692	689	728	-145	719	716	724	-174	721	720	723	0	694	689	728
723	985	184	7.25	366.25	0	573	572	-1	0	692	689	728	-145	719	716	724	168	723	721	724	0	694	689	728
724	986	184	7.5	366.5	0	573	572	-1	0	692	689	728	140	724	719	726	162	724	723	725	0	694	689	728
725	987	184	7.75	366.75	0	573	572	-1	0	692	689	728	-140	724	719	726	157	725	724	726	0	694	689	728
726	988	184	8	367	0	573	572	-1	0	692	689	728	140	726	724	727	151	726	725	728	0	694	689	728
727	989	184	8.5	367.5	0	573	572	-1	0	692	689	728	134	727	726	728	-151	726	725	728	0	694	689	728
728	991	185	1	368	0	573	572	-1	105	728	692	730	145	728	727	730	145	728	726	729	185	728	694	729
729	993	186	3	370	0	573	572	-1	-105	728	692	730	-145	728	727	730	157	729	728	730	185	729	728	730
% !!linebreak:default
730	996	187	5	372	0	573	572	-1	122	730	728	732	0	730	728	731	162	730	729	732	174	730	729	732
731	997	187	6	373	0	573	572	-1	-122	730	728	732	145	731	730	732	-162	730	729	732	-174	730	729	732
732	999	188	7	374	0	573	572	-1	99	732	730	734	151	732	731	733	162	732	730	735	179	732	730	734
733	1000	188	8	375	0	573	572	-1	-99	732	730	734	139	733	732	734	-162	732	730	735	-179	732	730	734
734	1002	189	1	376	0	573	572	-1	122	734	732	735	145	734	733	735	-162	732	730	735	174	734	732	735
735	1003	189	2	377	0	573	572	-1	128	735	734	736	128	735	734	736	151	735	732	739	168	735	734	737
736	1005	190	3	378	0	573	572	-1	111	736	735	740	134	736	735	740	-151	735	732	739	-168	735	734	737
737	1006	190	3.5	378.5	0	573	572	-1	-111	736	735	740	-134	736	735	740	-151	735	732	739	163	737	735	738
738	1007	190	3.75	378.75	0	573	572	-1	-111	736	735	740	-134	736	735	740	-151	735	732	739	157	738	737	739
739	1008	190	4	379	0	573	572	-1	-111	736	735	740	-134	736	735	740	151	739	735	740	163	739	738	740
740	1010	191	5	380	0	573	572	-1	0	740	736	749	128	740	736	749	139	740	739	741	168	740	739	744
741	1011	191	5.5	380.5	0	573	572	-1	0	740	736	749	-128	740	736	749	156	741	740	742	-168	740	739	744
742	1012	191	6	381	0	573	572	-1	0	740	736	749	-128	740	736	749	151	742	741	743	-168	740	739	744
743	1013	191	6.5	381.5	0	573	572	-1	0	740	736	749	-128	740	736	749	168	743	742	745	-168	740	739	744
744	1015	192	7	382	0	573	572	-1	0	740	736	749	-128	740	736	749	-168	743	742	745	191	744	740	749
745	1016	192	7.25	382.25	0	573	572	-1	0	740	736	749	-128	740	736	749	162	745	743	746	-191	744	740	749
746	1017	192	7.5	382.5	0	573	572	-1	0	740	736	749	-128	740	736	749	179	746	745	747	-191	744	740	749
747	1018	192	8.25	383.25	0	573	572	-1	0	740	736	749	-128	740	736	749	174	747	746	748	-191	744	740	749
748	1019	192	8.5	383.5	0	573	572	-1	0	740	736	749	-128	740	736	749	168	748	747	750	-191	744	740	749
% !!pagebreak:default
749	1022	193	1	384	0	573	572	-1	105	749	740	755	0	749	740	752	-168	748	747	750	196	749	744	755
750	1023	193	1.25	384.25	0	573	572	-1	-105	749	740	755	0	749	740	752	162	750	748	751	-196	749	744	755
751	1024	193	1.5	384.5	0	573	572	-1	-105	749	740	755	0	749	740	752	185	751	750	753	-196	749	744	755
752	1025	193	2	385	0	573	572	-1	-105	749	740	755	128	752	749	755	-185	751	750	753	-196	749	744	755
753	1026	193	2.25	385.25	0	573	572	-1	-105	749	740	755	-128	752	749	755	179	753	751	754	-196	749	744	755
754	1027	193	2.5	385.5	0	573	572	-1	-105	749	740	755	-128	752	749	755	168	754	753	756	-196	749	744	755
755	1029	194	3	386	0	573	572	-1	128	755	749	762	139	755	752	762	-168	754	753	756	191	755	749	758
756	1030	194	3.25	386.25	0	573	572	-1	-128	755	749	762	-139	755	752	762	162	756	754	757	-191	755	749	758
757	1031	194	3.5	386.5	0	573	572	-1	-128	755	749	762	-139	755	752	762	179	757	756	759	-191	755	749	758
758	1032	194	4	387	0	573	572	-1	-128	755	749	762	-139	755	752	762	-179	757	756	759	191	758	755	762
759	1033	194	4.25	387.25	0	573	572	-1	-128	755	749	762	-139	755	752	762	174	759	757	760	-191	758	755	762
760	1034	194	4.5	387.5	0	573	572	-1	-128	755	749	762	-139	755	752	762	168	760	759	761	-191	758	755	762
761	1035	194	4.75	387.75	0	573	572	-1	-128	755	749	762	-139	755	752	762	162	761	760	762	-191	758	755	762
762	1037	195	5	388	0	573	572	-1	134	762	755	768	145	762	755	768	185	762	761	763	0	762	758	764
763	1038	195	5.25	388.25	0	573	572	-1	-134	762	755	768	-145	762	755	768	179	763	762	764	0	762	758	764
764	1039	195	5.5	388.5	0	573	572	-1	-134	762	755	768	-145	762	755	768	174	764	763	765	185	764	762	766
765	1040	195	5.75	388.75	0	573	572	-1	-134	762	755	768	-145	762	755	768	168	765	764	766	-185	764	762	766
766	1041	195	6	389	0	573	572	-1	-134	762	755	768	-145	762	755	768	162	766	765	768	174	766	764	767
767	1042	195	6.5	389.5	0	573	572	-1	-134	762	755	768	-145	762	755	768	-162	766	765	768	185	767	766	768
768	1044	196	7	390	0	573	572	-1	128	768	762	770	151	768	762	770	168	768	766	770	179	768	767	769
769	1045	196	7.5	390.5	0	573	572	-1	-128	768	762	770	-151	768	762	770	-168	768	766	770	191	769	768	770
770	1046	196	8	391	0	573	572	-1	105	770	768	772	156	770	768	772	0	770	768	771	185	770	769	771
771	1047	196	8.5	391.5	0	573	572	-1	-105	770	768	772	-156	770	768	772	145	771	770	772	196	771	770	772
772	1049	197	1	392	0	573	572	-1	0	772	770	774	162	772	770	774	151	772	771	773	191	772	771	773
773	1050	197	1.5	392.5	0	573	572	-1	0	772	770	774	-162	772	770	774	139	773	772	774	202	773	772	774
774	1051	197	2	393	0	573	572	-1	105	774	772	777	168	774	772	781	156	774	773	776	196	774	773	775
775	1052	197	2.5	393.5	0	573	572	-1	-105	774	772	777	-168	774	772	781	-156	774	773	776	208	775	774	778
776	1053	197	2.75	393.75	0	573	572	-1	-105	774	772	777	-168	774	772	781	151	776	774	777	-208	775	774	778
777	1055	198	3	394	0	573	572	-1	116	777	774	781	-168	774	772	781	145	777	776	779	-208	775	774	778
778	1056	198	3.25	394.25	0	573	572	-1	-116	777	774	781	-168	774	772	781	-145	777	776	779	202	778	775	779
779	1057	198	3.5	394.5	0	573	572	-1	-116	777	774	781	-168	774	772	781	139	779	777	781	196	779	778	780
780	1058	198	3.75	394.75	0	573	572	-1	-116	777	774	781	-168	774	772	781	-139	779	777	781	191	780	779	781
781	1059	198	4	395	0	573	572	-1	122	781	777	785	173	781	774	785	133	781	779	782	185	781	780	783
782	1060	198	4.25	395.25	0	573	572	-1	-122	781	777	785	-173	781	774	785	139	782	781	783	-185	781	780	783
783	1061	198	4.5	395.5	0	573	572	-1	-122	781	777	785	-173	781	774	785	145	783	782	785	179	783	781	784
784	1062	198	4.75	395.75	0	573	572	-1	-122	781	777	785	-173	781	774	785	-145	783	782	785	174	784	783	785
% !!linebreak:default
785	1065	199	5	396	0	573	572	-1	128	785	781	787	168	785	781	787	139	785	783	786	179	785	784	786
786	1066	199	5.5	396.5	0	573	572	-1	-128	785	781	787	-168	785	781	787	128	786	785	787	208	786	785	788
787	1067	199	6	397	0	573	572	-1	105	787	785	789	156	787	785	794	145	787	786	798	-208	786	785	788
788	1068	199	6.25	397.25	0	573	572	-1	-105	787	785	789	-156	787	785	794	-145	787	786	798	202	788	786	789
789	1069	199	6.5	397.5	0	573	572	-1	145	789	787	791	-156	787	785	794	-145	787	786	798	196	789	788	791
790	1071	200	7	398	0	573	572	-1	-145	789	787	791	-156	787	785	794	-145	787	786	798	-196	789	788	791
791	1072	200	7.25	398.25	0	573	572	-1	139	791	789	792	-156	787	785	794	-145	787	786	798	191	791	789	792
792	1073	200	7.5	398.5	0	573	572	-1	134	792	791	793	-156	787	785	794	-145	787	786	798	185	792	791	795
793	1074	200	7.75	398.75	0	573	572	-1	128	793	792	794	-156	787	785	794	-145	787	786	798	-185	792	791	795
794	1075	200	8	399	0	573	572	-1	122	794	793	798	162	794	787	798	-145	787	786	798	-185	792	791	795
795	1076	200	8.25	399.25	0	573	572	-1	-122	794	793	798	-162	794	787	798	-145	787	786	798	179	795	792	796
796	1077	200	8.5	399.5	0	573	572	-1	-122	794	793	798	-162	794	787	798	-145	787	786	798	174	796	795	797
797	1078	200	8.75	399.75	0	573	572	-1	-122	794	793	798	-162	794	787	798	-145	787	786	798	168	797	796	798
798	1080	201	1	400	0	573	572	-1	116	798	794	800	168	798	794	800	156	798	787	800	179	798	797	799
799	1081	201	1.5	400.5	0	573	572	-1	-116	798	794	800	-168	798	794	800	-156	798	787	800	185	799	798	800
800	1082	201	2	401	0	573	572	-1	139	800	798	803	162	800	798	801	151	800	798	801	191	800	799	802
801	1084	202	3	402	0	573	572	-1	-139	800	798	803	168	801	800	803	128	801	800	803	-191	800	799	802
802	1085	202	3.5	402.5	0	573	572	-1	-139	800	798	803	-168	801	800	803	-128	801	800	803	185	802	800	803
803	1086	202	4	403	0	573	572	-1	145	803	800	804	156	803	801	804	168	803	801	807	185	803	802	805
804	1088	203	5	404	0	573	572	-1	128	804	803	806	151	804	803	806	-168	803	801	807	-185	803	802	805
805	1089	203	6	405	0	573	572	-1	-128	804	803	806	-151	804	803	806	-168	803	801	807	180	805	803	806
806	1091	204	7	406	0	573	572	-1	105	806	804	814	145	806	804	814	-168	803	801	807	185	806	805	814
807	1092	204	8	407	0	573	572	-1	-105	806	804	814	-145	806	804	814	157	807	803	808	-185	806	805	814
808	1093	204	8.75	407.75	0	573	572	-1	-105	806	804	814	-145	806	804	814	162	808	807	809	-185	806	805	814
% !!linebreak:default
809	1096	205	1	408	0	573	572	-1	-105	806	804	814	-145	806	804	814	168	809	808	810	-185	806	805	814
810	1097	205	1.5	408.5	0	573	572	-1	-105	806	804	814	-145	806	804	814	174	810	809	811	-185	806	805	814
811	1098	205	2	409	0	573	572	-1	-105	806	804	814	-145	806	804	814	157	811	810	812	-185	806	805	814
812	1099	205	2.5	409.5	0	573	572	-1	-105	806	804	814	-145	806	804	814	162	812	811	813	-185	806	805	814
813	1101	206	1	410	0	573	572	-1	-105	806	804	814	-145	806	804	814	168	813	812	814	-185	806	805	814
814	1103	207	1	412	0	573	572	-1	0	814	806	-1	0	814	806	-1	0	814	813	-1	0	814	806	-1
% !!!RDF**kern: l=long note in original notation
% !!!RDF**kern: i=editorial accidental
% !!!ENC:	Jesse Rodin 2011/03/29; Victoria Chang 2011/09/02
% !!!END:	2011/09/02/
% !!!EED:	Jesse Rodin
% !!!EEV: 2012/04/24/
% !!attribution-level: 1 (secure)
% !!!ONB:	Translated from MusicXML and edited on 2011/10/25/ by Craig Sapp
% !!muse2ps: C^@{COM}\n@{SCT}^c85i2I150v90,90,90,90,120Q16
