%%idx	%%line	%%bar	%%beat	%%abs	%%b40	%%attk	%%last	%%next	%%b40	%%attk	%%last	%%next	%%b40	%%attk	%%last	%%next	%%b40	%%attk	%%last	%%next
0	2000	3000	4000	5000	1040	7100	7200	7300	1040	7100	7200	7300	1040	7100	7200	7300	1040	7100	7200	7300
1	25	1	1	0	0	1	-1	11	0	1	-1	22	168	1	-1	2	0	1	-1	6
2	27	2	3	2	0	1	-1	11	0	1	-1	22	168	2	1	3	0	1	-1	6
3	28	2	4	3	0	1	-1	11	0	1	-1	22	168	3	2	4	0	1	-1	6
4	29	2	4.5	3.5	0	1	-1	11	0	1	-1	22	162	4	3	5	0	1	-1	6
5	30	2	4.75	3.75	0	1	-1	11	0	1	-1	22	157	5	4	6	0	1	-1	6
6	32	3	5	4	0	1	-1	11	0	1	-1	22	168	6	5	7	191	6	1	11
7	33	3	5.5	4.5	0	1	-1	11	0	1	-1	22	162	7	6	8	-191	6	1	11
8	34	3	6.25	5.25	0	1	-1	11	0	1	-1	22	157	8	7	9	-191	6	1	11
9	35	3	6.5	5.5	0	1	-1	11	0	1	-1	22	151	9	8	10	-191	6	1	11
10	36	3	6.75	5.75	0	1	-1	11	0	1	-1	22	145	10	9	11	-191	6	1	11
11	38	4	7	6	128	11	1	15	0	1	-1	22	139	11	10	12	191	11	6	12
12	39	4	8	7	-128	11	1	15	0	1	-1	22	151	12	11	13	191	12	11	13
13	40	4	8.5	7.5	-128	11	1	15	0	1	-1	22	157	13	12	15	185	13	12	14
14	41	4	8.75	7.75	-128	11	1	15	0	1	-1	22	-157	13	12	15	179	14	13	15
15	43	5	1	8	122	15	11	18	0	1	-1	22	162	15	13	16	191	15	14	16
16	44	5	1.5	8.5	-122	15	11	18	0	1	-1	22	157	16	15	17	185	16	15	19
17	45	5	1.75	8.75	-122	15	11	18	0	1	-1	22	151	17	16	18	-185	16	15	19
18	46	5	2	9	122	18	15	22	0	1	-1	22	145	18	17	22	-185	16	15	19
19	47	5	2.25	9.25	-122	18	15	22	0	1	-1	22	-145	18	17	22	179	19	16	20
20	48	5	2.5	9.5	-122	18	15	22	0	1	-1	22	-145	18	17	22	174	20	19	21
21	49	5	2.75	9.75	-122	18	15	22	0	1	-1	22	-145	18	17	22	168	21	20	22
22	51	6	3	10	111	22	18	23	151	22	1	45	0	22	18	24	162	22	21	28
23	52	6	3.5	10.5	122	23	22	25	-151	22	1	45	0	22	18	24	-162	22	21	28
24	53	6	4	11	-122	23	22	25	-151	22	1	45	162	24	22	29	-162	22	21	28
25	54	6	4.25	11.25	117	25	23	26	-151	22	1	45	-162	24	22	29	-162	22	21	28
26	55	6	4.5	11.5	111	26	25	27	-151	22	1	45	-162	24	22	29	-162	22	21	28
27	56	6	4.75	11.75	105	27	26	28	-151	22	1	45	-162	24	22	29	-162	22	21	28
28	58	7	5	12	99	28	27	33	-151	22	1	45	-162	24	22	29	0	28	22	31
29	59	7	5.5	12.5	-99	28	27	33	-151	22	1	45	157	29	24	30	0	28	22	31
30	60	7	5.75	12.75	-99	28	27	33	-151	22	1	45	151	30	29	31	0	28	22	31
31	61	7	6	13	-99	28	27	33	-151	22	1	45	162	31	30	32	179	31	28	35
32	62	7	6.5	13.5	-99	28	27	33	-151	22	1	45	139	32	31	34	-179	31	28	35
33	64	8	7	14	0	33	28	37	-151	22	1	45	-139	32	31	34	-179	31	28	35
34	65	8	7.25	14.25	0	33	28	37	-151	22	1	45	145	34	32	35	-179	31	28	35
35	66	8	7.5	14.5	0	33	28	37	-151	22	1	45	151	35	34	36	174	35	31	36
36	67	8	7.75	14.75	0	33	28	37	-151	22	1	45	157	36	35	37	168	36	35	37
37	68	8	8	15	111	37	33	41	-151	22	1	45	162	37	36	41	179	37	36	38
38	69	8	8.5	15.5	-111	37	33	41	-151	22	1	45	-162	37	36	41	174	38	37	40
39	71	9	1	16	-111	37	33	41	-151	22	1	45	-162	37	36	41	-174	38	37	40
40	72	9	1.25	16.25	-111	37	33	41	-151	22	1	45	-162	37	36	41	168	40	38	41
41	73	9	1.5	16.5	117	41	37	43	-151	22	1	45	168	41	37	43	162	41	40	42
42	74	9	1.75	16.75	-117	41	37	43	-151	22	1	45	-168	41	37	43	157	42	41	43
43	75	9	2	17	122	43	41	44	-151	22	1	45	174	43	41	44	151	43	42	45
44	76	9	2.5	17.5	128	44	43	46	-151	22	1	45	179	44	43	46	-151	43	42	45
45	78	10	3	18	-128	44	43	46	151	45	22	48	-179	44	43	46	0	45	43	46
46	79	10	3.5	18.5	122	46	44	47	-151	45	22	48	174	46	44	47	191	46	45	48
47	80	10	3.75	18.75	117	47	46	48	-151	45	22	48	168	47	46	48	-191	46	45	48
48	81	10	4	19	111	48	47	51	151	48	45	49	179	48	47	49	202	48	46	52
49	82	10	4.5	19.5	-111	48	47	51	145	49	48	50	174	49	48	51	-202	48	46	52
50	83	10	4.75	19.75	-111	48	47	51	139	50	49	51	-174	49	48	51	-202	48	46	52
51	85	11	5	20	122	51	48	58	151	51	50	52	162	51	49	58	-202	48	46	52
52	86	11	5.5	20.5	-122	51	48	58	145	52	51	55	-162	51	49	58	197	52	48	53
53	87	11	5.75	20.75	-122	51	48	58	-145	52	51	55	-162	51	49	58	191	53	52	54
54	88	11	6	21	-122	51	48	58	-145	52	51	55	-162	51	49	58	185	54	53	56
55	89	11	6.25	21.25	-122	51	48	58	139	55	52	56	-162	51	49	58	-185	54	53	56
56	90	11	6.5	21.5	-122	51	48	58	134	56	55	57	-162	51	49	58	202	56	54	59
57	91	11	6.75	21.75	-122	51	48	58	128	57	56	58	-162	51	49	58	-202	56	54	59
58	93	12	7	22	111	58	51	59	122	58	57	59	0	58	51	63	-202	56	54	59
59	94	12	7.5	22.5	99	59	58	60	139	59	58	61	0	58	51	63	191	59	56	60
60	95	12	8	23	105	60	59	62	-139	59	58	61	0	58	51	63	196	60	59	62
61	96	12	8.5	23.5	-105	60	59	62	134	61	59	62	0	58	51	63	-196	60	59	62
62	98	13	1	24	99	62	60	67	139	62	61	67	0	58	51	63	191	62	60	65
63	99	13	1.5	24.5	-99	62	60	67	-139	62	61	67	122	63	58	64	-191	62	60	65
64	100	13	2	25	-99	62	60	67	-139	62	61	67	139	64	63	65	-191	62	60	65
65	101	13	2.5	25.5	-99	62	60	67	-139	62	61	67	134	65	64	66	185	65	62	66
66	102	13	2.75	25.75	-99	62	60	67	-139	62	61	67	128	66	65	67	179	66	65	67
67	104	14	3	26	0	67	62	70	162	67	62	74	134	67	66	68	185	67	66	68
68	105	14	3.5	26.5	0	67	62	70	-162	67	62	74	139	68	67	69	191	68	67	69
69	106	14	4	27	0	67	62	70	-162	67	62	74	122	69	68	70	174	69	68	70
70	108	15	5	28	139	70	67	72	-162	67	62	74	0	70	69	71	0	70	69	71
71	109	15	5.5	28.5	-139	70	67	72	-162	67	62	74	139	71	70	72	191	71	70	72
72	110	15	6.5	29.5	134	72	70	73	-162	67	62	74	151	72	71	74	185	72	71	73
73	111	15	6.75	29.75	128	73	72	74	-162	67	62	74	-151	72	71	74	179	73	72	74
74	113	16	7	30	134	74	73	75	162	74	67	82	145	74	72	75	185	74	73	75
75	114	16	7.5	30.5	139	75	74	76	-162	74	67	82	139	75	74	76	191	75	74	76
76	115	16	8	31	122	76	75	77	-162	74	67	82	151	76	75	82	174	76	75	77
77	116	16	8.5	31.5	99	77	76	78	-162	74	67	82	-151	76	75	82	202	77	76	79
78	118	17	1	32	139	78	77	82	-162	74	67	82	-151	76	75	82	-202	77	76	79
79	119	17	1.25	32.25	-139	78	77	82	-162	74	67	82	-151	76	75	82	197	79	77	80
80	120	17	1.5	32.5	-139	78	77	82	-162	74	67	82	-151	76	75	82	191	80	79	81
81	121	17	1.75	32.75	-139	78	77	82	-162	74	67	82	-151	76	75	82	185	81	80	82
82	122	17	2	33	151	82	78	84	162	82	74	84	162	82	76	84	179	82	81	83
83	123	17	2.5	33.5	-151	82	78	84	-162	82	74	84	-162	82	76	84	174	83	82	84
84	125	18	3	34	145	84	82	85	157	84	82	94	168	84	82	85	185	84	83	86
85	126	18	4	35	134	85	84	86	-157	84	82	94	145	85	84	88	-185	84	83	86
86	127	18	4.5	35.5	139	86	85	88	-157	84	82	94	-145	85	84	88	179	86	84	87
87	128	18	4.75	35.75	-139	86	85	88	-157	84	82	94	-145	85	84	88	174	87	86	88
88	130	19	5	36	145	88	86	90	-157	84	82	94	0	88	85	90	168	88	87	89
89	131	19	5.5	36.5	-145	88	86	90	-157	84	82	94	0	88	85	90	185	89	88	91
90	132	19	6	37	105	90	88	94	-157	84	82	94	145	90	88	93	-185	89	88	91
91	133	19	6.25	37.25	-105	90	88	94	-157	84	82	94	-145	90	88	93	179	91	89	92
92	134	19	6.5	37.5	-105	90	88	94	-157	84	82	94	-145	90	88	93	174	92	91	93
93	135	19	6.75	37.75	-105	90	88	94	-157	84	82	94	139	93	90	94	168	93	92	94
94	137	20	7	38	111	94	90	99	151	94	84	99	134	94	93	95	162	94	93	97
95	138	20	7.25	38.25	-111	94	90	99	-151	94	84	99	128	95	94	96	-162	94	93	97
96	139	20	7.5	38.5	-111	94	90	99	-151	94	84	99	139	96	95	97	-162	94	93	97
97	140	20	8	39	-111	94	90	99	-151	94	84	99	134	97	96	99	0	97	94	98
98	141	20	8.5	39.5	-111	94	90	99	-151	94	84	99	-134	97	96	99	162	98	97	99
99	143	21	1	40	0	99	94	100	0	99	94	115	128	99	97	101	168	99	98	100
100	144	21	1.5	40.5	128	100	99	102	0	99	94	115	-128	99	97	101	179	100	99	102
101	145	21	2	41	-128	100	99	102	0	99	94	115	0	101	99	102	-179	100	99	102
102	146	21	2.5	41.5	122	102	100	103	0	99	94	115	145	102	101	105	174	102	100	104
103	148	22	3	42	134	103	102	105	0	99	94	115	-145	102	101	105	-174	102	100	104
104	149	22	3.5	42.5	-134	103	102	105	0	99	94	115	-145	102	101	105	174	104	102	105
105	150	22	4	43	128	105	103	106	0	99	94	115	151	105	102	108	179	105	104	106
106	151	22	4.5	43.5	139	106	105	108	0	99	94	115	-151	105	102	108	191	106	105	108
107	153	23	5	44	-139	106	105	108	0	99	94	115	-151	105	102	108	-191	106	105	108
108	154	23	5.5	44.5	134	108	106	109	0	99	94	115	157	108	105	110	185	108	106	110
109	155	23	6	45	145	109	108	110	0	99	94	115	-157	108	105	110	-185	108	106	110
110	156	23	6.5	45.5	105	110	109	111	0	99	94	115	157	110	108	111	185	110	108	111
111	158	24	7	46	122	111	110	114	0	99	94	115	162	111	110	112	191	111	110	113
112	159	24	7.25	46.25	-122	111	110	114	0	99	94	115	157	112	111	113	-191	111	110	113
113	160	24	7.5	46.5	-122	111	110	114	0	99	94	115	151	113	112	114	202	113	111	116
114	161	24	7.75	46.75	117	114	111	115	0	99	94	115	145	114	113	115	-202	113	111	116
115	162	24	8	47	111	115	114	118	151	115	99	118	140	115	114	118	-202	113	111	116
116	163	24	8.5	47.5	-111	115	114	118	-151	115	99	118	-140	115	114	118	197	116	113	117
117	164	24	8.75	47.75	-111	115	114	118	-151	115	99	118	-140	115	114	118	191	117	116	118
118	166	25	1	48	105	118	115	121	168	118	115	121	145	118	115	119	197	118	117	121
119	167	25	2	49	-105	118	115	121	-168	118	115	121	0	119	118	120	-197	118	117	121
120	168	25	2.5	49.5	-105	118	115	121	-168	118	115	121	145	120	119	121	-197	118	117	121
121	170	26	3	50	0	121	118	141	162	121	118	126	151	121	120	124	0	121	118	122
122	171	26	3.5	50.5	0	121	118	141	-162	121	118	126	-151	121	120	124	174	122	121	123
123	172	26	4	51	0	121	118	141	-162	121	118	126	-151	121	120	124	174	123	122	125
124	173	26	4.5	51.5	0	121	118	141	-162	121	118	126	145	124	121	125	-174	123	122	125
125	174	26	4.75	51.75	0	121	118	141	-162	121	118	126	139	125	124	126	179	125	123	126
126	176	27	5	52	0	121	118	141	0	126	121	128	134	126	125	127	185	126	125	127
127	177	27	5.5	52.5	0	121	118	141	0	126	121	128	139	127	126	129	191	127	126	129
128	178	27	6	53	0	121	118	141	162	128	126	131	-139	127	126	129	-191	127	126	129
129	179	27	6.25	53.25	0	121	118	141	-162	128	126	131	145	129	127	130	197	129	127	130
130	180	27	6.5	53.5	0	121	118	141	-162	128	126	131	151	130	129	132	202	130	129	132
131	182	28	7	54	0	121	118	141	168	131	128	133	-151	130	129	132	-202	130	129	132
132	183	28	7.5	54.5	0	121	118	141	-168	131	128	133	145	132	130	133	197	132	130	134
133	184	28	8	55	0	121	118	141	162	133	131	136	151	133	132	136	-197	132	130	134
134	185	28	8.25	55.25	0	121	118	141	-162	133	131	136	-151	133	132	136	191	134	132	135
135	186	28	8.5	55.5	0	121	118	141	-162	133	131	136	-151	133	132	136	191	135	134	137
136	188	29	1	56	0	121	118	141	157	136	133	140	134	136	133	140	-191	135	134	137
137	189	29	1.5	56.5	0	121	118	141	-157	136	133	140	-134	136	133	140	186	137	135	138
138	190	29	1.75	56.75	0	121	118	141	-157	136	133	140	-134	136	133	140	180	138	137	139
139	191	29	2	57	0	121	118	141	-157	136	133	140	-134	136	133	140	186	139	138	140
140	193	30	3	58	0	121	118	141	151	140	136	170	0	140	136	141	191	140	139	149
141	194	30	3.5	58.5	111	141	121	142	-151	140	136	170	162	141	140	142	-191	140	139	149
142	195	30	4.25	59.25	117	142	141	143	-151	140	136	170	168	142	141	143	-191	140	139	149
143	196	30	4.5	59.5	122	143	142	144	-151	140	136	170	174	143	142	144	-191	140	139	149
144	198	31	5	60	128	144	143	145	-151	140	136	170	179	144	143	145	-191	140	139	149
145	199	31	5.5	60.5	122	145	144	146	-151	140	136	170	174	145	144	146	-191	140	139	149
146	200	31	6	61	139	146	145	148	-151	140	136	170	168	146	145	147	-191	140	139	149
147	201	31	6.5	61.5	-139	146	145	148	-151	140	136	170	179	147	146	150	-191	140	139	149
148	202	31	6.75	61.75	134	148	146	149	-151	140	136	170	-179	147	146	150	-191	140	139	149
149	204	32	7	62	128	149	148	150	-151	140	136	170	-179	147	146	150	0	149	140	153
150	205	32	7.5	62.5	122	150	149	151	-151	140	136	170	174	150	147	151	0	149	140	153
151	206	32	7.75	62.75	117	151	150	152	-151	140	136	170	168	151	150	152	0	149	140	153
152	207	32	8	63	111	152	151	158	-151	140	136	170	162	152	151	154	0	149	140	153
153	208	32	8.5	63.5	-111	152	151	158	-151	140	136	170	-162	152	151	154	162	153	149	156
154	209	32	8.75	63.75	-111	152	151	158	-151	140	136	170	168	154	152	155	-162	153	149	156
155	211	33	1	64	-111	152	151	158	-151	140	136	170	174	155	154	157	-162	153	149	156
156	212	33	1.25	64.25	-111	152	151	158	-151	140	136	170	-174	155	154	157	168	156	153	157
157	213	33	1.5	64.5	-111	152	151	158	-151	140	136	170	151	157	155	159	174	157	156	158
158	214	33	2	65	111	158	152	161	-151	140	136	170	-151	157	155	159	179	158	157	160
159	215	33	2.25	65.25	-111	158	152	161	-151	140	136	170	157	159	157	160	-179	158	157	160
160	216	33	2.5	65.5	-111	158	152	161	-151	140	136	170	162	160	159	161	174	160	158	161
161	218	34	3	66	111	161	158	170	-151	140	136	170	139	161	160	162	191	161	160	163
162	219	34	3.5	66.5	-111	161	158	170	-151	140	136	170	134	162	161	164	-191	161	160	163
163	220	34	3.75	66.75	-111	161	158	170	-151	140	136	170	-134	162	161	164	185	163	161	164
164	221	34	4	67	-111	161	158	170	-151	140	136	170	122	164	162	165	179	164	163	165
165	222	34	4.5	67.5	-111	161	158	170	-151	140	136	170	128	165	164	167	174	165	164	166
166	223	34	4.75	67.75	-111	161	158	170	-151	140	136	170	-128	165	164	167	168	166	165	167
167	225	35	5	68	-111	161	158	170	-151	140	136	170	134	167	165	168	162	167	166	170
168	226	35	6	69	-111	161	158	170	-151	140	136	170	139	168	167	169	-162	167	166	170
169	228	36	7	70	-111	161	158	170	-151	140	136	170	134	169	168	170	-162	167	166	170
170	238	37	1	72	0	170	161	181	151	170	140	180	162	170	169	171	191	170	167	175
171	239	37	2	73	0	170	161	181	-151	170	140	180	162	171	170	172	-191	170	167	175
172	240	37	2.25	73.25	0	170	161	181	-151	170	140	180	157	172	171	173	-191	170	167	175
173	241	37	2.5	73.5	0	170	161	181	-151	170	140	180	151	173	172	174	-191	170	167	175
174	242	37	2.75	73.75	0	170	161	181	-151	170	140	180	145	174	173	175	-191	170	167	175
175	244	38	3	74	0	170	161	181	-151	170	140	180	139	175	174	176	191	175	170	176
176	245	38	4	75	0	170	161	181	-151	170	140	180	139	176	175	177	191	176	175	177
177	246	38	4.25	75.25	0	170	161	181	-151	170	140	180	134	177	176	178	185	177	176	178
178	247	38	4.5	75.5	0	170	161	181	-151	170	140	180	128	178	177	179	179	178	177	179
179	248	38	4.75	75.75	0	170	161	181	-151	170	140	180	122	179	178	180	174	179	178	180
180	250	39	5	76	0	170	161	181	157	180	170	182	145	180	179	181	168	180	179	182
181	251	39	6	77	128	181	170	183	-157	180	170	182	168	181	180	182	-168	180	179	182
182	253	40	7	78	-128	181	170	183	151	182	180	187	0	182	181	183	0	182	180	188
183	254	40	8	79	128	183	181	184	-151	182	180	187	168	183	182	188	0	182	180	188
184	255	40	8.25	79.25	122	184	183	185	-151	182	180	187	-168	183	182	188	0	182	180	188
185	256	40	8.5	79.5	117	185	184	186	-151	182	180	187	-168	183	182	188	0	182	180	188
186	257	40	8.75	79.75	111	186	185	187	-151	182	180	187	-168	183	182	188	0	182	180	188
187	259	41	1	80	105	187	186	197	157	187	182	197	-168	183	182	188	0	182	180	188
188	260	41	2	81	-105	187	186	197	-157	187	182	197	168	188	183	189	185	188	182	193
189	261	41	2.25	81.25	-105	187	186	197	-157	187	182	197	162	189	188	190	-185	188	182	193
190	262	41	2.5	81.5	-105	187	186	197	-157	187	182	197	157	190	189	191	-185	188	182	193
191	263	41	2.75	81.75	-105	187	186	197	-157	187	182	197	151	191	190	192	-185	188	182	193
192	265	42	3	82	-105	187	186	197	-157	187	182	197	145	192	191	193	-185	188	182	193
193	266	42	4	83	-105	187	186	197	-157	187	182	197	168	193	192	197	185	193	188	194
194	267	42	4.25	83.25	-105	187	186	197	-157	187	182	197	-168	193	192	197	179	194	193	195
195	268	42	4.5	83.5	-105	187	186	197	-157	187	182	197	-168	193	192	197	174	195	194	196
196	269	42	4.75	83.75	-105	187	186	197	-157	187	182	197	-168	193	192	197	168	196	195	197
197	271	43	5	84	0	197	187	198	151	197	187	199	174	197	193	198	162	197	196	199
198	272	43	6	85	122	198	197	200	-151	197	187	199	0	198	197	199	-162	197	196	199
199	274	44	7	86	-122	198	197	200	145	199	197	204	174	199	198	200	0	199	197	205
200	275	44	8	87	122	200	198	201	-145	199	197	204	174	200	199	201	0	199	197	205
201	276	44	8.25	87.25	117	201	200	202	-145	199	197	204	168	201	200	202	0	199	197	205
202	277	44	8.5	87.5	111	202	201	203	-145	199	197	204	162	202	201	203	0	199	197	205
203	278	44	8.75	87.75	105	203	202	204	-145	199	197	204	157	203	202	204	0	199	197	205
204	280	45	1	88	99	204	203	214	151	204	199	206	151	204	203	205	0	199	197	205
205	281	45	2	89	-99	204	203	214	-151	204	199	206	162	205	204	206	202	205	199	210
206	283	46	3	90	-99	204	203	214	0	206	204	210	162	206	205	207	-202	205	199	210
207	284	46	3.25	90.25	-99	204	203	214	0	206	204	210	157	207	206	208	-202	205	199	210
208	285	46	3.5	90.5	-99	204	203	214	0	206	204	210	151	208	207	209	-202	205	199	210
209	286	46	3.75	90.75	-99	204	203	214	0	206	204	210	145	209	208	210	-202	205	199	210
210	287	46	4	91	-99	204	203	214	151	210	206	215	139	210	209	214	202	210	205	211
211	288	46	4.25	91.25	-99	204	203	214	-151	210	206	215	-139	210	209	214	197	211	210	212
212	289	46	4.5	91.5	-99	204	203	214	-151	210	206	215	-139	210	209	214	191	212	211	213
213	290	46	4.75	91.75	-99	204	203	214	-151	210	206	215	-139	210	209	214	185	213	212	214
214	292	47	5	92	0	214	204	225	-151	210	206	215	0	214	210	215	179	214	213	219
215	293	47	6	93	0	214	204	225	151	215	210	216	162	215	214	219	-179	214	213	219
216	294	47	6.25	93.25	0	214	204	225	145	216	215	217	-162	215	214	219	-179	214	213	219
217	295	47	6.5	93.5	0	214	204	225	139	217	216	218	-162	215	214	219	-179	214	213	219
218	296	47	6.75	93.75	0	214	204	225	134	218	217	219	-162	215	214	219	-179	214	213	219
219	298	48	7	94	0	214	204	225	128	219	218	224	168	219	215	220	179	219	214	220
220	299	48	8	95	0	214	204	225	-128	219	218	224	168	220	219	221	179	220	219	224
221	300	48	8.25	95.25	0	214	204	225	-128	219	218	224	162	221	220	222	-179	220	219	224
222	301	48	8.5	95.5	0	214	204	225	-128	219	218	224	157	222	221	223	-179	220	219	224
223	302	48	8.75	95.75	0	214	204	225	-128	219	218	224	151	223	222	224	-179	220	219	224
224	304	49	1	96	0	214	204	225	0	224	219	225	145	224	223	225	185	224	220	237
225	305	49	2	97	122	225	214	233	145	225	224	229	145	225	224	226	-185	224	220	237
226	306	49	2.25	97.25	-122	225	214	233	-145	225	224	229	139	226	225	227	-185	224	220	237
227	307	49	2.5	97.5	-122	225	214	233	-145	225	224	229	134	227	226	228	-185	224	220	237
228	308	49	2.75	97.75	-122	225	214	233	-145	225	224	229	128	228	227	229	-185	224	220	237
229	310	50	3	98	-122	225	214	233	145	229	225	230	122	229	228	233	-185	224	220	237
230	311	50	3.25	98.25	-122	225	214	233	139	230	229	231	-122	229	228	233	-185	224	220	237
231	312	50	3.5	98.5	-122	225	214	233	134	231	230	232	-122	229	228	233	-185	224	220	237
232	313	50	3.75	98.75	-122	225	214	233	128	232	231	233	-122	229	228	233	-185	224	220	237
233	314	50	4	99	122	233	225	234	122	233	232	237	162	233	229	238	-185	224	220	237
234	315	50	4.25	99.25	117	234	233	235	-122	233	232	237	-162	233	229	238	-185	224	220	237
235	316	50	4.5	99.5	111	235	234	236	-122	233	232	237	-162	233	229	238	-185	224	220	237
236	317	50	4.75	99.75	105	236	235	237	-122	233	232	237	-162	233	229	238	-185	224	220	237
237	319	51	5	100	99	237	236	238	0	237	233	240	-162	233	229	238	0	237	224	238
238	320	51	5.5	100.5	139	238	237	241	0	237	233	240	157	238	233	239	191	238	237	240
239	321	51	5.75	100.75	-139	238	237	241	0	237	233	240	151	239	238	240	-191	238	237	240
240	322	51	6	101	-139	238	237	241	139	240	237	243	162	240	239	241	191	240	238	242
241	323	51	6.5	101.5	128	241	238	243	-139	240	237	243	168	241	240	243	-191	240	238	242
242	324	51	6.75	101.75	-128	241	238	243	-139	240	237	243	-168	241	240	243	197	242	240	243
243	326	52	7	102	134	243	241	244	145	243	240	244	157	243	241	244	185	243	242	244
244	327	52	7.5	102.5	122	244	243	245	151	244	243	246	162	244	243	245	174	244	243	245
245	328	52	8	103	128	245	244	247	-151	244	243	246	151	245	244	246	179	245	244	247
246	329	52	8.5	103.5	-128	245	244	247	128	246	244	248	157	246	245	248	-179	245	244	247
247	330	52	8.75	103.75	117	247	245	248	-128	246	244	248	-157	246	245	248	185	247	245	248
248	332	53	1	104	122	248	247	249	134	248	246	249	145	248	246	249	174	248	247	249
249	333	53	1.5	104.5	111	249	248	250	139	249	248	250	151	249	248	250	162	249	248	250
250	334	53	2	105	117	250	249	251	128	250	249	251	139	250	249	251	168	250	249	252
251	335	53	2.5	105.5	105	251	250	253	157	251	250	253	145	251	250	253	-168	250	249	252
252	336	53	2.75	105.75	-105	251	250	253	-157	251	250	253	-145	251	250	253	174	252	250	253
253	338	54	3	106	111	253	251	260	151	253	251	254	134	253	251	254	162	253	252	254
254	339	54	3.5	106.5	-111	253	251	260	162	254	253	256	122	254	253	255	151	254	253	255
255	340	54	4	107	-111	253	251	260	-162	254	253	256	162	255	254	260	174	255	254	258
256	341	54	4.25	107.25	-111	253	251	260	157	256	254	257	-162	255	254	260	-174	255	254	258
257	342	54	4.5	107.5	-111	253	251	260	151	257	256	261	-162	255	254	260	-174	255	254	258
258	343	54	4.75	107.75	-111	253	251	260	-151	257	256	261	-162	255	254	260	168	258	255	259
259	344	54	4.875	107.875	-111	253	251	260	-151	257	256	261	-162	255	254	260	162	259	258	260
260	346	55	5	108	0	260	253	271	-151	257	256	261	0	260	255	267	157	260	259	261
261	347	55	5.5	108.5	0	260	253	271	145	261	257	262	0	260	255	267	197	261	260	262
262	348	55	6	109	0	260	253	271	151	262	261	267	0	260	255	267	191	262	261	263
263	349	55	6.5	109.5	0	260	253	271	-151	262	261	267	0	260	255	267	202	263	262	265
264	351	56	7	110	0	260	253	271	-151	262	261	267	0	260	255	267	-202	263	262	265
265	352	56	7.25	110.25	0	260	253	271	-151	262	261	267	0	260	255	267	197	265	263	266
266	353	56	7.5	110.5	0	260	253	271	-151	262	261	267	0	260	255	267	191	266	265	268
267	354	56	8	111	0	260	253	271	157	267	262	270	168	267	260	269	-191	266	265	268
268	355	56	8.5	111.5	0	260	253	271	-157	267	262	270	-168	267	260	269	186	268	266	270
269	356	56	8.75	111.75	0	260	253	271	-157	267	262	270	174	269	267	270	-186	268	266	270
270	358	57	1	112	0	260	253	271	151	270	267	274	179	270	269	271	191	270	268	274
271	359	57	1.5	112.5	128	271	260	272	-151	270	267	274	179	271	270	272	-191	270	268	274
272	360	57	2	113	128	272	271	273	-151	270	267	274	174	272	271	274	-191	270	268	274
273	361	57	2.5	113.5	122	273	272	274	-151	270	267	274	-174	272	271	274	-191	270	268	274
274	363	58	3	114	139	274	273	276	0	274	270	279	151	274	272	276	0	274	270	275
275	364	58	3.5	114.5	-139	274	273	276	0	274	270	279	-151	274	272	276	191	275	274	276
276	365	58	4	115	134	276	274	278	0	274	270	279	157	276	274	278	191	276	275	277
277	366	58	4.5	115.5	-134	276	274	278	0	274	270	279	-157	276	274	278	185	277	276	278
278	368	59	5	116	111	278	276	280	0	274	270	279	151	278	276	280	202	278	277	280
279	369	59	5.5	116.5	-111	278	276	280	151	279	274	280	-151	278	276	280	-202	278	277	280
280	370	59	6	117	0	280	278	284	151	280	279	281	0	280	278	282	197	280	278	282
281	371	59	6.5	117.5	0	280	278	284	145	281	280	282	0	280	278	282	-197	280	278	282
282	373	60	7	118	0	280	278	284	162	282	281	284	174	282	280	286	0	282	280	283
283	374	60	7.5	118.5	0	280	278	284	-162	282	281	284	-174	282	280	286	191	283	282	285
284	375	60	8	119	134	284	280	286	157	284	282	286	-174	282	280	286	-191	283	282	285
285	376	60	8.5	119.5	-134	284	280	286	-157	284	282	286	-174	282	280	286	185	285	283	286
286	378	61	1	120	111	286	284	288	0	286	284	287	174	286	282	295	191	286	285	287
287	379	61	1.5	120.5	-111	286	284	288	151	287	286	289	-174	286	282	295	202	287	286	289
288	380	61	2	121	134	288	286	291	-151	287	286	289	-174	286	282	295	-202	287	286	289
289	381	61	2.5	121.5	-134	288	286	291	145	289	287	291	-174	286	282	295	197	289	287	290
290	382	61	2.75	121.75	-134	288	286	291	-145	289	287	291	-174	286	282	295	191	290	289	291
291	384	62	3	122	0	291	288	293	162	291	289	293	-174	286	282	295	197	291	290	292
292	385	62	3.5	122.5	0	291	288	293	-162	291	289	293	-174	286	282	295	191	292	291	294
293	386	62	4	123	134	293	291	295	157	293	291	295	-174	286	282	295	-191	292	291	294
294	387	62	4.5	123.5	-134	293	291	295	-157	293	291	295	-174	286	282	295	186	294	292	295
295	389	63	5	124	111	295	293	296	151	295	293	298	0	295	286	298	191	295	294	296
296	390	63	5.5	124.5	151	296	295	298	-151	295	293	298	0	295	286	298	202	296	295	298
297	391	63	6	125	-151	296	295	298	-151	295	293	298	0	295	286	298	-202	296	295	298
298	392	63	6.5	125.5	145	298	296	299	157	298	295	299	168	298	295	300	197	298	296	299
299	394	64	7	126	139	299	298	301	162	299	298	302	-168	298	295	300	191	299	298	303
300	395	64	7.5	126.5	-139	299	298	301	-162	299	298	302	162	300	298	302	-191	299	298	303
301	396	64	7.75	126.75	134	301	299	302	-162	299	298	302	-162	300	298	302	-191	299	298	303
302	397	64	8	127	128	302	301	303	168	302	299	303	179	302	300	303	-191	299	298	303
303	399	65	1	128	134	303	302	304	157	303	302	304	174	303	302	304	185	303	299	304
304	409	66	3	130	111	304	303	306	151	304	303	306	162	304	303	306	0	304	303	305
305	410	66	4	131	-111	304	303	306	-151	304	303	306	-162	304	303	306	174	305	304	306
306	412	67	5	132	111	306	304	307	151	306	304	307	162	306	304	307	174	306	305	307
307	413	67	6	133	105	307	306	309	157	307	306	309	168	307	306	308	185	307	306	309
308	414	67	6.5	133.5	-105	307	306	309	-157	307	306	309	174	308	307	309	-185	307	306	309
309	416	68	7	134	99	309	307	310	151	309	307	312	179	309	308	311	191	309	307	314
310	417	68	7.5	134.5	139	310	309	313	-151	309	307	312	-179	309	308	311	-191	309	307	314
311	418	68	7.75	134.75	-139	310	309	313	-151	309	307	312	174	311	309	312	-191	309	307	314
312	419	68	8	135	-139	310	309	313	151	312	309	313	162	312	311	313	-191	309	307	314
313	420	68	8.5	135.5	139	313	310	315	151	313	312	315	168	313	312	314	-191	309	307	314
314	422	69	1	136	-139	313	310	315	-151	313	312	315	128	314	313	317	191	314	309	317
315	423	69	1.5	136.5	134	315	313	316	145	315	313	316	-128	314	313	317	-191	314	309	317
316	424	69	1.75	136.75	128	316	315	317	139	316	315	317	-128	314	313	317	-191	314	309	317
317	425	69	2	137	151	317	316	319	162	317	316	321	0	317	314	318	191	317	314	318
318	426	69	2.5	137.5	-151	317	316	319	-162	317	316	321	151	318	317	320	191	318	317	321
319	428	70	3	138	111	319	317	324	-162	317	316	321	-151	318	317	320	-191	318	317	321
320	429	70	3.25	138.25	-111	319	317	324	-162	317	316	321	145	320	318	321	-191	318	317	321
321	430	70	3.5	138.5	-111	319	317	324	157	321	317	323	134	321	320	323	185	321	318	322
322	431	70	3.75	138.75	-111	319	317	324	-157	321	317	323	-134	321	320	323	179	322	321	323
323	432	70	4	139	-111	319	317	324	151	323	321	324	139	323	321	324	202	323	322	325
324	434	71	5	140	0	324	319	325	145	324	323	326	134	324	323	326	-202	323	322	325
325	435	71	5.5	140.5	134	325	324	326	-145	324	323	326	-134	324	323	326	197	325	323	326
326	436	71	6	141	139	326	325	327	0	326	324	327	0	326	324	327	191	326	325	328
327	437	71	6.5	141.5	128	327	326	328	168	327	326	328	139	327	326	328	-191	326	325	328
328	439	72	7	142	134	328	327	332	157	328	327	329	145	328	327	329	185	328	326	330
329	440	72	7.5	142.5	-134	328	327	332	162	329	328	331	122	329	328	330	-185	328	326	330
330	441	72	8	143	-134	328	327	332	-162	329	328	331	145	330	329	332	0	330	328	331
331	442	72	8.5	143.5	-134	328	327	332	157	331	329	332	-145	330	329	332	185	331	330	332
332	444	73	1	144	0	332	328	333	162	332	331	333	0	332	330	333	191	332	331	333
333	445	73	1.5	144.5	134	333	332	334	157	333	332	334	145	333	332	334	185	333	332	334
334	446	73	2	145	139	334	333	335	151	334	333	335	128	334	333	335	191	334	333	335
335	447	73	2.5	145.5	128	335	334	336	168	335	334	336	139	335	334	336	179	335	334	336
336	449	74	3	146	134	336	335	337	145	336	335	337	134	336	335	337	185	336	335	337
337	450	74	3.5	146.5	111	337	336	338	162	337	336	340	151	337	336	339	174	337	336	338
338	451	74	4	147	117	338	337	340	-162	337	336	340	-151	337	336	339	168	338	337	341
339	452	74	4.25	147.25	-117	338	337	340	-162	337	336	340	139	339	337	340	-168	338	337	341
340	453	74	4.5	147.5	105	340	338	341	157	340	337	342	145	340	339	341	-168	338	337	341
341	455	75	5	148	111	341	340	343	-157	340	337	342	134	341	340	343	0	341	338	342
342	456	75	5.5	148.5	-111	341	340	343	151	342	340	344	-134	341	340	343	202	342	341	344
343	457	75	6	149	134	343	341	345	-151	342	340	344	0	343	341	344	-202	342	341	344
344	458	75	6.5	149.5	-134	343	341	345	145	344	342	345	174	344	343	346	197	344	342	346
345	460	76	7	150	0	345	343	347	151	345	344	347	-174	344	343	346	-197	344	342	346
346	461	76	7.5	150.5	0	345	343	347	-151	345	344	347	174	346	344	347	191	346	344	348
347	462	76	8	151	134	347	345	349	157	347	345	349	174	347	346	350	-191	346	344	348
348	463	76	8.5	151.5	-134	347	345	349	-157	347	345	349	-174	347	346	350	186	348	346	349
349	465	77	1	152	111	349	347	350	151	349	347	350	-174	347	346	350	191	349	348	352
350	466	77	2	153	111	350	349	351	0	350	349	353	162	350	347	351	-191	349	348	352
351	467	77	2.75	153.75	117	351	350	352	0	350	349	353	168	351	350	352	-191	349	348	352
352	469	78	3	154	122	352	351	353	0	350	349	353	174	352	351	353	0	352	349	354
353	470	78	3.5	154.5	128	353	352	355	139	353	350	355	179	353	352	354	0	352	349	354
354	471	78	4	155	-128	353	352	355	-139	353	350	355	168	354	353	355	191	354	352	358
355	472	78	4.5	155.5	122	355	353	356	134	355	353	357	174	355	354	356	-191	354	352	358
356	474	79	5	156	128	356	355	358	-134	355	353	357	151	356	355	357	-191	354	352	358
357	475	79	5.5	156.5	-128	356	355	358	128	357	355	359	179	357	356	359	-191	354	352	358
358	476	79	6	157	111	358	356	360	-128	357	355	359	-179	357	356	359	191	358	354	360
359	477	79	6.5	157.5	-111	358	356	360	122	359	357	360	174	359	357	361	-191	358	354	360
360	479	80	7	158	0	360	358	362	128	360	359	362	-174	359	357	361	191	360	358	364
361	480	80	7.5	158.5	0	360	358	362	-128	360	359	362	168	361	359	363	-191	360	358	364
362	481	80	8	159	111	362	360	364	134	362	360	364	-168	361	359	363	-191	360	358	364
363	482	80	8.5	159.5	-111	362	360	364	-134	362	360	364	163	363	361	364	-191	360	358	364
364	484	81	1	160	116	364	362	365	128	364	362	366	168	364	363	366	179	364	360	366
365	485	81	2.5	161.5	111	365	364	366	-128	364	362	366	-168	364	363	366	-179	364	360	366
366	487	82	3	162	105	366	365	367	134	366	364	367	157	366	364	367	185	366	364	367
367	488	82	4	163	99	367	366	368	139	367	366	369	151	367	366	369	191	367	366	368
368	489	82	4.5	163.5	139	368	367	369	-139	367	366	369	-151	367	366	369	179	368	367	369
369	491	83	5	164	122	369	368	370	145	369	367	370	0	369	367	370	174	369	368	370
370	492	83	5.5	164.5	139	370	369	371	151	370	369	371	162	370	369	372	179	370	369	371
371	493	83	6	165	134	371	370	372	145	371	370	372	-162	370	369	372	185	371	370	372
372	494	83	6.5	165.5	139	372	371	374	162	372	371	374	157	372	370	373	191	372	371	374
373	495	83	6.75	165.75	-139	372	371	374	-162	372	371	374	151	373	372	374	-191	372	371	374
374	497	84	7	166	145	374	372	375	157	374	372	375	145	374	373	375	197	374	372	375
375	498	84	7.5	166.5	151	375	374	377	151	375	374	376	139	375	374	376	202	375	374	377
376	499	84	8	167	-151	375	374	377	162	376	375	387	151	376	375	379	-202	375	374	377
377	500	84	8.5	167.5	139	377	375	380	-162	376	375	387	-151	376	375	379	197	377	375	378
378	501	84	8.75	167.75	-139	377	375	380	-162	376	375	387	-151	376	375	379	191	378	377	379
379	503	85	1	168	-139	377	375	380	-162	376	375	387	0	379	376	380	185	379	378	381
380	504	85	1.5	168.5	134	380	377	381	-162	376	375	387	162	380	379	382	-185	379	378	381
381	505	85	2	169	139	381	380	384	-162	376	375	387	-162	380	379	382	0	381	379	383
382	506	85	2.25	169.25	-139	381	380	384	-162	376	375	387	157	382	380	383	0	381	379	383
383	507	85	2.5	169.5	-139	381	380	384	-162	376	375	387	151	383	382	384	202	383	381	385
384	509	86	3	170	0	384	381	386	-162	376	375	387	145	384	383	386	-202	383	381	385
385	510	86	3.25	170.25	0	384	381	386	-162	376	375	387	-145	384	383	386	197	385	383	386
386	511	86	3.5	170.5	139	386	384	387	-162	376	375	387	139	386	384	387	191	386	385	387
387	512	86	4	171	134	387	386	388	162	387	376	389	145	387	386	388	185	387	386	388
388	513	86	4.5	171.5	139	388	387	389	-162	387	376	389	151	388	387	389	202	388	387	390
389	515	87	5	172	134	389	388	391	0	389	387	391	145	389	388	391	-202	388	387	390
390	516	87	5.25	172.25	-134	389	388	391	0	389	387	391	-145	389	388	391	197	390	388	391
391	517	87	5.5	172.5	139	391	389	392	162	391	389	393	139	391	389	392	191	391	390	392
392	518	87	6	173	134	392	391	394	-162	391	389	393	162	392	391	395	185	392	391	394
393	519	87	6.25	173.25	-134	392	391	394	157	393	391	394	-162	392	391	395	-185	392	391	394
394	520	87	6.5	173.5	139	394	392	395	151	394	393	395	-162	392	391	395	179	394	392	396
395	522	88	7	174	122	395	394	398	145	395	394	398	162	395	392	397	-179	394	392	396
396	523	88	7.5	174.5	-122	395	394	398	-145	395	394	398	-162	395	392	397	174	396	394	398
397	524	88	7.75	174.75	-122	395	394	398	-145	395	394	398	157	397	395	398	-174	396	394	398
398	525	88	8	175	99	398	395	399	139	398	395	400	162	398	397	399	179	398	396	399
399	526	88	8.5	175.5	116	399	398	400	-139	398	395	400	168	399	398	400	168	399	398	400
400	528	89	1	176	122	400	399	401	134	400	398	401	162	400	399	401	174	400	399	401
401	529	89	1.5	176.5	128	401	400	402	128	401	400	402	151	401	400	402	179	401	400	403
402	530	89	2	177	116	402	401	404	139	402	401	404	156	402	401	404	-179	401	400	403
403	531	89	2.5	177.5	-116	402	401	404	-139	402	401	404	-156	402	401	404	168	403	401	404
404	533	90	3	178	122	404	402	405	134	404	402	405	145	404	402	405	174	404	403	405
405	534	90	3.5	178.5	128	405	404	406	128	405	404	406	139	405	404	406	179	405	404	407
406	535	90	4	179	116	406	405	409	139	406	405	407	128	406	405	409	-179	405	404	407
407	536	90	4.5	179.5	-116	406	405	409	145	407	406	409	-128	406	405	409	174	407	405	408
408	537	90	4.75	179.75	-116	406	405	409	-145	407	406	409	-128	406	405	409	168	408	407	409
409	539	91	5	180	111	409	406	410	151	409	407	410	134	409	406	410	162	409	408	410
410	540	91	6	181	0	410	409	411	128	410	409	413	139	410	409	412	0	410	409	411
411	541	91	6.5	181.5	128	411	410	414	-128	410	409	413	-139	410	409	412	179	411	410	414
412	542	91	6.75	181.75	-128	411	410	414	-128	410	409	413	145	412	410	413	-179	411	410	414
413	544	92	7	182	-128	411	410	414	0	413	410	414	151	413	412	414	-179	411	410	414
414	545	92	7.5	182.5	116	414	411	415	139	414	413	415	156	414	413	415	168	414	411	415
415	546	92	8	183	122	415	414	416	134	415	414	416	145	415	414	416	174	415	414	416
416	547	92	8.5	183.5	128	416	415	418	128	416	415	417	139	416	415	417	179	416	415	418
417	549	93	1	184	-128	416	415	418	139	417	416	419	151	417	416	418	-179	416	415	418
418	550	93	1.5	184.5	116	418	416	419	-139	417	416	419	156	418	417	419	168	418	416	419
419	551	93	2	185	122	419	418	420	134	419	417	420	145	419	418	420	174	419	418	420
420	552	93	2.5	185.5	128	420	419	421	151	420	419	422	139	420	419	421	179	420	419	423
421	554	94	3	186	116	421	420	425	-151	420	419	422	128	421	420	425	-179	420	419	423
422	555	94	3.25	186.25	-116	421	420	425	145	422	420	423	-128	421	420	425	-179	420	419	423
423	556	94	3.5	186.5	-116	421	420	425	145	423	422	426	-128	421	420	425	174	423	420	424
424	557	94	3.75	186.75	-116	421	420	425	-145	423	422	426	-128	421	420	425	168	424	423	425
425	558	94	4	187	111	425	421	428	-145	423	422	426	151	425	421	428	162	425	424	428
426	559	94	4.25	187.25	-111	425	421	428	134	426	423	427	-151	425	421	428	-162	425	424	428
427	560	94	4.5	187.5	-111	425	421	428	139	427	426	428	-151	425	421	428	-162	425	424	428
428	562	95	5	188	105	428	425	433	145	428	427	429	156	428	425	433	0	428	425	429
429	563	95	5.5	188.5	-105	428	425	433	128	429	428	430	-156	428	425	433	168	429	428	430
430	564	95	6	189	-105	428	425	433	145	430	429	432	-156	428	425	433	174	430	429	431
431	565	95	6.5	189.5	-105	428	425	433	-145	430	429	432	-156	428	425	433	185	431	430	434
432	566	95	6.75	189.75	-105	428	425	433	139	432	430	433	-156	428	425	433	-185	431	430	434
433	568	96	7	190	111	433	428	439	134	433	432	434	151	433	428	439	-185	431	430	434
434	569	96	7.25	190.25	-111	433	428	439	128	434	433	435	-151	433	428	439	179	434	431	435
435	570	96	7.5	190.5	-111	433	428	439	139	435	434	437	-151	433	428	439	174	435	434	436
436	571	96	7.75	190.75	-111	433	428	439	-139	435	434	437	-151	433	428	439	168	436	435	437
437	572	96	8	191	-111	433	428	439	134	437	435	439	-151	433	428	439	168	437	436	438
438	573	96	8.75	191.75	-111	433	428	439	-134	437	435	439	-151	433	428	439	163	438	437	439
439	575	97	1	192	128	439	433	440	128	439	437	440	151	439	433	440	168	439	438	440
440	577	98	1	194	0	440	439	-1	0	440	439	-1	0	440	439	-1	0	440	439	-1
