% !!!COM:	Johannes Ockeghem
% !!!CDT:	~1425-1497/02/06
% !!!OPR:	Missa L'homme arm&eacute;
% !!!ONM:	2
% !!!OTL:	Gloria
% !!!AGN:	Mass; Gloria
% !!!SCT:	Ock1008b
% !!!SCA:	Ock1008b
% !!!voices:	4
% !!!voices-OPR:	4
% !!primary-mensuration: met(O)
% !!section: Et in terra pax
% !!!OMD: Et in terra pax
%%idx	%%line	%%bar	%%beat	%%abs	%%b40	%%attk	%%last	%%next	%%b40	%%attk	%%last	%%next	%%b40	%%attk	%%last	%%next	%%b40	%%attk	%%last	%%next
0	2000	3000	4000	5000	1040	7100	7200	7300	1040	7100	7200	7300	1040	7100	7200	7300	1040	7100	7200	7300
1	26	1	1	0	145	1	-1	2	145	1	-1	3	168	1	-1	3	185	1	-1	2
2	27	1	2	1	145	2	1	3	-145	1	-1	3	-168	1	-1	3	185	2	1	3
3	28	1	3	2	145	3	2	4	145	3	1	4	168	3	1	4	185	3	2	4
4	30	2	4	3	122	4	3	8	162	4	3	7	174	4	3	6	191	4	3	5
5	31	2	5	4	-122	4	3	8	-162	4	3	7	-174	4	3	6	185	5	4	7
6	32	2	5.5	4.5	-122	4	3	8	-162	4	3	7	162	6	4	7	-185	5	4	7
7	33	2	6	5	-122	4	3	8	162	7	4	8	174	7	6	8	202	7	5	8
8	35	3	7	6	145	8	4	9	157	8	7	9	168	8	7	9	208	8	7	9
9	36	3	8	7	162	9	8	13	151	9	8	13	162	9	8	10	214	9	8	11
10	37	3	9	8	-162	9	8	13	-151	9	8	13	0	10	9	13	-214	9	8	11
11	38	3	9.5	8.5	-162	9	8	13	-151	9	8	13	0	10	9	13	208	11	9	12
12	39	3	9.75	8.75	-162	9	8	13	-151	9	8	13	0	10	9	13	202	12	11	13
13	41	4	10	9	168	13	9	16	145	13	9	16	185	13	10	16	197	13	12	14
14	42	4	11	10	-168	13	9	16	-145	13	9	16	-185	13	10	16	202	14	13	15
15	43	4	11.5	10.5	-168	13	9	16	-145	13	9	16	-185	13	10	16	208	15	14	17
16	44	4	12	11	157	16	13	19	0	16	13	37	179	16	13	19	-208	15	14	17
17	45	4	12.25	11.25	-157	16	13	19	0	16	13	37	-179	16	13	19	202	17	15	18
18	46	4	12.5	11.5	-157	16	13	19	0	16	13	37	-179	16	13	19	191	18	17	19
% !!linebreak:original
19	49	5	1	12	162	19	16	21	0	16	13	37	174	19	16	21	185	19	18	20
20	50	5	1.5	12.5	-162	19	16	21	0	16	13	37	-174	19	16	21	202	20	19	21
21	51	5	2	13	145	21	19	25	0	16	13	37	168	21	19	25	208	21	20	22
22	52	5	2.5	13.5	-145	21	19	25	0	16	13	37	-168	21	19	25	197	22	21	23
23	53	5	3.25	14.25	-145	21	19	25	0	16	13	37	-168	21	19	25	191	23	22	24
24	54	5	3.5	14.5	-145	21	19	25	0	16	13	37	-168	21	19	25	197	24	23	25
25	58	6	4	15	122	25	21	26	0	16	13	37	162	25	21	28	202	25	24	29
26	59	6	4.33333	15.3333	139	26	25	27	0	16	13	37	-162	25	21	28	-202	25	24	29
27	60	6	4.66667	15.6667	145	27	26	28	0	16	13	37	-162	25	21	28	-202	25	24	29
28	61	6	5	16	151	28	27	30	0	16	13	37	151	28	25	29	-202	25	24	29
29	62	6	5.5	16.5	-151	28	27	30	0	16	13	37	157	29	28	34	197	29	25	32
30	63	6	5.66667	16.6667	145	30	28	31	0	16	13	37	-157	29	28	34	-197	29	25	32
31	64	6	5.83333	16.8333	139	31	30	32	0	16	13	37	-157	29	28	34	-197	29	25	32
32	65	6	6	17	145	32	31	33	0	16	13	37	-157	29	28	34	185	32	29	35
33	66	6	6.33333	17.3333	134	33	32	35	0	16	13	37	-157	29	28	34	-185	32	29	35
34	67	6	6.5	17.5	-134	33	32	35	0	16	13	37	162	34	29	35	-185	32	29	35
35	71	7	7	18	128	35	33	36	0	16	13	37	168	35	34	36	179	35	32	36
36	72	7	7.75	18.75	134	36	35	37	0	16	13	37	162	36	35	37	185	36	35	37
37	73	7	8	19	139	37	36	38	168	37	16	39	151	37	36	38	191	37	36	38
38	74	7	8.5	19.5	145	38	37	39	-168	37	16	39	145	38	37	39	196	38	37	39
39	75	7	9	20	151	39	38	40	168	39	37	41	128	39	38	41	191	39	38	40
40	76	7	9.5	20.5	139	40	39	41	-168	39	37	41	-128	39	38	41	208	40	39	42
41	78	8	10	21	156	41	40	43	145	41	39	43	0	41	39	53	-208	40	39	42
42	79	8	10.5	21.5	-156	41	40	43	-145	41	39	43	0	41	39	53	185	42	40	45
43	80	8	11	22	151	43	41	44	0	43	41	58	0	41	39	53	-185	42	40	45
44	81	8	11.25	22.25	145	44	43	45	0	43	41	58	0	41	39	53	-185	42	40	45
45	82	8	11.5	22.5	168	45	44	48	0	43	41	58	0	41	39	53	191	45	42	46
46	83	8	12	23	-168	45	44	48	0	43	41	58	0	41	39	53	197	46	45	47
47	84	8	12.75	23.75	-168	45	44	48	0	43	41	58	0	41	39	53	185	47	46	48
% !!linebreak:original
48	87	9	1	24	162	48	45	49	0	43	41	58	0	41	39	53	191	48	47	49
49	88	9	1.5	24.5	151	49	48	52	0	43	41	58	0	41	39	53	202	49	48	51
50	89	9	2	25	-151	49	48	52	0	43	41	58	0	41	39	53	-202	49	48	51
51	90	9	2.25	25.25	-151	49	48	52	0	43	41	58	0	41	39	53	197	51	49	52
52	91	9	2.5	25.5	162	52	49	53	0	43	41	58	0	41	39	53	191	52	51	54
53	92	9	3	26	156	53	52	57	0	43	41	58	168	53	41	57	-191	52	51	54
54	93	9	3.25	26.25	-156	53	52	57	0	43	41	58	-168	53	41	57	185	54	52	55
55	94	9	3.375	26.375	-156	53	52	57	0	43	41	58	-168	53	41	57	179	55	54	56
56	95	9	3.5	26.5	-156	53	52	57	0	43	41	58	-168	53	41	57	185	56	55	57
57	97	10	4	27	151	57	53	58	0	43	41	58	174	57	53	58	191	57	56	59
58	98	10	5	28	139	58	57	59	168	58	43	59	179	58	57	59	-191	57	56	59
59	99	10	6	29	145	59	58	62	168	59	58	62	168	59	58	60	197	59	57	61
60	100	10	6.5	29.5	-145	59	58	62	-168	59	58	62	185	60	59	63	-197	59	57	61
61	101	10	6.75	29.75	-145	59	58	62	-168	59	58	62	-185	60	59	63	185	61	59	62
62	103	11	7	30	128	62	59	65	168	62	59	65	-185	60	59	63	197	62	61	64
63	104	11	7.25	30.25	-128	62	59	65	-168	62	59	65	179	63	60	64	-197	62	61	64
64	105	11	7.5	30.5	-128	62	59	65	-168	62	59	65	179	64	63	65	191	64	62	66
65	106	11	8	31	0	65	62	66	162	65	62	69	185	65	64	66	-191	64	62	66
66	107	11	8.5	31.5	139	66	65	67	-162	65	62	69	191	66	65	67	179	66	64	67
67	108	11	9.25	32.25	134	67	66	68	-162	65	62	69	185	67	66	68	185	67	66	68
68	109	11	9.5	32.5	122	68	67	69	-162	65	62	69	185	68	67	69	174	68	67	69
69	111	12	10	33	145	69	68	71	157	69	65	71	168	69	68	70	168	69	68	71
70	112	12	10.5	33.5	-145	69	68	71	-157	69	65	71	185	70	69	72	-168	69	68	71
71	113	12	11	34	0	71	69	74	151	71	69	76	-185	70	69	72	162	71	69	74
72	114	12	11.25	34.25	0	71	69	74	-151	71	69	76	179	72	70	73	-162	71	69	74
73	115	12	11.5	34.5	0	71	69	74	-151	71	69	76	185	73	72	74	-162	71	69	74
74	116	12	12	35	139	74	71	76	-151	71	69	76	191	74	73	75	0	74	71	76
75	117	12	12.5	35.5	-139	74	71	76	-151	71	69	76	179	75	74	76	0	74	71	76
% !!pagebreak:original
76	120	13	1	36	156	76	74	77	145	76	71	82	185	76	75	80	168	76	74	78
77	121	13	1.75	36.75	162	77	76	78	-145	76	71	82	-185	76	75	80	-168	76	74	78
78	122	13	2	37	168	78	77	79	-145	76	71	82	-185	76	75	80	185	78	76	82
79	123	13	2.25	37.25	173	79	78	80	-145	76	71	82	-185	76	75	80	-185	78	76	82
80	124	13	2.5	37.5	168	80	79	83	-145	76	71	82	179	80	76	81	-185	78	76	82
81	125	13	2.75	37.75	-168	80	79	83	-145	76	71	82	174	81	80	82	-185	78	76	82
82	126	13	3	38	-168	80	79	83	0	82	76	92	168	82	81	84	179	82	78	84
83	127	13	3.25	38.25	156	83	80	84	0	82	76	92	-168	82	81	84	-179	82	78	84
84	128	13	3.5	38.5	162	84	83	85	0	82	76	92	174	84	82	85	191	84	82	86
85	130	14	4	39	168	85	84	86	0	82	76	92	179	85	84	86	-191	84	82	86
86	131	14	4.5	39.5	145	86	85	87	0	82	76	92	168	86	85	89	197	86	84	88
87	132	14	5	40	157	87	86	89	0	82	76	92	-168	86	85	89	-197	86	84	88
88	133	14	5.25	40.25	-157	87	86	89	0	82	76	92	-168	86	85	89	185	88	86	89
89	134	14	5.5	40.5	162	89	87	90	0	82	76	92	174	89	86	90	185	89	88	91
90	135	14	6	41	151	90	89	92	0	82	76	92	162	90	89	92	-185	89	88	91
91	136	14	6.5	41.5	-151	90	89	92	0	82	76	92	-162	90	89	92	180	91	89	92
92	138	15	7	42	145	92	90	94	168	92	82	93	0	92	90	94	185	92	91	93
93	139	15	8	43	-145	92	90	94	168	93	92	94	0	92	90	94	0	93	92	94
94	140	15	9	44	0	94	92	95	168	94	93	95	179	94	92	95	197	94	93	95
95	142	16	10	45	157	95	94	96	145	95	94	99	185	95	94	97	208	95	94	96
96	143	16	11	46	157	96	95	99	-145	95	94	99	-185	95	94	97	208	96	95	99
97	144	16	11.5	46.5	-157	96	95	99	-145	95	94	99	179	97	95	98	-208	96	95	99
98	145	16	11.75	46.75	-157	96	95	99	-145	95	94	99	174	98	97	99	-208	96	95	99
99	146	16	12	47	157	99	96	100	0	99	95	100	168	99	98	100	208	99	96	100
% !!linebreak:original
100	149	17	1	48	162	100	99	101	185	100	99	102	162	100	99	101	214	100	99	101
101	150	17	2	49	145	101	100	102	-185	100	99	102	157	101	100	102	208	101	100	103
102	151	17	3	50	162	102	101	105	185	102	100	104	174	102	101	104	-208	101	100	103
103	152	17	3.5	50.5	-162	102	101	105	-185	102	100	104	-174	102	101	104	202	103	101	104
104	154	18	4	51	-162	102	101	105	179	104	102	107	162	104	102	105	202	104	103	106
105	155	18	5	52	168	105	102	108	-179	104	102	107	0	105	104	108	-202	104	103	106
106	156	18	5.5	52.5	-168	105	102	108	-179	104	102	107	0	105	104	108	191	106	104	107
107	157	18	6	53	-168	105	102	108	179	107	104	108	0	105	104	108	197	107	106	108
108	159	19	7	54	162	108	105	110	185	108	107	111	174	108	105	111	202	108	107	109
109	160	19	8	55	-162	108	105	110	-185	108	107	111	-174	108	105	111	202	109	108	111
110	161	19	8.5	55.5	157	110	108	111	-185	108	107	111	-174	108	105	111	-202	109	108	111
111	162	19	9	56	145	111	110	112	185	111	108	112	168	111	108	112	197	111	109	112
112	164	20	10	57	0	112	111	114	168	112	111	117	179	112	111	113	191	112	111	113
113	165	20	10.5	57.5	0	112	111	114	-168	112	111	117	185	113	112	114	208	113	112	115
114	166	20	11	58	168	114	112	120	-168	112	111	117	191	114	113	117	-208	113	112	115
115	167	20	11.25	58.25	-168	114	112	120	-168	112	111	117	-191	114	113	117	202	115	113	116
116	168	20	11.5	58.5	-168	114	112	120	-168	112	111	117	-191	114	113	117	191	116	115	118
117	169	20	12	59	-168	114	112	120	0	117	112	120	0	117	114	121	-191	116	115	118
118	170	20	12.25	59.25	-168	114	112	120	0	117	112	120	0	117	114	121	185	118	116	119
119	171	20	12.5	59.5	-168	114	112	120	0	117	112	120	0	117	114	121	179	119	118	120
% !!linebreak:original
120	174	21	1	60	162	120	114	123	185	120	117	122	0	117	114	121	174	120	119	121
121	175	21	2	61	-162	120	114	123	-185	120	117	122	174	121	117	123	0	121	120	122
122	176	21	3	62	-162	120	114	123	185	122	120	123	-174	121	117	123	202	122	121	123
123	178	22	4	63	168	123	120	128	179	123	122	125	168	123	121	124	197	123	122	124
124	179	22	5	64	-168	123	120	128	-179	123	122	125	128	124	123	128	191	124	123	126
125	180	22	6	65	-168	123	120	128	179	125	123	128	-128	124	123	128	-191	124	123	126
126	181	22	6.5	65.5	-168	123	120	128	-179	125	123	128	-128	124	123	128	185	126	124	127
127	182	22	6.75	65.75	-168	123	120	128	-179	125	123	128	-128	124	123	128	191	127	126	128
128	184	23	7	66	145	128	123	130	185	128	125	129	168	128	124	129	197	128	127	129
129	185	23	9	68	-145	128	123	130	185	129	128	130	174	129	128	130	197	129	128	130
130	187	24	10	69	0	130	128	132	168	130	129	132	179	130	129	131	191	130	129	131
131	188	24	11	70	0	130	128	132	-168	130	129	132	156	131	130	134	208	131	130	133
132	189	24	12	71	168	132	130	134	0	132	130	141	-156	131	130	134	-208	131	130	133
133	190	24	12.5	71.5	-168	132	130	134	0	132	130	141	-156	131	130	134	202	133	131	134
134	192	25	1	72	174	134	132	136	0	132	130	141	151	134	131	135	202	134	133	135
135	193	25	2	73	-174	134	132	136	0	132	130	141	145	135	134	138	197	135	134	137
136	194	25	3	74	168	136	134	138	0	132	130	141	-145	135	134	138	-197	135	134	137
137	195	25	3.5	74.5	-168	136	134	138	0	132	130	141	-145	135	134	138	191	137	135	138
% !!linebreak:original
138	198	26	4	75	162	138	136	139	0	132	130	141	151	138	135	139	191	138	137	139
139	199	26	5	76	157	139	138	142	0	132	130	141	168	139	138	141	185	139	138	140
140	200	26	5.5	76.5	-157	139	138	142	0	132	130	141	-168	139	138	141	179	140	139	141
141	201	26	6	77	-157	139	138	142	185	141	132	142	0	141	139	142	168	141	140	142
142	203	27	7	78	151	142	139	144	191	142	141	146	179	142	141	143	162	142	141	144
143	204	27	8	79	-151	142	139	144	-191	142	141	146	174	143	142	148	-162	142	141	144
144	205	27	8.5	79.5	145	144	142	145	-191	142	141	146	-174	143	142	148	151	144	142	146
145	206	27	8.75	79.75	139	145	144	146	-191	142	141	146	-174	143	142	148	-151	144	142	146
146	207	27	9	80	134	146	145	147	185	146	142	148	-174	143	142	148	157	146	144	147
147	208	27	9.5	80.5	122	147	146	148	-185	146	142	148	-174	143	142	148	162	147	146	148
148	210	28	10	81	128	148	147	149	179	148	146	150	168	148	143	149	151	148	147	150
149	211	28	10.5	81.5	151	149	148	151	-179	148	146	150	162	149	148	151	-151	148	147	150
150	212	28	11	82	-151	149	148	151	174	150	148	153	-162	149	148	151	0	150	148	158
151	213	28	11.5	82.5	157	151	149	152	-174	150	148	153	168	151	149	152	0	150	148	158
152	214	28	12	83	162	152	151	153	-174	150	148	153	151	152	151	153	0	150	148	158
153	216	29	1	84	139	153	152	154	168	153	150	160	128	153	152	156	0	150	148	158
154	217	29	1.5	84.5	145	154	153	155	-168	153	150	160	-128	153	152	156	0	150	148	158
155	218	29	1.75	84.75	151	155	154	156	-168	153	150	160	-128	153	152	156	0	150	148	158
156	219	29	2	85	156	156	155	157	-168	153	150	160	0	156	153	158	0	150	148	158
157	220	29	2.25	85.25	151	157	156	158	-168	153	150	160	0	156	153	158	0	150	148	158
158	221	29	2.5	85.5	145	158	157	159	-168	153	150	160	151	158	156	160	168	158	150	160
159	222	29	2.75	85.75	139	159	158	160	-168	153	150	160	-151	158	156	160	-168	158	150	160
160	223	29	3	86	134	160	159	161	0	160	153	196	145	160	158	161	162	160	158	161
161	224	29	3.75	86.75	139	161	160	162	0	160	153	196	151	161	160	162	168	161	160	162
% !!pagebreak:original
162	227	30	4	87	145	162	161	163	0	160	153	196	157	162	161	163	174	162	161	163
163	228	30	4.5	87.5	151	163	162	164	0	160	153	196	162	163	162	164	179	163	162	164
164	229	30	5.25	88.25	145	164	163	165	0	160	153	196	151	164	163	165	185	164	163	165
165	230	30	5.5	88.5	139	165	164	166	0	160	153	196	168	165	164	167	191	165	164	166
166	231	30	6	89	134	166	165	168	0	160	153	196	-168	165	164	167	197	166	165	167
167	232	30	6.5	89.5	-134	166	165	168	0	160	153	196	162	167	165	168	202	167	166	168
168	235	31	7	90	128	168	166	170	0	160	153	196	168	168	167	169	179	168	167	169
169	236	31	7.75	90.75	-128	168	166	170	0	160	153	196	174	169	168	170	185	169	168	170
170	237	31	8	91	0	170	168	181	0	160	153	196	179	170	169	171	191	170	169	171
171	238	31	8.5	91.5	0	170	168	181	0	160	153	196	185	171	170	172	197	171	170	172
172	239	31	9	92	0	170	168	181	0	160	153	196	191	172	171	174	202	172	171	173
173	240	31	9.75	92.75	0	170	168	181	0	160	153	196	-191	172	171	174	208	173	172	174
174	242	32	10	93	0	170	168	181	0	160	153	196	185	174	172	177	214	174	173	175
175	243	32	10.25	93.25	0	170	168	181	0	160	153	196	-185	174	172	177	208	175	174	176
176	244	32	10.375	93.375	0	170	168	181	0	160	153	196	-185	174	172	177	214	176	175	177
177	245	32	10.5	93.5	0	170	168	181	0	160	153	196	191	177	174	180	219	177	176	179
178	246	32	11	94	0	170	168	181	0	160	153	196	-191	177	174	180	-219	177	176	179
179	247	32	11.25	94.25	0	170	168	181	0	160	153	196	-191	177	174	180	208	179	177	180
180	248	32	11.5	94.5	0	170	168	181	0	160	153	196	179	180	177	181	208	180	179	182
181	249	32	12	95	151	181	170	183	0	160	153	196	174	181	180	183	-208	180	179	182
182	250	32	12.5	95.5	-151	181	170	183	0	160	153	196	-174	181	180	183	203	182	180	183
183	252	33	1	96	156	183	181	184	0	160	153	196	168	183	181	184	208	183	182	188
184	253	33	2.5	97.5	151	184	183	185	0	160	153	196	162	184	183	185	-208	183	182	188
185	254	33	2.75	97.75	145	185	184	186	0	160	153	196	157	185	184	186	-208	183	182	188
186	255	33	3	98	139	186	185	187	0	160	153	196	151	186	185	187	-208	183	182	188
187	256	33	3.5	98.5	145	187	186	189	0	160	153	196	156	187	186	190	-208	183	182	188
% !!linebreak:original
188	259	34	4	99	-145	187	186	189	0	160	153	196	-156	187	186	190	0	188	183	194
189	260	34	4.25	99.25	139	189	187	190	0	160	153	196	-156	187	186	190	0	188	183	194
190	261	34	4.5	99.5	128	190	189	192	0	160	153	196	151	190	187	191	0	188	183	194
191	262	34	5	100	-128	190	189	192	0	160	153	196	156	191	190	193	0	188	183	194
192	263	34	5.25	100.25	116	192	190	193	0	160	153	196	-156	191	190	193	0	188	183	194
193	264	34	5.5	100.5	122	193	192	194	0	160	153	196	145	193	191	194	0	188	183	194
194	265	34	6	101	128	194	193	196	0	160	153	196	140	194	193	195	208	194	188	196
195	266	34	6.75	101.75	-128	194	193	196	0	160	153	196	134	195	194	196	-208	194	188	196
196	268	35	7	102	168	196	194	198	145	196	160	198	145	196	195	197	197	196	194	198
197	269	35	8	103	-168	196	194	198	-145	196	160	198	185	197	196	199	-197	196	194	198
198	270	35	9	104	157	198	196	199	145	198	196	199	-185	197	196	199	208	198	196	199
199	272	36	10	105	151	199	198	200	162	199	198	201	174	199	197	200	202	199	198	200
200	273	36	11	106	139	200	199	201	-162	199	198	201	179	200	199	202	191	200	199	202
201	274	36	12	107	151	201	200	202	162	201	199	202	-179	200	199	202	-191	200	199	202
202	276	37	1	108	145	202	201	203	157	202	201	203	174	202	200	203	0	202	200	203
203	277	37	2	109	139	203	202	206	151	203	202	206	168	203	202	204	191	203	202	204
204	278	37	3.5	110.5	-139	203	202	206	-151	203	202	206	162	204	203	205	197	204	203	206
205	279	37	3.75	110.75	-139	203	202	206	-151	203	202	206	168	205	204	206	-197	204	203	206
% !!linebreak:original
206	282	38	4	111	134	206	203	208	145	206	203	213	174	206	205	207	202	206	204	210
207	283	38	4.25	111.25	-134	206	203	208	-145	206	203	213	179	207	206	208	-202	206	204	210
208	284	38	4.5	111.5	122	208	206	212	-145	206	203	213	185	208	207	209	-202	206	204	210
209	285	38	4.75	111.75	-122	208	206	212	-145	206	203	213	179	209	208	210	-202	206	204	210
210	286	38	5	112	-122	208	206	212	-145	206	203	213	174	210	209	211	202	210	206	212
211	287	38	5.25	112.25	-122	208	206	212	-145	206	203	213	168	211	210	212	-202	210	206	212
212	288	38	5.5	112.5	128	212	208	213	-145	206	203	213	168	212	211	214	197	212	210	213
213	289	38	6	113	134	213	212	215	0	213	206	215	-168	212	211	214	185	213	212	215
214	290	38	6.5	113.5	-134	213	212	215	0	213	206	215	163	214	212	215	-185	213	212	215
215	292	39	7	114	128	215	213	221	168	215	213	218	168	215	214	216	179	215	213	217
216	293	39	7.5	114.5	-128	215	213	221	-168	215	213	218	151	216	215	219	-179	215	213	217
217	294	39	7.75	114.75	-128	215	213	221	-168	215	213	218	-151	216	215	219	185	217	215	218
218	295	39	8	115	-128	215	213	221	168	218	215	221	-151	216	215	219	196	218	217	220
219	296	39	8.25	115.25	-128	215	213	221	-168	218	215	221	145	219	216	220	-196	218	217	220
220	297	39	8.5	115.5	-128	215	213	221	-168	218	215	221	151	220	219	221	191	220	218	222
221	298	39	9	116	0	221	215	223	145	221	218	223	156	221	220	223	-191	220	218	222
222	299	39	9.5	116.5	0	221	215	223	-145	221	218	223	-156	221	220	223	185	222	220	223
223	301	40	10	117	128	223	221	226	0	223	221	224	151	223	221	225	191	223	222	224
224	302	40	11	118	-128	223	221	226	168	224	223	225	-151	223	221	225	0	224	223	225
225	303	40	12	119	-128	223	221	226	168	225	224	226	0	225	223	226	191	225	224	226
226	305	41	1	120	116	226	223	227	168	226	225	227	179	226	225	228	196	226	225	227
227	306	41	2	121	139	227	226	230	162	227	226	230	-179	226	225	228	191	227	226	229
228	307	41	3	122	-139	227	226	230	-162	227	226	230	179	228	226	230	-191	227	226	229
229	308	41	3.5	122.5	-139	227	226	230	-162	227	226	230	-179	228	226	230	185	229	227	230
% !!linebreak:original
230	311	42	4	123	145	230	227	231	157	230	227	231	168	230	228	231	185	230	229	231
231	312	42	5	124	128	231	230	233	151	231	230	239	168	231	230	233	179	231	230	232
232	313	42	5.5	124.5	-128	231	230	233	-151	231	230	239	-168	231	230	233	191	232	231	236
233	314	42	5.75	124.75	122	233	231	234	-151	231	230	239	174	233	231	234	-191	232	231	236
234	315	42	6	125	128	234	233	235	-151	231	230	239	179	234	233	237	-191	232	231	236
235	316	42	6.25	125.25	134	235	234	236	-151	231	230	239	-179	234	233	237	-191	232	231	236
236	317	42	6.5	125.5	139	236	235	237	-151	231	230	239	-179	234	233	237	168	236	232	239
237	318	42	6.75	125.75	145	237	236	239	-151	231	230	239	174	237	234	238	-168	236	232	239
238	319	42	6.875	125.875	-145	237	236	239	-151	231	230	239	168	238	237	239	-168	236	232	239
239	321	43	7	126	134	239	237	241	145	239	231	241	162	239	238	240	174	239	236	240
240	322	43	7.75	126.75	-134	239	237	241	-145	239	231	241	157	240	239	241	168	240	239	241
241	323	43	8	127	128	241	239	243	151	241	239	242	168	241	240	242	179	241	240	242
242	324	43	8.75	127.75	-128	241	239	243	157	242	241	243	174	242	241	243	185	242	241	243
243	325	43	9	128	151	243	241	246	162	243	242	246	179	243	242	244	191	243	242	244
244	326	43	9.25	128.25	-151	243	241	246	-162	243	242	246	174	244	243	245	185	244	243	245
245	327	43	9.375	128.375	-151	243	241	246	-162	243	242	246	179	245	244	246	191	245	244	246
246	328	43	9.5	128.5	145	246	243	249	156	246	243	247	185	246	245	249	196	246	245	249
247	329	43	9.75	128.75	-145	246	243	249	162	247	246	248	-185	246	245	249	-196	246	245	249
248	331	44	10	129	-145	246	243	249	168	248	247	250	-185	246	245	249	-196	246	245	249
249	332	44	10.5	129.5	128	249	246	251	-168	248	247	250	179	249	246	251	191	249	246	251
250	333	44	11	130	-128	249	246	251	157	250	248	252	-179	249	246	251	-191	249	246	251
251	334	44	11.25	130.25	134	251	249	252	-157	250	248	252	174	251	249	252	185	251	249	252
252	335	44	11.5	130.5	145	252	251	253	145	252	250	253	168	252	251	253	185	252	251	254
253	336	44	12	131	128	253	252	256	151	253	252	256	168	253	252	255	-185	252	251	254
254	337	44	12.5	131.5	-128	253	252	256	-151	253	252	256	-168	253	252	255	180	254	252	256
255	338	44	12.75	131.75	-128	253	252	256	-151	253	252	256	162	255	253	256	-180	254	252	256
256	341	45	1	132	145	256	253	258	145	256	253	258	168	256	255	257	185	256	254	258
257	342	45	2	133	-145	256	253	258	-145	256	253	258	168	257	256	258	-185	256	254	258
% !!pagebreak:original
% !!LO:LB:i:g=z
% !!section: Qui tollis
% !!!OMD: Qui tollis
% !!primary-mensuration: met(C|)
258	354	46	1	135	145	258	256	259	0	258	256	268	0	258	257	269	185	258	256	259
259	356	47	3	137	145	259	258	260	0	258	256	268	0	258	257	269	168	259	258	260
260	357	47	4	138	145	260	259	261	0	258	256	268	0	258	257	269	168	260	259	261
261	359	48	5	139	134	261	260	262	0	258	256	268	0	258	257	269	185	261	260	262
262	360	48	6	140	134	262	261	263	0	258	256	268	0	258	257	269	185	262	261	263
263	362	49	7	141	139	263	262	265	0	258	256	268	0	258	257	269	191	263	262	264
264	363	49	7.5	141.5	-139	263	262	265	0	258	256	268	0	258	257	269	197	264	263	265
265	364	49	8	142	139	265	263	267	0	258	256	268	0	258	257	269	202	265	264	266
266	365	49	8.5	142.5	-139	265	263	267	0	258	256	268	0	258	257	269	208	266	265	267
267	367	50	1	143	145	267	265	268	0	258	256	268	0	258	257	269	197	267	266	271
268	368	50	2	144	0	268	267	281	145	268	258	270	0	258	257	269	-197	267	266	271
269	370	51	3	145	0	268	267	281	-145	268	258	270	185	269	258	271	-197	267	266	271
270	371	51	4	146	0	268	267	281	145	270	268	271	-185	269	258	271	-197	267	266	271
% !!linebreak:original
271	374	52	5	147	0	268	267	281	162	271	270	273	185	271	269	272	0	271	267	275
272	375	52	6	148	0	268	267	281	-162	271	270	273	185	272	271	273	0	271	267	275
273	377	53	7	149	0	268	267	281	162	273	271	274	174	273	272	274	0	271	267	275
274	378	53	8	150	0	268	267	281	157	274	273	275	168	274	273	275	0	271	267	275
275	380	54	1	151	0	268	267	281	151	275	274	278	179	275	274	278	202	275	271	276
276	381	54	2.5	152.5	0	268	267	281	-151	275	274	278	-179	275	274	278	197	276	275	277
277	382	54	2.75	152.75	0	268	267	281	-151	275	274	278	-179	275	274	278	191	277	276	278
278	384	55	3	153	0	268	267	281	145	278	275	281	185	278	275	279	197	278	277	280
279	385	55	3.5	153.5	0	268	267	281	-145	278	275	281	179	279	278	280	-197	278	277	280
280	386	55	4	154	0	268	267	281	-145	278	275	281	168	280	279	281	185	280	278	281
281	388	56	5	155	122	281	268	282	0	281	278	324	174	281	280	282	202	281	280	283
282	389	56	6	156	139	282	281	283	0	281	278	324	0	282	281	283	-202	281	280	283
283	391	57	7	157	145	283	282	284	0	281	278	324	145	283	282	284	197	283	281	284
284	392	57	8	158	151	284	283	286	0	281	278	324	162	284	283	285	191	284	283	288
% !!linebreak:original
285	395	58	1	159	-151	284	283	286	0	281	278	324	168	285	284	288	-191	284	283	288
286	396	58	1.5	159.5	145	286	284	287	0	281	278	324	-168	285	284	288	-191	284	283	288
287	397	58	1.75	159.75	139	287	286	288	0	281	278	324	-168	285	284	288	-191	284	283	288
288	398	58	2	160	134	288	287	289	0	281	278	324	174	288	285	290	185	288	284	289
289	400	59	3	161	0	289	288	292	0	281	278	324	-174	288	285	290	202	289	288	292
290	401	59	3.5	161.5	0	289	288	292	0	281	278	324	168	290	288	291	-202	289	288	292
291	402	59	3.75	161.75	0	289	288	292	0	281	278	324	162	291	290	292	-202	289	288	292
292	403	59	4	162	145	292	289	293	0	281	278	324	157	292	291	293	208	292	289	293
293	405	60	5	163	162	293	292	294	0	281	278	324	151	293	292	294	214	293	292	295
294	406	60	6	164	168	294	293	297	0	281	278	324	145	294	293	297	-214	293	292	295
295	407	60	6.5	164.5	-168	294	293	297	0	281	278	324	-145	294	293	297	208	295	293	296
296	408	60	6.75	164.75	-168	294	293	297	0	281	278	324	-145	294	293	297	202	296	295	297
297	410	61	7	165	174	297	294	299	0	281	278	324	0	297	294	298	197	297	296	298
298	411	61	8	166	-174	297	294	299	0	281	278	324	185	298	297	304	202	298	297	301
299	412	61	8.5	166.5	168	299	297	300	0	281	278	324	-185	298	297	304	-202	298	297	301
300	413	61	8.75	166.75	162	300	299	301	0	281	278	324	-185	298	297	304	-202	298	297	301
301	415	62	1	167	157	301	300	302	0	281	278	324	-185	298	297	304	208	301	298	302
302	416	62	2	168	162	302	301	303	0	281	278	324	-185	298	297	304	202	302	301	304
303	418	63	3	169	168	303	302	305	0	281	278	324	-185	298	297	304	-202	302	301	304
304	419	63	4	170	-168	303	302	305	0	281	278	324	179	304	298	305	197	304	302	305
% !!linebreak:original
305	422	64	5	171	162	305	303	306	0	281	278	324	174	305	304	307	202	305	304	306
306	423	64	6.5	172.5	157	306	305	307	0	281	278	324	-174	305	304	307	208	306	305	307
307	425	65	7	173	145	307	306	311	0	281	278	324	0	307	305	308	197	307	306	309
308	426	65	8	174	-145	307	306	311	0	281	278	324	168	308	307	309	-197	307	306	309
309	428	66	1	175	-145	307	306	311	0	281	278	324	185	309	308	310	168	309	307	310
310	429	66	2	176	-145	307	306	311	0	281	278	324	0	310	309	311	185	310	309	312
311	431	67	3	177	0	311	307	313	0	281	278	324	162	311	310	313	-185	310	309	312
312	432	67	3.5	177.5	0	311	307	313	0	281	278	324	-162	311	310	313	191	312	310	313
313	433	67	4	178	145	313	311	314	0	281	278	324	168	313	311	314	197	313	312	314
314	435	68	5	179	151	314	313	315	0	281	278	324	162	314	313	315	202	314	313	315
315	436	68	6	180	145	315	314	316	0	281	278	324	168	315	314	316	197	315	314	317
316	438	69	7	181	151	316	315	318	0	281	278	324	0	316	315	317	-197	315	314	317
317	439	69	8	182	-151	316	315	318	0	281	278	324	162	317	316	318	191	317	315	319
% !!pagebreak:original
318	442	70	1	183	157	318	316	321	0	281	278	324	168	318	317	321	-191	317	315	319
319	443	70	1.5	183.5	-157	318	316	321	0	281	278	324	-168	318	317	321	180	319	317	320
320	444	70	2	184	-157	318	316	321	0	281	278	324	-168	318	317	321	186	320	319	321
321	446	71	3	185	151	321	318	323	0	281	278	324	179	321	318	322	191	321	320	325
322	447	71	4	186	-151	321	318	323	0	281	278	324	174	322	321	323	-191	321	320	325
323	449	72	5	187	128	323	321	325	0	281	278	324	168	323	322	324	-191	321	320	325
324	450	72	6	188	-128	323	321	325	168	324	281	325	179	324	323	326	-191	321	320	325
325	452	73	7	189	0	325	323	327	168	325	324	326	-179	324	323	326	0	325	321	352
326	453	73	8	190	0	325	323	327	145	326	325	327	185	326	324	327	0	325	321	352
327	455	74	1	191	168	327	325	329	0	327	326	344	179	327	326	328	0	325	321	352
328	456	74	2	192	-168	327	325	329	0	327	326	344	191	328	327	330	0	325	321	352
329	458	75	3	193	162	329	327	331	0	327	326	344	-191	328	327	330	0	325	321	352
330	459	75	3.5	193.5	-162	329	327	331	0	327	326	344	185	330	328	331	0	325	321	352
331	460	75	4	194	157	331	329	332	0	327	326	344	185	331	330	332	0	325	321	352
% !!linebreak:original
332	463	76	5	195	145	332	331	334	0	327	326	344	174	332	331	333	0	325	321	352
333	464	76	6	196	-145	332	331	334	0	327	326	344	168	333	332	335	0	325	321	352
334	466	77	7	197	168	334	332	336	0	327	326	344	-168	333	332	335	0	325	321	352
335	467	77	8	198	-168	334	332	336	0	327	326	344	191	335	333	339	0	325	321	352
336	468	77	8.5	198.5	162	336	334	337	0	327	326	344	-191	335	333	339	0	325	321	352
337	469	77	8.75	198.75	168	337	336	338	0	327	326	344	-191	335	333	339	0	325	321	352
338	471	78	1	199	174	338	337	340	0	327	326	344	-191	335	333	339	0	325	321	352
339	472	78	1.5	199.5	-174	338	337	340	0	327	326	344	185	339	335	340	0	325	321	352
340	473	78	2	200	168	340	338	342	0	327	326	344	179	340	339	341	0	325	321	352
341	475	79	3	201	-168	340	338	342	0	327	326	344	174	341	340	343	0	325	321	352
342	476	79	4	202	163	342	340	343	0	327	326	344	-174	341	340	343	0	325	321	352
343	478	80	5	203	168	343	342	345	0	327	326	344	179	343	341	345	0	325	321	352
344	479	80	6	204	-168	343	342	345	168	344	327	345	-179	343	341	345	0	325	321	352
345	481	81	7	205	0	345	343	354	168	345	344	346	168	345	343	346	0	325	321	352
346	482	81	8	206	0	345	343	354	168	346	345	347	179	346	345	347	0	325	321	352
% !!linebreak:original
347	485	82	1	207	0	345	343	354	162	347	346	351	185	347	346	348	0	325	321	352
348	486	82	2	208	0	345	343	354	-162	347	346	351	191	348	347	350	0	325	321	352
349	488	83	3	209	0	345	343	354	-162	347	346	351	-191	348	347	350	0	325	321	352
350	489	83	3.5	209.5	0	345	343	354	-162	347	346	351	185	350	348	351	0	325	321	352
351	490	83	4	210	0	345	343	354	157	351	347	352	185	351	350	353	0	325	321	352
352	492	84	5	211	0	345	343	354	151	352	351	354	-185	351	350	353	202	352	325	354
353	493	84	6	212	0	345	343	354	-151	352	351	354	180	353	351	354	-202	352	325	354
354	495	85	7	213	168	354	345	357	145	354	352	356	185	354	353	356	197	354	352	355
355	496	85	8.5	214.5	-168	354	345	357	-145	354	352	356	-185	354	353	356	202	355	354	356
356	498	86	1	215	-168	354	345	357	0	356	354	365	179	356	354	358	208	356	355	358
357	499	86	2	216	157	357	354	360	0	356	354	365	-179	356	354	358	-208	356	355	358
358	500	86	2.5	216.5	-157	357	354	360	0	356	354	365	168	358	356	360	202	358	356	359
359	501	86	2.75	216.75	-157	357	354	360	0	356	354	365	-168	358	356	360	197	359	358	360
360	503	87	3	217	162	360	357	361	0	356	354	365	174	360	358	361	191	360	359	361
361	504	87	4	218	157	361	360	362	0	356	354	365	168	361	360	362	185	361	360	363
% !!linebreak:original
362	507	88	5	219	145	362	361	364	0	356	354	365	185	362	361	365	-185	361	360	363
363	508	88	6	220	-145	362	361	364	0	356	354	365	-185	362	361	365	197	363	361	365
364	509	88	6.5	220.5	134	364	362	365	0	356	354	365	-185	362	361	365	-197	363	361	365
365	511	89	7	221	139	365	364	366	168	365	356	366	0	365	362	367	191	365	363	366
366	512	89	8	222	145	366	365	367	168	366	365	367	0	365	362	367	185	366	365	367
367	514	90	1	223	128	367	366	368	168	367	366	370	179	367	365	368	208	367	366	369
368	515	90	2	224	145	368	367	370	-168	367	366	370	185	368	367	371	-208	367	366	369
369	516	90	2.5	224.5	-145	368	367	370	-168	367	366	370	-185	368	367	371	197	369	367	370
370	518	91	3	225	0	370	368	373	145	370	367	375	-185	368	367	371	197	370	369	374
371	519	91	3.5	225.5	0	370	368	373	-145	370	367	375	179	371	368	372	-197	370	369	374
372	520	91	3.75	225.75	0	370	368	373	-145	370	367	375	174	372	371	373	-197	370	369	374
373	521	91	4	226	157	373	370	375	-145	370	367	375	168	373	372	375	-197	370	369	374
374	522	91	4.5	226.5	-157	373	370	375	-145	370	367	375	-168	373	372	375	185	374	370	375
375	524	92	5	227	162	375	373	376	0	375	370	382	174	375	373	376	191	375	374	377
376	525	92	5.5	227.5	168	376	375	378	0	375	370	382	179	376	375	378	-191	375	374	377
377	526	92	6	228	-168	376	375	378	0	375	370	382	-179	376	375	378	197	377	375	379
378	527	92	6.5	228.5	157	378	376	379	0	375	370	382	185	378	376	379	-197	377	375	379
379	529	93	7	229	151	379	378	381	0	375	370	382	191	379	378	380	202	379	377	381
380	530	93	7.5	229.5	-151	379	378	381	0	375	370	382	179	380	379	381	-202	379	377	381
381	531	93	8	230	145	381	379	382	0	375	370	382	185	381	380	382	208	381	379	382
% !!pagebreak:original
382	534	94	1	231	162	382	381	385	185	382	375	385	174	382	381	384	202	382	381	383
383	535	94	2	232	-162	382	381	385	-185	382	375	385	-174	382	381	384	214	383	382	386
384	536	94	2.5	232.5	-162	382	381	385	-185	382	375	385	162	384	382	385	-214	383	382	386
385	538	95	3	233	174	385	382	387	185	385	382	387	162	385	384	387	-214	383	382	386
386	539	95	3.5	233.5	-174	385	382	387	-185	385	382	387	-162	385	384	387	202	386	383	387
387	540	95	4	234	179	387	385	388	179	387	385	389	0	387	385	388	202	387	386	389
388	542	96	5	235	168	388	387	390	-179	387	385	389	168	388	387	389	-202	387	386	389
389	543	96	6	236	-168	388	387	390	179	389	387	390	179	389	388	390	197	389	387	390
390	545	97	7	237	162	390	388	391	185	390	389	392	174	390	389	391	202	390	389	391
391	546	97	8	238	157	391	390	392	-185	390	389	392	168	391	390	393	208	391	390	392
392	548	98	1	239	145	392	391	394	185	392	390	393	-168	391	390	393	197	392	391	394
393	549	98	2	240	-145	392	391	394	168	393	392	395	185	393	391	394	-197	392	391	394
394	551	99	3	241	168	394	392	396	-168	393	392	395	179	394	393	395	0	394	392	395
395	552	99	4	242	-168	394	392	396	0	395	393	396	168	395	394	397	197	395	394	396
% !!linebreak:original
396	555	100	5	243	157	396	394	397	185	396	395	398	-168	395	394	397	208	396	395	398
397	556	100	6	244	145	397	396	399	-185	396	395	398	157	397	395	398	-208	396	395	398
398	558	101	7	245	-145	397	396	399	185	398	396	399	145	398	397	399	208	398	396	399
399	559	101	8	246	157	399	397	400	179	399	398	401	168	399	398	400	208	399	398	400
400	561	102	1	247	151	400	399	402	-179	399	398	401	0	400	399	401	202	400	399	402
401	562	102	2	248	-151	400	399	402	179	401	399	402	162	401	400	402	-202	400	399	402
402	564	103	3	249	145	402	400	403	185	402	401	403	168	402	401	403	197	402	400	403
403	566	104	5	251	0	403	402	405	174	403	402	404	162	403	402	404	185	403	402	404
404	567	104	6	252	0	403	402	405	168	404	403	406	179	404	403	405	191	404	403	406
405	569	105	7	253	139	405	403	410	-168	404	403	406	191	405	404	407	-191	404	403	406
406	570	105	8	254	-139	405	403	410	0	406	404	424	-191	405	404	407	202	406	404	409
407	571	105	8.5	254.5	-139	405	403	410	0	406	404	424	185	407	405	408	-202	406	404	409
% !!linebreak:original
408	574	106	1	255	-139	405	403	410	0	406	404	424	179	408	407	410	-202	406	404	409
409	575	106	1.5	255.5	-139	405	403	410	0	406	404	424	-179	408	407	410	197	409	406	410
410	576	106	2	256	162	410	405	412	0	406	404	424	174	410	408	412	185	410	409	411
411	578	107	3	257	-162	410	405	412	0	406	404	424	-174	410	408	412	191	411	410	412
412	579	107	4	258	157	412	410	413	0	406	404	424	168	412	410	414	197	412	411	414
413	581	108	5	259	145	413	412	414	0	406	404	424	-168	412	410	414	-197	412	411	414
414	582	108	6	260	151	414	413	415	0	406	404	424	162	414	412	415	191	414	412	416
415	584	109	7	261	157	415	414	419	0	406	404	424	168	415	414	417	-191	414	412	416
416	585	109	8	262	-157	415	414	419	0	406	404	424	-168	415	414	417	185	416	414	419
417	586	109	8.5	262.5	-157	415	414	419	0	406	404	424	162	417	415	418	-185	416	414	419
418	587	109	8.75	262.75	-157	415	414	419	0	406	404	424	157	418	417	419	-185	416	414	419
419	589	110	1	263	151	419	415	421	0	406	404	424	162	419	418	421	179	419	416	420
420	590	110	2	264	-151	419	415	421	0	406	404	424	-162	419	418	421	174	420	419	422
421	592	111	3	265	145	421	419	422	0	406	404	424	0	421	419	422	-174	420	419	422
422	593	111	4	266	139	422	421	423	0	406	404	424	168	422	421	423	168	422	420	423
% !!linebreak:original
423	596	112	5	267	134	423	422	425	0	406	404	424	174	423	422	425	162	423	422	425
424	597	112	6	268	-134	423	422	425	185	424	406	425	-174	423	422	425	-162	423	422	425
425	599	113	7	269	128	425	423	427	191	425	424	427	179	425	423	426	0	425	423	438
426	600	113	8.5	270.5	-128	425	423	427	-191	425	424	427	168	426	425	427	0	425	423	438
427	602	114	1	271	0	427	425	438	185	427	425	431	174	427	426	428	0	425	423	438
428	603	114	1.25	271.25	0	427	425	438	-185	427	425	431	168	428	427	429	0	425	423	438
429	604	114	1.5	271.5	0	427	425	438	-185	427	425	431	162	429	428	430	0	425	423	438
430	605	114	1.75	271.75	0	427	425	438	-185	427	425	431	157	430	429	431	0	425	423	438
431	606	114	2	272	0	427	425	438	179	431	427	433	151	431	430	432	0	425	423	438
432	607	114	2.5	272.5	0	427	425	438	-179	431	427	433	168	432	431	434	0	425	423	438
433	609	115	1	273	0	427	425	438	174	433	431	438	-168	432	431	434	0	425	423	438
434	610	115	1.25	273.25	0	427	425	438	-174	433	431	438	162	434	432	435	0	425	423	438
435	611	115	1.5	273.5	0	427	425	438	-174	433	431	438	168	435	434	436	0	425	423	438
436	612	115	2	274	0	427	425	438	-174	433	431	438	174	436	435	437	0	425	423	438
437	613	115	2.5	274.5	0	427	425	438	-174	433	431	438	163	437	436	438	0	425	423	438
% !!primary-mensuration: met(3)
438	618	116	3	275	128	438	427	439	168	438	433	440	168	438	437	439	179	438	425	440
439	619	116	5	277	134	439	438	440	-168	438	433	440	162	439	438	440	-179	438	425	440
440	621	117	6	278	139	440	439	441	0	440	438	452	151	440	439	441	168	440	438	442
441	622	117	7	279	145	441	440	443	0	440	438	452	157	441	440	443	-168	440	438	442
442	623	117	8	280	-145	441	440	443	0	440	438	452	-157	441	440	443	168	442	440	443
% !!pagebreak:original
443	626	118	1	281	122	443	441	446	0	440	438	452	145	443	441	445	174	443	442	444
444	627	118	2.5	282.5	-122	443	441	446	0	440	438	452	-145	443	441	445	179	444	443	445
445	628	118	3	283	-122	443	441	446	0	440	438	452	162	445	443	447	185	445	444	446
446	630	119	4	284	139	446	443	449	0	440	438	452	-162	445	443	447	191	446	445	448
447	631	119	5	285	-139	446	443	449	0	440	438	452	168	447	445	449	-191	446	445	448
448	632	119	6	286	-139	446	443	449	0	440	438	452	-168	447	445	449	191	448	446	449
449	636	120	7	287	134	449	446	450	0	440	438	452	162	449	447	450	185	449	448	450
450	637	120	8	288	128	450	449	452	0	440	438	452	151	450	449	451	179	450	449	452
451	638	120	9	289	-128	450	449	452	0	440	438	452	157	451	450	452	-179	450	449	452
452	640	121	10	290	122	452	450	454	145	452	440	453	162	452	451	453	174	452	450	453
453	641	121	12	292	-122	452	450	454	145	453	452	454	168	453	452	454	185	453	452	455
454	643	122	1	293	0	454	452	462	162	454	453	456	174	454	453	457	-185	453	452	455
455	644	122	2	294	0	454	452	462	-162	454	453	456	-174	454	453	457	191	455	453	457
456	645	122	3	295	0	454	452	462	162	456	454	457	-174	454	453	457	-191	455	453	457
457	647	123	4	296	0	454	452	462	157	457	456	458	168	457	454	458	185	457	455	458
458	648	123	5	297	0	454	452	462	151	458	457	460	179	458	457	460	191	458	457	459
459	649	123	6	298	0	454	452	462	-151	458	457	460	-179	458	457	460	202	459	458	460
% !!linebreak:original
460	652	124	7	299	0	454	452	462	145	460	458	463	185	460	458	463	197	460	459	463
461	653	124	8	300	0	454	452	462	-145	460	458	463	-185	460	458	463	-197	460	459	463
462	654	124	9	301	145	462	454	463	-145	460	458	463	-185	460	458	463	-197	460	459	463
463	656	125	10	302	145	463	462	464	0	463	460	490	0	463	460	474	208	463	460	465
464	657	125	11.5	303.5	151	464	463	465	0	463	460	490	0	463	460	474	-208	463	460	465
465	658	125	12	304	157	465	464	466	0	463	460	490	0	463	460	474	185	465	463	466
466	660	126	1	305	162	466	465	467	0	463	460	490	0	463	460	474	185	466	465	468
467	661	126	2	306	168	467	466	470	0	463	460	490	0	463	460	474	-185	466	465	468
468	662	126	2.5	306.5	-168	467	466	470	0	463	460	490	0	463	460	474	191	468	466	469
469	663	126	3	307	-168	467	466	470	0	463	460	490	0	463	460	474	197	469	468	470
470	665	127	4	308	151	470	467	472	0	463	460	490	0	463	460	474	202	470	469	472
471	666	127	5	309	-151	470	467	472	0	463	460	490	0	463	460	474	-202	470	469	472
472	667	127	5.5	309.5	145	472	470	473	0	463	460	490	0	463	460	474	197	472	470	473
473	668	127	5.75	309.75	139	473	472	474	0	463	460	490	0	463	460	474	191	473	472	474
474	669	127	6	310	134	474	473	475	0	463	460	490	162	474	463	475	185	474	473	475
475	671	128	7	311	139	475	474	476	0	463	460	490	162	475	474	477	191	475	474	476
476	672	128	8	312	145	476	475	479	0	463	460	490	-162	475	474	477	197	476	475	479
477	673	128	8.5	312.5	-145	476	475	479	0	463	460	490	168	477	475	478	-197	476	475	479
478	674	128	9	313	-145	476	475	479	0	463	460	490	174	478	477	479	-197	476	475	479
479	676	129	10	314	139	479	476	480	0	463	460	490	179	479	478	480	191	479	476	480
480	677	129	12	316	122	480	479	481	0	463	460	490	174	480	479	481	185	480	479	481
% !!linebreak:original
481	680	130	1	317	139	481	480	482	0	463	460	490	168	481	480	483	191	481	480	482
482	681	130	2	318	145	482	481	485	0	463	460	490	-168	481	480	483	197	482	481	485
483	682	130	2.5	318.5	-145	482	481	485	0	463	460	490	162	483	481	484	-197	482	481	485
484	683	130	3	319	-145	482	481	485	0	463	460	490	157	484	483	485	-197	482	481	485
485	685	131	4	320	151	485	482	486	0	463	460	490	151	485	484	486	202	485	482	487
486	686	131	5	321	134	486	485	488	0	463	460	490	145	486	485	488	-202	485	482	487
487	687	131	5.5	321.5	-134	486	485	488	0	463	460	490	-145	486	485	488	197	487	485	489
488	688	131	6	322	139	488	486	490	0	463	460	490	151	488	486	491	-197	487	485	489
489	689	131	6.5	322.5	-139	488	486	490	0	463	460	490	-151	488	486	491	191	489	487	490
490	691	132	7	323	128	490	488	491	168	490	463	491	-151	488	486	491	191	490	489	492
491	692	132	8	324	145	491	490	493	168	491	490	492	157	491	488	493	-191	490	489	492
492	693	132	9	325	-145	491	490	493	145	492	491	493	-157	491	488	493	185	492	490	493
493	695	133	10	326	128	493	491	495	0	493	492	494	151	493	491	496	180	493	492	495
494	696	133	11	327	-128	493	491	495	168	494	493	495	-151	493	491	496	-180	493	492	495
495	697	133	12	328	139	495	493	496	168	495	494	496	-151	493	491	496	191	495	493	496
496	699	134	1	329	145	496	495	497	168	496	495	497	0	496	493	497	197	496	495	497
497	700	134	2	330	151	497	496	499	162	497	496	499	174	497	496	499	202	497	496	498
498	701	134	3.5	331.5	-151	497	496	499	-162	497	496	499	-174	497	496	499	197	498	497	499
499	703	135	4	332	145	499	497	500	157	499	497	500	174	499	497	500	185	499	498	500
500	704	135	5	333	139	500	499	502	151	500	499	502	168	500	499	501	191	500	499	502
501	705	135	6.5	334.5	-139	500	499	502	-151	500	499	502	162	501	500	502	-191	500	499	502
% !!linebreak:original
502	708	136	7	335	134	502	500	503	145	502	500	503	162	502	501	503	174	502	500	503
503	709	136	8	336	128	503	502	505	168	503	502	505	157	503	502	504	179	503	502	504
504	710	136	9	337	-128	503	502	505	-168	503	502	505	151	504	503	505	191	504	503	506
505	712	137	10	338	122	505	503	509	174	505	503	506	162	505	504	507	-191	504	503	506
506	713	137	11	339	-122	505	503	509	174	506	505	508	-162	505	504	507	185	506	504	507
507	714	137	12	340	-122	505	503	509	-174	506	505	508	185	507	505	511	202	507	506	510
508	715	137	12.5	340.5	-122	505	503	509	168	508	506	509	-185	507	505	511	-202	507	506	510
509	717	138	1	341	134	509	505	512	157	509	508	511	-185	507	505	511	-202	507	506	510
510	718	138	1.5	341.5	-134	509	505	512	-157	509	508	511	-185	507	505	511	197	510	507	511
511	719	138	2	342	-134	509	505	512	162	511	509	512	174	511	507	512	185	511	510	512
512	721	139	4	344	128	512	509	514	168	512	511	514	179	512	511	514	197	512	511	513
513	722	139	5	345	-128	512	509	514	-168	512	511	514	-179	512	511	514	191	513	512	515
514	723	139	6	346	134	514	512	516	157	514	512	515	174	514	512	515	-191	513	512	515
515	725	140	7	347	-134	514	512	516	145	515	514	516	162	515	514	516	185	515	513	517
516	726	140	8	348	128	516	514	519	151	516	515	519	168	516	515	519	-185	515	513	517
517	727	140	8.5	348.5	-128	516	514	519	-151	516	515	519	-168	516	515	519	174	517	515	518
518	728	140	9	349	-128	516	514	519	-151	516	515	519	-168	516	515	519	180	518	517	519
519	731	141	10	350	145	519	516	520	145	519	516	520	168	519	516	520	185	519	518	520
520	734	142	1	353	0	520	519	-1	0	520	519	-1	0	520	519	-1	0	520	519	-1
% !!!RDF**kern: l=long note in original notation
% !!!RDF**kern: i=editorial accidental
% !!!RDF**kern: V=start of tuplet marker
% !!!RDF**kern: Z=end of tuplet marker
% !!!RDF**kern: %=rational rhythm
% !!!rscale-alt: 1/2
% !!!ENC:	Jesse Rodin; Victoria Chang 2012/03/01
% !!!END:	2012/03/01/
% !!!EED:	Jesse Rodin
% !!!EEV:	2012/03/30/
% !!!ONB:	Translated from MusicXML and edited on 2012/03/30/ by Craig Sapp
% !!muse2ps: T^@{OPR}^u^@{ONM}{. }@{OTL}^C^@{COM}^i2I150v90,90,95,100c136
