%%idx	%%line	%%bar	%%beat	%%abs	%%b40	%%attk	%%last	%%next	%%b40	%%attk	%%last	%%next	%%b40	%%attk	%%last	%%next	%%b40	%%attk	%%last	%%next
0	2000	3000	4000	5000	1040	7100	7200	7300	1040	7100	7200	7300	1040	7100	7200	7300	1040	7100	7200	7300
1	25	1	1	0	0	1	-1	23	0	1	-1	11	168	1	-1	2	168	1	-1	2
2	26	1	2.5	1.5	0	1	-1	23	0	1	-1	11	162	2	1	3	174	2	1	3
3	27	1	3	2	0	1	-1	23	0	1	-1	11	168	3	2	4	179	3	2	5
4	28	1	3.5	2.5	0	1	-1	23	0	1	-1	11	156	4	3	5	-179	3	2	5
5	30	2	4	3	0	1	-1	23	0	1	-1	11	151	5	4	6	179	5	3	6
6	31	2	5	4	0	1	-1	23	0	1	-1	11	145	6	5	7	185	6	5	8
7	32	2	5.5	4.5	0	1	-1	23	0	1	-1	11	156	7	6	10	-185	6	5	8
8	33	2	5.75	4.75	0	1	-1	23	0	1	-1	11	-156	7	6	10	179	8	6	9
9	34	2	6	5	0	1	-1	23	0	1	-1	11	-156	7	6	10	185	9	8	10
10	35	2	6.5	5.5	0	1	-1	23	0	1	-1	11	162	10	7	11	191	10	9	12
11	37	3	7	6	0	1	-1	23	128	11	1	14	168	11	10	14	-191	10	9	12
12	38	3	7.25	6.25	0	1	-1	23	-128	11	1	14	-168	11	10	14	179	12	10	13
13	39	3	7.5	6.5	0	1	-1	23	-128	11	1	14	-168	11	10	14	179	13	12	14
14	40	3	8	7	0	1	-1	23	145	14	11	16	174	14	11	15	185	14	13	15
15	41	3	8.5	7.5	0	1	-1	23	-145	14	11	16	168	15	14	16	196	15	14	16
16	42	3	9	8	0	1	-1	23	139	16	14	17	179	16	15	17	191	16	15	17
17	43	3	9.5	8.5	0	1	-1	23	145	17	16	19	174	17	16	18	196	17	16	20
18	45	4	10	9	0	1	-1	23	-145	17	16	19	168	18	17	20	-196	17	16	20
19	46	4	10.25	9.25	0	1	-1	23	139	19	17	20	-168	18	17	20	-196	17	16	20
20	47	4	10.5	9.5	0	1	-1	23	128	20	19	21	168	20	18	22	191	20	17	21
21	48	4	11	10	0	1	-1	23	134	21	20	23	-168	20	18	22	185	21	20	23
22	49	4	11.5	10.5	0	1	-1	23	-134	21	20	23	163	22	20	23	-185	21	20	23
23	50	4	12	11	128	23	1	25	128	23	21	25	168	23	22	24	179	23	21	25
24	51	4	12.75	11.75	-128	23	1	25	-128	23	21	25	156	24	23	25	-179	23	21	25
25	53	5	1	12	122	25	23	26	134	25	23	26	151	25	24	27	0	25	23	40
26	54	5	1.5	12.5	128	26	25	28	139	26	25	28	-151	25	24	27	0	25	23	40
27	55	5	2	13	-128	26	25	28	-139	26	25	28	156	27	25	29	0	25	23	40
28	56	5	2.25	13.25	122	28	26	29	145	28	26	29	-156	27	25	29	0	25	23	40
29	57	5	2.5	13.5	111	29	28	30	151	29	28	30	162	29	27	30	0	25	23	40
30	58	5	3	14	116	30	29	32	139	30	29	31	168	30	29	31	0	25	23	40
31	59	5	3.5	14.5	-116	30	29	32	134	31	30	33	156	31	30	33	0	25	23	40
32	60	5	3.75	14.75	105	32	30	33	-134	31	30	33	-156	31	30	33	0	25	23	40
33	62	6	4	15	99	33	32	34	139	33	31	34	151	33	31	34	0	25	23	40
34	63	6	4.5	15.5	105	34	33	35	128	34	33	37	156	34	33	36	0	25	23	40
35	64	6	5	16	116	35	34	37	-128	34	33	37	-156	34	33	36	0	25	23	40
36	65	6	5.25	16.25	-116	35	34	37	-128	34	33	37	145	36	34	37	0	25	23	40
37	66	6	5.5	16.5	122	37	35	38	134	37	34	38	145	37	36	39	0	25	23	40
38	67	6	6	17	111	38	37	40	122	38	37	40	-145	37	36	39	0	25	23	40
39	68	6	6.5	17.5	-111	38	37	40	-122	38	37	40	140	39	37	40	0	25	23	40
40	70	7	7	18	105	40	38	41	128	40	38	41	145	40	39	41	156	40	25	42
41	71	7	8	19	116	41	40	43	128	41	40	42	145	41	40	42	-156	40	25	42
42	72	7	8.5	19.5	-116	41	40	43	128	42	41	43	145	42	41	43	156	42	40	43
43	73	7	9	20	111	43	41	44	139	43	42	44	151	43	42	44	162	43	42	44
44	75	8	10	21	105	44	43	47	0	44	43	45	156	44	43	47	168	44	43	46
45	76	8	10.5	21.5	-105	44	43	47	145	45	44	46	-156	44	43	47	-168	44	43	46
46	77	8	11.5	22.5	-105	44	43	47	145	46	45	47	-156	44	43	47	174	46	44	47
47	78	8	12	23	99	47	44	48	151	47	46	48	162	47	44	48	179	47	46	48
48	80	9	1	24	116	48	47	51	156	48	47	50	168	48	47	50	185	48	47	49
49	81	9	1.5	24.5	-116	48	47	51	-156	48	47	50	-168	48	47	50	179	49	48	52
50	82	9	1.75	24.75	-116	48	47	51	151	50	48	51	162	50	48	51	-179	49	48	52
51	83	9	2	25	128	51	48	54	139	51	50	52	151	51	50	52	-179	49	48	52
52	84	9	2.5	25.5	-128	51	48	54	116	52	51	53	156	52	51	56	168	52	49	54
53	85	9	2.75	25.75	-128	51	48	54	139	53	52	54	-156	52	51	56	-168	52	49	54
54	86	9	3	26	122	54	51	59	145	54	53	55	-156	52	51	56	174	54	52	57
55	87	9	3.25	26.25	-122	54	51	59	134	55	54	57	-156	52	51	56	-174	54	52	57
56	88	9	3.5	26.5	-122	54	51	59	-134	55	54	57	151	56	52	59	-174	54	52	57
57	89	9	3.75	26.75	-122	54	51	59	128	57	55	58	-151	56	52	59	162	57	54	59
58	90	9	3.875	26.875	-122	54	51	59	134	58	57	59	-151	56	52	59	-162	57	54	59
59	92	10	4	27	116	59	54	61	139	59	58	60	156	59	56	61	168	59	57	60
60	93	10	4.5	27.5	-116	59	54	61	145	60	59	61	-156	59	56	61	174	60	59	61
61	94	10	5	28	0	61	59	62	128	61	60	62	0	61	59	62	179	61	60	62
62	95	10	5.5	28.5	116	62	61	63	145	62	61	63	156	62	61	63	168	62	61	63
63	96	10	6	29	122	63	62	64	134	63	62	64	151	63	62	64	174	63	62	64
64	97	10	6.5	29.5	116	64	63	65	139	64	63	65	156	64	63	66	168	64	63	67
65	99	11	7	30	105	65	64	68	145	65	64	67	-156	64	63	66	-168	64	63	67
66	100	11	7.25	30.25	-105	65	64	68	-145	65	64	67	162	66	64	67	-168	64	63	67
67	101	11	7.5	30.5	-105	65	64	68	145	67	65	70	168	67	66	69	156	67	64	68
68	102	11	8	31	128	68	65	71	-145	67	65	70	-168	67	66	69	151	68	67	71
69	103	11	8.25	31.25	-128	68	65	71	-145	67	65	70	162	69	67	70	-151	68	67	71
70	104	11	8.5	31.5	-128	68	65	71	139	70	67	71	151	70	69	71	-151	68	67	71
71	105	11	9	32	134	71	68	72	145	71	70	72	162	71	70	72	145	71	68	72
72	107	12	10	33	128	72	71	74	151	72	71	74	168	72	71	74	0	72	71	73
73	108	12	10.5	33.5	-128	72	71	74	-151	72	71	74	-168	72	71	74	179	73	72	74
74	109	12	11	34	122	74	72	75	162	74	72	77	174	74	72	76	185	74	73	75
75	110	12	11.5	34.5	111	75	74	77	-162	74	72	77	-174	74	72	76	191	75	74	77
76	111	12	11.75	34.75	-111	75	74	77	-162	74	72	77	162	76	74	77	-191	75	74	77
77	112	12	12	35	105	77	75	78	156	77	74	78	168	77	76	79	196	77	75	80
78	113	12	12.5	35.5	145	78	77	80	145	78	77	79	-168	77	76	79	-196	77	75	80
79	115	13	1	36	-145	78	77	80	0	79	78	80	145	79	77	80	-196	77	75	80
80	116	13	1.5	36.5	139	80	78	81	168	80	79	82	151	80	79	81	191	80	77	81
81	117	13	2	37	145	81	80	82	-168	80	79	82	156	81	80	82	185	81	80	83
82	118	13	2.5	37.5	134	82	81	83	162	82	80	83	145	82	81	83	-185	81	80	83
83	119	13	3	38	128	83	82	85	168	83	82	84	151	83	82	84	179	83	81	84
84	120	13	3.5	38.5	-128	83	82	85	156	84	83	85	139	84	83	85	196	84	83	85
85	122	14	4	39	122	85	83	86	162	85	84	86	0	85	84	86	191	85	84	86
86	123	14	4.5	39.5	116	86	85	87	168	86	85	88	139	86	85	87	196	86	85	88
87	124	14	5	40	105	87	86	90	-168	86	85	88	145	87	86	89	-196	86	85	88
88	125	14	5.5	40.5	-105	87	86	90	156	88	86	90	-145	87	86	89	185	88	86	91
89	126	14	5.75	40.75	-105	87	86	90	-156	88	86	90	139	89	87	90	-185	88	86	91
90	127	14	6	41	128	90	87	92	151	90	88	92	128	90	89	91	-185	88	86	91
91	128	14	6.5	41.5	-128	90	87	92	-151	90	88	92	168	91	90	92	180	91	88	92
92	130	15	7	42	133	92	90	94	145	92	90	93	156	92	91	94	185	92	91	97
93	131	15	7.5	42.5	-133	92	90	94	156	93	92	97	-156	92	91	94	-185	92	91	97
94	132	15	7.75	42.75	128	94	92	95	-156	93	92	97	162	94	92	96	-185	92	91	97
95	133	15	7.875	42.875	122	95	94	96	-156	93	92	97	-162	94	92	96	-185	92	91	97
96	134	15	8	43	116	96	95	97	-156	93	92	97	168	96	94	97	-185	92	91	97
97	135	15	8.5	43.5	122	97	96	98	151	97	93	98	173	97	96	98	191	97	92	99
98	136	15	9	44	128	98	97	101	139	98	97	100	168	98	97	104	-191	97	92	99
99	137	15	9.5	44.5	-128	98	97	101	-139	98	97	100	-168	98	97	104	179	99	97	101
100	138	15	9.75	44.75	-128	98	97	101	145	100	98	101	-168	98	97	104	-179	99	97	101
101	140	16	10	45	128	101	98	104	151	101	100	102	-168	98	97	104	179	101	99	104
102	141	16	10.5	45.5	-128	101	98	104	156	102	101	103	-168	98	97	104	-179	101	99	104
103	142	16	11	46	-128	101	98	104	151	103	102	104	-168	98	97	104	-179	101	99	104
104	152	17	1	48	0	104	101	126	0	104	103	175	168	104	98	105	179	104	101	106
105	153	17	2	49	0	104	101	126	0	104	103	175	168	105	104	108	-179	104	101	106
106	154	17	2.5	49.5	0	104	101	126	0	104	103	175	-168	105	104	108	168	106	104	107
107	155	17	3	50	0	104	101	126	0	104	103	175	-168	105	104	108	179	107	106	109
108	156	17	3.5	50.5	0	104	101	126	0	104	103	175	156	108	105	110	-179	107	106	109
109	157	17	3.75	50.75	0	104	101	126	0	104	103	175	-156	108	105	110	185	109	107	110
110	159	18	4	51	0	104	101	126	0	104	103	175	162	110	108	111	174	110	109	111
111	160	18	4.5	51.5	0	104	101	126	0	104	103	175	156	111	110	112	168	111	110	113
112	161	18	5	52	0	104	101	126	0	104	103	175	145	112	111	114	-168	111	110	113
113	162	18	5.5	52.5	0	104	101	126	0	104	103	175	-145	112	111	114	185	113	111	115
114	163	18	6	53	0	104	101	126	0	104	103	175	168	114	112	117	-185	113	111	115
115	164	18	6.25	53.25	0	104	101	126	0	104	103	175	-168	114	112	117	179	115	113	116
116	165	18	6.5	53.5	0	104	101	126	0	104	103	175	-168	114	112	117	179	116	115	117
117	167	19	7	54	0	104	101	126	0	104	103	175	162	117	114	121	185	117	116	118
118	168	19	7.5	54.5	0	104	101	126	0	104	103	175	-162	117	114	121	191	118	117	119
119	169	19	8	55	0	104	101	126	0	104	103	175	-162	117	114	121	185	119	118	120
120	170	19	8.25	55.25	0	104	101	126	0	104	103	175	-162	117	114	121	174	120	119	121
121	171	19	8.5	55.5	0	104	101	126	0	104	103	175	156	121	117	122	185	121	120	123
122	172	19	9	56	0	104	101	126	0	104	103	175	151	122	121	125	-185	121	120	123
123	173	19	9.25	56.25	0	104	101	126	0	104	103	175	-151	122	121	125	180	123	121	124
124	174	19	9.75	56.75	0	104	101	126	0	104	103	175	-151	122	121	125	174	124	123	125
125	176	20	10	57	0	104	101	126	0	104	103	175	145	125	122	127	185	125	124	126
126	177	20	11	58	122	126	104	129	0	104	103	175	-145	125	122	127	0	126	125	127
127	178	20	12	59	-122	126	104	129	0	104	103	175	0	127	125	128	174	127	126	129
128	179	20	12.5	59.5	-122	126	104	129	0	104	103	175	151	128	127	130	-174	127	126	129
129	181	21	1	60	128	129	126	131	0	104	103	175	-151	128	127	130	179	129	127	131
130	182	21	1.5	60.5	-128	129	126	131	0	104	103	175	139	130	128	131	-179	129	127	131
131	183	21	2	61	122	131	129	134	0	104	103	175	145	131	130	133	174	131	129	132
132	184	21	2.5	61.5	-122	131	129	134	0	104	103	175	-145	131	130	133	185	132	131	135
133	185	21	2.75	61.75	-122	131	129	134	0	104	103	175	151	133	131	134	-185	132	131	135
134	186	21	3	62	116	134	131	137	0	104	103	175	156	134	133	136	-185	132	131	135
135	187	21	3.5	62.5	-116	134	131	137	0	104	103	175	-156	134	133	136	179	135	132	137
136	188	21	3.75	62.75	-116	134	131	137	0	104	103	175	145	136	134	137	-179	135	132	137
137	190	22	4	63	122	137	134	138	0	104	103	175	151	137	136	138	174	137	135	138
138	191	22	4.5	63.5	116	138	137	139	0	104	103	175	156	138	137	140	168	138	137	140
139	192	22	5	64	105	139	138	141	0	104	103	175	-156	138	137	140	-168	138	137	140
140	193	22	5.5	64.5	-105	139	138	141	0	104	103	175	145	140	138	141	156	140	138	141
141	194	22	6	65	128	141	139	143	0	104	103	175	139	141	140	143	151	141	140	142
142	195	22	6.5	65.5	-128	141	139	143	0	104	103	175	-139	141	140	143	168	142	141	144
143	197	23	7	66	116	143	141	145	0	104	103	175	145	143	141	145	-168	142	141	144
144	198	23	7.25	66.25	-116	143	141	145	0	104	103	175	-145	143	141	145	162	144	142	145
145	199	23	7.5	66.5	111	145	143	146	0	104	103	175	151	145	143	147	162	145	144	146
146	200	23	8	67	128	146	145	150	0	104	103	175	-151	145	143	147	179	146	145	149
147	201	23	8.25	67.25	-128	146	145	150	0	104	103	175	139	147	145	148	-179	146	145	149
148	202	23	8.5	67.5	-128	146	145	150	0	104	103	175	139	148	147	150	-179	146	145	149
149	203	23	8.75	67.75	-128	146	145	150	0	104	103	175	-139	148	147	150	174	149	146	150
150	204	23	9	68	122	150	146	151	0	104	103	175	145	150	148	151	174	150	149	151
151	205	23	9.5	68.5	116	151	150	152	0	104	103	175	156	151	150	153	168	151	150	152
152	207	24	10	69	105	152	151	154	0	104	103	175	-156	151	150	153	185	152	151	154
153	208	24	10.25	69.25	-105	152	151	154	0	104	103	175	151	153	151	154	-185	152	151	154
154	209	24	10.5	69.5	0	154	152	159	0	104	103	175	145	154	153	155	179	154	152	155
155	210	24	10.75	69.75	0	154	152	159	0	104	103	175	139	155	154	156	168	155	154	156
156	211	24	11	70	0	154	152	159	0	104	103	175	162	156	155	157	174	156	155	157
157	212	24	11.5	70.5	0	154	152	159	0	104	103	175	156	157	156	158	168	157	156	159
158	213	24	11.75	70.75	0	154	152	159	0	104	103	175	145	158	157	159	-168	157	156	159
159	214	24	12	71	111	159	154	160	0	104	103	175	151	159	158	162	162	159	157	160
160	215	24	12.5	71.5	122	160	159	161	0	104	103	175	-151	159	158	162	174	160	159	161
161	216	24	12.75	71.75	128	161	160	163	0	104	103	175	-151	159	158	162	179	161	160	163
162	218	25	1	72	-128	161	160	163	0	104	103	175	139	162	159	164	-179	161	160	163
163	219	25	1.25	72.25	116	163	161	164	0	104	103	175	-139	162	159	164	168	163	161	164
164	220	25	1.5	72.5	111	164	163	165	0	104	103	175	151	164	162	165	162	164	163	165
165	221	25	1.75	72.75	105	165	164	166	0	104	103	175	156	165	164	167	168	165	164	167
166	222	25	2	73	116	166	165	167	0	104	103	175	-156	165	164	167	-168	165	164	167
167	223	25	2.25	73.25	122	167	166	168	0	104	103	175	151	167	165	168	162	167	165	168
168	224	25	2.5	73.5	128	168	167	169	0	104	103	175	139	168	167	169	151	168	167	169
169	225	25	2.75	73.75	105	169	168	170	0	104	103	175	145	169	168	171	156	169	168	171
170	226	25	3	74	0	170	169	177	0	104	103	175	-145	169	168	171	-156	169	168	171
171	227	25	3.125	74.125	0	170	169	177	0	104	103	175	139	171	169	172	151	171	169	172
172	228	25	3.25	74.25	0	170	169	177	0	104	103	175	128	172	171	173	168	172	171	174
173	229	25	3.5	74.5	0	170	169	177	0	104	103	175	134	173	172	175	-168	172	171	174
174	230	25	3.75	74.75	0	170	169	177	0	104	103	175	-134	173	172	175	163	174	172	175
175	232	26	4	75	0	170	169	177	128	175	104	176	0	175	173	176	168	175	174	177
176	233	26	4.5	75.5	0	170	169	177	139	176	175	177	128	176	175	179	-168	175	174	177
177	234	26	5	76	105	177	170	181	145	177	176	178	-128	176	175	179	0	177	175	226
178	235	26	5.25	76.25	-105	177	170	181	156	178	177	180	-128	176	175	179	0	177	175	226
179	236	26	5.5	76.5	-105	177	170	181	-156	178	177	180	145	179	176	181	0	177	175	226
180	237	26	5.75	76.75	-105	177	170	181	145	180	178	181	-145	179	176	181	0	177	175	226
181	238	26	6	77	128	181	177	182	151	181	180	182	139	181	179	182	0	177	175	226
182	239	26	6.5	77.5	134	182	181	183	145	182	181	183	145	182	181	183	0	177	175	226
183	241	27	7	78	128	183	182	184	168	183	182	185	151	183	182	187	0	177	175	226
184	242	27	7.25	78.25	134	184	183	185	-168	183	182	185	-151	183	182	187	0	177	175	226
185	243	27	7.5	78.5	139	185	184	187	162	185	183	186	-151	183	182	187	0	177	175	226
186	244	27	7.75	78.75	-139	185	184	187	151	186	185	187	-151	183	182	187	0	177	175	226
187	245	27	8	79	134	187	185	189	156	187	186	188	145	187	183	189	0	177	175	226
188	246	27	8.25	79.25	-134	187	185	189	145	188	187	189	-145	187	183	189	0	177	175	226
189	247	27	8.5	79.5	128	189	187	190	139	189	188	190	156	189	187	191	0	177	175	226
190	248	27	8.75	79.75	145	190	189	192	145	190	189	191	-156	189	187	191	0	177	175	226
191	249	27	9	80	-145	190	189	192	128	191	190	193	151	191	189	192	0	177	175	226
192	250	27	9.25	80.25	139	192	190	193	-128	191	190	193	168	192	191	194	0	177	175	226
193	251	27	9.5	80.5	145	193	192	195	0	193	191	201	-168	192	191	194	0	177	175	226
194	252	27	9.75	80.75	-145	193	192	195	0	193	191	201	156	194	192	195	0	177	175	226
195	254	28	10	81	139	195	193	197	0	193	191	201	151	195	194	196	0	177	175	226
196	255	28	10.25	81.25	-139	195	193	197	0	193	191	201	162	196	195	198	0	177	175	226
197	256	28	10.5	81.5	134	197	195	198	0	193	191	201	-162	196	195	198	0	177	175	226
198	257	28	10.75	81.75	128	198	197	200	0	193	191	201	156	198	196	200	0	177	175	226
199	258	28	11	82	-128	198	197	200	0	193	191	201	-156	198	196	200	0	177	175	226
200	259	28	11.25	82.25	122	200	198	201	0	193	191	201	151	200	198	202	0	177	175	226
201	260	28	11.5	82.5	116	201	200	203	128	201	193	203	-151	200	198	202	0	177	175	226
202	261	28	11.75	82.75	-116	201	200	203	-128	201	193	203	145	202	200	203	0	177	175	226
203	262	28	12	83	111	203	201	205	134	203	201	204	151	203	202	205	0	177	175	226
204	263	28	12.5	83.5	-111	203	201	205	122	204	203	205	-151	203	202	205	0	177	175	226
205	265	29	1	84	0	205	203	207	128	205	204	206	0	205	203	206	0	177	175	226
206	266	29	1.5	84.5	0	205	203	207	139	206	205	207	168	206	205	208	0	177	175	226
207	267	29	2	85	111	207	205	211	134	207	206	210	-168	206	205	208	0	177	175	226
208	268	29	2.25	85.25	-111	207	205	211	-134	207	206	210	162	208	206	209	0	177	175	226
209	269	29	2.5	85.5	-111	207	205	211	-134	207	206	210	162	209	208	210	0	177	175	226
210	270	29	2.75	85.75	-111	207	205	211	139	210	207	211	156	210	209	211	0	177	175	226
211	271	29	3	86	105	211	207	213	145	211	210	213	156	211	210	212	0	177	175	226
212	272	29	3.75	86.75	-105	211	207	213	-145	211	210	213	151	212	211	213	0	177	175	226
213	274	30	4	87	128	213	211	216	151	213	211	214	139	213	212	214	0	177	175	226
214	275	30	4.5	87.5	-128	213	211	216	139	214	213	215	156	214	213	215	0	177	175	226
215	276	30	5.25	88.25	-128	213	211	216	128	215	214	216	151	215	214	216	0	177	175	226
216	277	30	5.5	88.5	122	216	213	217	134	216	215	217	151	216	215	217	0	177	175	226
217	278	30	6	89	116	217	216	218	128	217	216	218	145	217	216	218	0	177	175	226
218	279	30	6.5	89.5	128	218	217	220	139	218	217	220	139	218	217	219	0	177	175	226
219	281	31	7	90	-128	218	217	220	-139	218	217	220	151	219	218	222	0	177	175	226
220	282	31	7.25	90.25	122	220	218	221	134	220	218	221	-151	219	218	222	0	177	175	226
221	283	31	7.5	90.5	122	221	220	223	134	221	220	223	-151	219	218	222	0	177	175	226
222	284	31	7.75	90.75	-122	221	220	223	-134	221	220	223	145	222	219	223	0	177	175	226
223	285	31	8	91	105	223	221	225	145	223	221	224	134	223	222	224	0	177	175	226
224	286	31	8.25	91.25	-105	223	221	225	139	224	223	225	128	224	223	225	0	177	175	226
225	287	31	8.5	91.5	116	225	223	226	128	225	224	226	145	225	224	228	0	177	175	226
226	288	31	9	92	111	226	225	230	134	226	225	227	-145	225	224	228	162	226	177	230
227	289	31	9.25	92.25	-111	226	225	230	122	227	226	229	-145	225	224	228	-162	226	177	230
228	290	31	9.5	92.5	-111	226	225	230	-122	227	226	229	140	228	225	230	-162	226	177	230
229	291	31	9.75	92.75	-111	226	225	230	116	229	227	230	-140	228	225	230	-162	226	177	230
230	293	32	10	93	105	230	226	231	128	230	229	231	145	230	228	231	156	230	226	231
231	294	32	11	94	122	231	230	236	0	231	230	232	151	231	230	232	162	231	230	233
232	295	32	11.5	94.5	-122	231	230	236	134	232	231	235	145	232	231	234	-162	231	230	233
233	296	32	11.75	94.75	-122	231	230	236	-134	232	231	235	-145	232	231	234	168	233	231	234
234	297	32	12	95	-122	231	230	236	-134	232	231	235	162	234	232	236	174	234	233	236
235	298	32	12.5	95.5	-122	231	230	236	139	235	232	236	-162	234	232	236	-174	234	233	236
236	300	33	1	96	105	236	231	237	145	236	235	237	156	236	234	237	168	236	234	237
237	310	34	1	99	105	237	236	238	145	237	236	240	156	237	236	238	168	237	236	238
238	312	35	3	101	122	238	237	239	-145	237	236	240	162	238	237	239	174	238	237	239
239	313	35	4	102	116	239	238	240	-145	237	236	240	168	239	238	240	168	239	238	241
240	315	36	5	103	105	240	239	242	145	240	237	241	156	240	239	241	-168	239	238	241
241	316	36	6	104	-105	240	239	242	156	241	240	242	168	241	240	243	185	241	239	242
242	318	37	7	105	128	242	240	243	151	242	241	243	-168	241	240	243	179	242	241	243
243	319	37	8	106	134	243	242	244	145	243	242	244	162	243	241	244	185	243	242	244
244	321	38	1	107	128	244	243	249	139	244	243	245	0	244	243	246	191	244	243	249
245	322	38	1.5	107.5	-128	244	243	249	139	245	244	247	0	244	243	246	-191	244	243	249
246	323	38	2	108	-128	244	243	249	-139	245	244	247	168	246	244	250	-191	244	243	249
247	324	38	2.5	108.5	-128	244	243	249	134	247	245	248	-168	246	244	250	-191	244	243	249
248	325	38	2.75	108.75	-128	244	243	249	139	248	247	249	-168	246	244	250	-191	244	243	249
249	327	39	3	109	105	249	244	251	145	249	248	250	-168	246	244	250	196	249	244	252
250	328	39	4	110	-105	249	244	251	128	250	249	251	156	250	246	251	-196	249	244	252
251	330	40	5	111	0	251	249	253	134	251	250	252	145	251	250	252	-196	249	244	252
252	331	40	6	112	0	251	249	253	139	252	251	253	151	252	251	253	191	252	249	253
253	333	41	7	113	105	253	251	256	145	253	252	254	156	253	252	256	185	253	252	256
254	334	41	7.75	113.75	-105	253	251	256	134	254	253	255	-156	253	252	256	-185	253	252	256
255	335	41	8	114	-105	253	251	256	128	255	254	257	-156	253	252	256	-185	253	252	256
256	337	42	1	115	111	256	253	260	-128	255	254	257	151	256	253	260	179	256	253	260
257	338	42	1.5	115.5	-111	256	253	260	122	257	255	258	-151	256	253	260	-179	256	253	260
258	339	42	1.75	115.75	-111	256	253	260	116	258	257	259	-151	256	253	260	-179	256	253	260
259	340	42	2	116	-111	256	253	260	122	259	258	260	-151	256	253	260	-179	256	253	260
260	342	43	3	117	105	260	256	261	128	260	259	262	156	260	256	261	0	260	256	261
261	343	43	4	118	116	261	260	262	-128	260	259	262	168	261	260	262	185	261	260	263
262	345	44	5	119	122	262	261	264	0	262	260	265	162	262	261	264	-185	261	260	263
263	346	44	5.5	119.5	-122	262	261	264	0	262	260	265	-162	262	261	264	174	263	261	264
264	347	44	6	120	128	264	262	266	0	262	260	265	151	264	262	265	179	264	263	266
265	349	45	7	121	-128	264	262	266	128	265	262	268	168	265	264	268	-179	264	263	266
266	350	45	7.5	121.5	134	266	264	267	-128	265	262	268	-168	265	264	268	185	266	264	267
267	351	45	8	122	139	267	266	268	-128	265	262	268	-168	265	264	268	191	267	266	268
268	353	46	1	123	145	268	267	269	134	268	265	269	0	268	265	269	185	268	267	269
269	354	46	2	124	105	269	268	270	145	269	268	270	168	269	268	271	196	269	268	270
270	356	47	3	125	111	270	269	273	139	270	269	273	-168	269	268	271	191	270	269	272
271	357	47	3.5	125.5	-111	270	269	273	-139	270	269	273	162	271	269	272	-191	270	269	272
272	358	47	4	126	-111	270	269	273	-139	270	269	273	151	272	271	273	202	272	270	273
273	360	48	5	127	105	273	270	276	145	273	270	275	156	273	272	275	196	273	272	274
274	361	48	5.5	127.5	-105	273	270	276	-145	273	270	275	-156	273	272	275	185	274	273	275
275	362	48	6	128	-105	273	270	276	156	275	273	276	168	275	273	277	185	275	274	279
276	364	49	7	129	128	276	273	280	151	276	275	280	-168	275	273	277	-185	275	274	279
277	365	49	7.5	129.5	-128	276	273	280	-151	276	275	280	162	277	275	278	-185	275	274	279
278	366	49	7.75	129.75	-128	276	273	280	-151	276	275	280	156	278	277	279	-185	275	274	279
279	367	49	8	130	-128	276	273	280	-151	276	275	280	151	279	278	280	180	279	275	280
280	369	50	1	131	105	280	276	282	0	280	276	281	145	280	279	281	185	280	279	285
281	370	50	2	132	-105	280	276	282	145	281	280	284	156	281	280	283	-185	280	279	285
282	372	51	3	133	0	282	280	284	-145	281	280	284	-156	281	280	283	-185	280	279	285
283	373	51	3.5	133.5	0	282	280	284	-145	281	280	284	162	283	281	284	-185	280	279	285
284	374	51	4	134	145	284	282	285	156	284	281	285	168	284	283	287	-185	280	279	285
285	376	52	5	135	139	285	284	286	151	285	284	286	-168	284	283	287	0	285	280	288
286	377	52	6	136	128	286	285	287	139	286	285	287	-168	284	283	287	0	285	280	288
287	379	53	7	137	134	287	286	289	145	287	286	288	156	287	284	288	0	285	280	288
288	380	53	8	138	-134	287	286	289	134	288	287	289	162	288	287	289	185	288	285	289
289	382	54	1	139	128	289	287	291	139	289	288	293	168	289	288	290	179	289	288	291
290	383	54	1.5	139.5	-128	289	287	291	-139	289	288	293	156	290	289	291	-179	289	288	291
291	384	54	2	140	116	291	289	293	-139	289	288	293	0	291	290	292	168	291	289	293
292	385	54	2.5	140.5	-116	291	289	293	-139	289	288	293	156	292	291	293	-168	291	289	293
293	387	55	3	141	122	293	291	297	0	293	289	297	145	293	292	294	174	293	291	297
294	388	55	3.5	141.5	-122	293	291	297	0	293	289	297	151	294	293	295	-174	293	291	297
295	389	55	4.5	142.5	-122	293	291	297	0	293	289	297	145	295	294	296	-174	293	291	297
296	390	55	4.75	142.75	-122	293	291	297	0	293	289	297	151	296	295	297	-174	293	291	297
297	392	56	5	143	116	297	293	298	139	297	293	300	156	297	296	298	168	297	293	298
298	393	56	6	144	99	298	297	299	-139	297	293	300	151	298	297	299	162	298	297	299
299	394	56	6.5	144.5	116	299	298	301	-139	297	293	300	156	299	298	300	168	299	298	301
300	396	57	7	145	-116	299	298	301	128	300	297	301	145	300	299	302	-168	299	298	301
301	397	57	7.5	145.5	122	301	299	302	134	301	300	302	-145	300	299	302	156	301	299	302
302	398	57	8	146	128	302	301	304	139	302	301	304	0	302	300	303	151	302	301	304
303	399	57	8.5	146.5	-128	302	301	304	-139	302	301	304	139	303	302	304	-151	302	301	304
304	401	58	1	147	122	304	302	305	134	304	302	305	145	304	303	305	0	304	302	305
305	402	58	2	148	128	305	304	308	0	305	304	306	139	305	304	307	151	305	304	308
306	403	58	2.5	148.5	-128	305	304	308	128	306	305	309	-139	305	304	307	-151	305	304	308
307	404	58	2.75	148.75	-128	305	304	308	-128	306	305	309	128	307	305	308	-151	305	304	308
308	406	59	3	149	105	308	305	310	-128	306	305	309	134	308	307	309	145	308	305	310
309	407	59	3.5	149.5	-105	308	305	310	116	309	306	310	145	309	308	311	-145	308	305	310
310	408	59	4	150	111	310	308	312	122	310	309	312	-145	309	308	311	162	310	308	312
311	409	59	4.5	150.5	-111	310	308	312	-122	310	309	312	139	311	309	312	-162	310	308	312
312	411	60	5	151	105	312	310	313	128	312	310	313	145	312	311	313	156	312	310	313
313	412	60	6	152	122	313	312	314	134	313	312	314	151	313	312	314	162	313	312	314
314	414	61	7	153	105	314	313	315	128	314	313	316	156	314	313	317	168	314	313	317
315	415	61	7.5	153.5	116	315	314	317	-128	314	313	316	-156	314	313	317	-168	314	313	317
316	416	61	8	154	-116	315	314	317	145	316	314	318	-156	314	313	317	-168	314	313	317
317	417	61	8.5	154.5	122	317	315	318	-145	316	314	318	151	317	314	318	174	317	314	318
318	419	62	1	155	128	318	317	321	0	318	316	319	151	318	317	320	179	318	317	321
319	420	62	1.5	155.5	-128	318	317	321	139	319	318	320	-151	318	317	320	-179	318	317	321
320	421	62	2.5	156.5	-128	318	317	321	128	320	319	321	139	320	318	321	-179	318	317	321
321	423	63	3	157	122	321	318	323	134	321	320	323	145	321	320	322	174	321	318	323
322	424	63	3.5	157.5	-122	321	318	323	-134	321	320	323	151	322	321	323	-174	321	318	323
323	425	63	4	158	116	323	321	324	139	323	321	324	156	323	322	325	168	323	321	324
324	427	64	5	159	105	324	323	326	145	324	323	325	-156	323	322	325	0	324	323	325
325	428	64	6	160	-105	324	323	326	156	325	324	326	145	325	323	326	185	325	324	327
326	430	65	7	161	0	326	324	328	151	326	325	330	128	326	325	328	-185	325	324	327
327	431	65	7.5	161.5	0	326	324	328	-151	326	325	330	-128	326	325	328	179	327	325	328
328	432	65	8	162	128	328	326	330	-151	326	325	330	168	328	326	330	179	328	327	329
329	433	65	8.5	162.5	-128	328	326	330	-151	326	325	330	-168	328	326	330	174	329	328	330
330	435	66	1	163	134	330	328	332	145	330	326	333	0	330	328	331	185	330	329	332
331	436	66	1.5	163.5	-134	330	328	332	-145	330	326	333	156	331	330	332	-185	330	329	332
332	437	66	2.5	164.5	122	332	330	333	-145	330	326	333	162	332	331	333	174	332	330	333
333	439	67	3	165	128	333	332	335	0	333	330	334	156	333	332	334	179	333	332	335
334	440	67	3.5	165.5	-128	333	332	335	139	334	333	335	151	334	333	335	-179	333	332	335
335	441	67	4	166	122	335	333	336	134	335	334	337	162	335	334	338	185	335	333	336
336	442	67	4.5	166.5	111	336	335	338	-134	335	334	337	-162	335	334	338	191	336	335	338
337	444	68	5	167	-111	336	335	338	139	337	335	338	-162	335	334	338	-191	336	335	338
338	445	68	5.5	167.5	116	338	336	339	128	338	337	339	156	338	335	339	185	338	336	340
339	446	68	6	168	122	339	338	343	134	339	338	342	145	339	338	341	-185	338	336	340
340	447	68	6.25	168.25	-122	339	338	343	-134	339	338	342	-145	339	338	341	179	340	338	341
341	448	68	6.5	168.5	-122	339	338	343	-134	339	338	342	151	341	339	343	174	341	340	344
342	449	68	6.75	168.75	-122	339	338	343	139	342	339	343	-151	341	339	343	-174	341	340	344
343	451	69	7	169	105	343	339	346	145	343	342	346	156	343	341	346	-174	341	340	344
344	452	69	7.25	169.25	-105	343	339	346	-145	343	342	346	-156	343	341	346	168	344	341	345
345	453	69	7.5	169.5	-105	343	339	346	-145	343	342	346	-156	343	341	346	168	345	344	346
346	454	69	8	170	111	346	343	347	134	346	343	347	151	346	343	347	162	346	345	347
347	455	69	8.5	170.5	116	347	346	348	128	347	346	349	139	347	346	348	168	347	346	349
348	457	70	1	171	105	348	347	350	-128	347	346	349	145	348	347	350	-168	347	346	349
349	458	70	1.5	171.5	-105	348	347	350	134	349	347	350	-145	348	347	350	156	349	347	350
350	459	70	2	172	128	350	348	351	139	350	349	351	151	350	348	352	151	350	349	351
351	460	70	2.75	172.75	116	351	350	352	145	351	350	352	-151	350	348	352	156	351	350	352
352	462	71	3	173	111	352	351	353	151	352	351	353	0	352	350	353	162	352	351	353
353	463	71	3.5	173.5	105	353	352	355	156	353	352	354	156	353	352	355	168	353	352	354
354	464	71	4	174	-105	353	352	355	145	354	353	355	-156	353	352	355	174	354	353	355
355	465	71	4.5	174.5	99	355	353	357	151	355	354	357	162	355	353	356	179	355	354	358
356	467	72	5	175	-99	355	353	357	-151	355	354	357	168	356	355	358	-179	355	354	358
357	468	72	5.25	175.25	88	357	355	358	139	357	355	358	-168	356	355	358	-179	355	354	358
358	469	72	5.5	175.5	94	358	357	359	145	358	357	359	156	358	356	359	174	358	355	359
359	470	72	6	176	99	359	358	360	139	359	358	360	151	359	358	360	168	359	358	360
360	471	72	6.5	176.5	94	360	359	361	145	360	359	361	156	360	359	362	174	360	359	362
361	473	73	7	177	105	361	360	363	128	361	360	363	-156	360	359	362	-174	360	359	362
362	474	73	7.5	177.5	-105	361	360	363	-128	361	360	363	145	362	360	363	168	362	360	364
363	475	73	8	178	0	363	361	366	134	363	361	366	145	363	362	365	-168	362	360	364
364	476	73	8.5	178.5	0	363	361	366	-134	363	361	366	-145	363	362	365	163	364	362	366
365	477	73	8.75	178.75	0	363	361	366	-134	363	361	366	139	365	363	366	-163	364	362	366
366	479	74	1	179	128	366	363	367	128	366	363	367	151	366	365	367	168	366	364	367
367	490	75	3	181	0	367	366	413	0	367	366	-1	168	367	366	368	168	367	366	368
368	492	76	5	183	0	367	366	413	0	367	366	-1	174	368	367	369	185	368	367	369
369	493	76	6.5	184.5	0	367	366	413	0	367	366	-1	168	369	368	370	179	369	368	370
370	494	76	6.75	184.75	0	367	366	413	0	367	366	-1	162	370	369	371	174	370	369	371
371	496	77	7	185	0	367	366	413	0	367	366	-1	168	371	370	372	179	371	370	372
372	497	77	8	186	0	367	366	413	0	367	366	-1	145	372	371	373	185	372	371	374
373	498	77	8.5	186.5	0	367	366	413	0	367	366	-1	156	373	372	374	-185	372	371	374
374	500	78	1	187	0	367	366	413	0	367	366	-1	162	374	373	375	191	374	372	376
375	501	78	1.5	187.5	0	367	366	413	0	367	366	-1	168	375	374	377	-191	374	372	376
376	502	78	2	188	0	367	366	413	0	367	366	-1	-168	375	374	377	196	376	374	383
377	503	78	2.25	188.25	0	367	366	413	0	367	366	-1	162	377	375	378	-196	376	374	383
378	504	78	2.5	188.5	0	367	366	413	0	367	366	-1	156	378	377	379	-196	376	374	383
379	505	78	2.75	188.75	0	367	366	413	0	367	366	-1	151	379	378	380	-196	376	374	383
380	507	79	3	189	0	367	366	413	0	367	366	-1	145	380	379	381	-196	376	374	383
381	508	79	4	190	0	367	366	413	0	367	366	-1	134	381	380	382	-196	376	374	383
382	509	79	4.5	190.5	0	367	366	413	0	367	366	-1	128	382	381	384	-196	376	374	383
383	511	80	5	191	0	367	366	413	0	367	366	-1	-128	382	381	384	191	383	376	385
384	512	80	5.5	191.5	0	367	366	413	0	367	366	-1	139	384	382	385	-191	383	376	385
385	513	80	6	192	0	367	366	413	0	367	366	-1	145	385	384	386	196	385	383	386
386	514	80	6.5	192.5	0	367	366	413	0	367	366	-1	134	386	385	387	202	386	385	388
387	516	81	7	193	0	367	366	413	0	367	366	-1	139	387	386	390	-202	386	385	388
388	517	81	7.25	193.25	0	367	366	413	0	367	366	-1	-139	387	386	390	196	388	386	389
389	518	81	7.5	193.5	0	367	366	413	0	367	366	-1	-139	387	386	390	191	389	388	390
390	519	81	7.75	193.75	0	367	366	413	0	367	366	-1	134	390	387	391	185	390	389	391
391	520	81	8	194	0	367	366	413	0	367	366	-1	145	391	390	392	196	391	390	392
392	521	81	8.5	194.5	0	367	366	413	0	367	366	-1	128	392	391	394	191	392	391	393
393	522	81	8.75	194.75	0	367	366	413	0	367	366	-1	-128	392	391	394	196	393	392	394
394	524	82	1	195	0	367	366	413	0	367	366	-1	139	394	392	395	191	394	393	395
395	525	82	1.5	195.5	0	367	366	413	0	367	366	-1	145	395	394	396	185	395	394	397
396	526	82	2	196	0	367	366	413	0	367	366	-1	151	396	395	398	-185	395	394	397
397	527	82	2.5	196.5	0	367	366	413	0	367	366	-1	-151	396	395	398	180	397	395	398
398	529	83	3	197	0	367	366	413	0	367	366	-1	145	398	396	400	185	398	397	399
399	530	83	3.75	197.75	0	367	366	413	0	367	366	-1	-145	398	396	400	191	399	398	400
400	531	83	4	198	0	367	366	413	0	367	366	-1	0	400	398	401	196	400	399	401
401	533	84	5	199	0	367	366	413	0	367	366	-1	139	401	400	403	191	401	400	402
402	534	84	5.5	199.5	0	367	366	413	0	367	366	-1	-139	401	400	403	179	402	401	404
403	535	84	6	200	0	367	366	413	0	367	366	-1	156	403	401	405	-179	402	401	404
404	536	84	6.5	200.5	0	367	366	413	0	367	366	-1	-156	403	401	405	185	404	402	405
405	538	85	7	201	0	367	366	413	0	367	366	-1	151	405	403	406	179	405	404	406
406	539	85	7.5	201.5	0	367	366	413	0	367	366	-1	156	406	405	407	185	406	405	408
407	540	85	8	202	0	367	366	413	0	367	366	-1	162	407	406	409	-185	406	405	408
408	541	85	8.25	202.25	0	367	366	413	0	367	366	-1	-162	407	406	409	179	408	406	409
409	542	85	8.5	202.5	0	367	366	413	0	367	366	-1	168	409	407	411	168	409	408	410
410	544	86	1	203	0	367	366	413	0	367	366	-1	-168	409	407	411	174	410	409	412
411	545	86	1.5	203.5	0	367	366	413	0	367	366	-1	163	411	409	412	-174	410	409	412
412	546	86	2	204	0	367	366	413	0	367	366	-1	168	412	411	413	168	412	410	413
413	556	87	3	205	128	413	367	414	0	367	366	-1	168	413	412	414	0	413	412	423
414	557	87	4	206	134	414	413	415	0	367	366	-1	162	414	413	415	0	413	412	423
415	558	87	4.5	206.5	139	415	414	416	0	367	366	-1	151	415	414	416	0	413	412	423
416	560	88	5	207	116	416	415	417	0	367	366	-1	156	416	415	417	0	413	412	423
417	561	88	5.5	207.5	122	417	416	419	0	367	366	-1	151	417	416	418	0	413	412	423
418	562	88	5.75	207.75	-122	417	416	419	0	367	366	-1	145	418	417	419	0	413	412	423
419	563	88	6	208	128	419	417	420	0	367	366	-1	139	419	418	420	0	413	412	423
420	564	88	6.5	208.5	105	420	419	422	0	367	366	-1	145	420	419	421	0	413	412	423
421	566	89	7	209	-105	420	419	422	0	367	366	-1	128	421	420	423	0	413	412	423
422	567	89	7.5	209.5	128	422	420	424	0	367	366	-1	-128	421	420	423	0	413	412	423
423	568	89	8	210	-128	422	420	424	0	367	366	-1	134	423	421	425	185	423	413	425
424	569	89	8.5	210.5	122	424	422	425	0	367	366	-1	-134	423	421	425	-185	423	413	425
425	571	90	1	211	128	425	424	427	0	367	366	-1	128	425	423	428	179	425	423	426
426	572	90	1.5	211.5	-128	425	424	427	0	367	366	-1	-128	425	423	428	168	426	425	428
427	573	90	1.75	211.75	116	427	425	428	0	367	366	-1	-128	425	423	428	-168	426	425	428
428	574	90	2	212	121	428	427	429	0	367	366	-1	0	428	425	429	174	428	426	429
429	575	90	2.5	212.5	105	429	428	432	0	367	366	-1	145	429	428	432	168	429	428	430
430	576	90	2.75	212.75	-105	429	428	432	0	367	366	-1	-145	429	428	432	162	430	429	431
431	578	91	3	213	-105	429	428	432	0	367	366	-1	-145	429	428	432	156	431	430	432
432	579	91	3.5	213.5	99	432	429	433	0	367	366	-1	151	432	429	433	161	432	431	433
433	580	91	4	214	105	433	432	435	0	367	366	-1	156	433	432	434	145	433	432	435
434	581	91	4.5	214.5	-105	433	432	435	0	367	366	-1	145	434	433	436	-145	433	432	435
435	583	92	5	215	128	435	433	437	0	367	366	-1	-145	434	433	436	151	435	433	437
436	584	92	5.5	215.5	-128	435	433	437	0	367	366	-1	139	436	434	437	-151	435	433	437
437	585	92	6	216	0	437	435	438	0	367	366	-1	145	437	436	439	145	437	435	439
438	586	92	6.5	216.5	134	438	437	440	0	367	366	-1	-145	437	436	439	-145	437	435	439
439	588	93	7	217	-134	438	437	440	0	367	366	-1	0	439	437	440	156	439	437	441
440	589	93	7.5	217.5	128	440	438	441	0	367	366	-1	139	440	439	441	-156	439	437	441
441	590	93	8	218	134	441	440	442	0	367	366	-1	145	441	440	442	162	441	439	443
442	591	93	8.5	218.5	139	442	441	443	0	367	366	-1	151	442	441	443	-162	441	439	443
443	593	94	1	219	128	443	442	444	0	367	366	-1	156	443	442	450	168	443	441	448
444	594	94	1.5	219.5	145	444	443	445	0	367	366	-1	-156	443	442	450	-168	443	441	448
445	595	94	2.25	220.25	139	445	444	446	0	367	366	-1	-156	443	442	450	-168	443	441	448
446	596	94	2.375	220.375	134	446	445	447	0	367	366	-1	-156	443	442	450	-168	443	441	448
447	597	94	2.5	220.5	128	447	446	448	0	367	366	-1	-156	443	442	450	-168	443	441	448
448	599	95	3	221	134	448	447	449	0	367	366	-1	-156	443	442	450	145	448	443	450
449	600	95	3.75	221.75	128	449	448	450	0	367	366	-1	-156	443	442	450	-145	448	443	450
450	601	95	4	222	116	450	449	451	0	367	366	-1	156	450	443	451	168	450	448	451
451	603	96	5	223	111	451	450	452	0	367	366	-1	162	451	450	452	174	451	450	452
452	604	96	5.5	223.5	116	452	451	454	0	367	366	-1	156	452	451	455	168	452	451	453
453	605	96	6	224	-116	452	451	454	0	367	366	-1	-156	452	451	455	162	453	452	456
454	606	96	6.25	224.25	105	454	452	455	0	367	366	-1	-156	452	451	455	-162	453	452	456
455	607	96	6.5	224.5	111	455	454	456	0	367	366	-1	151	455	452	456	-162	453	452	456
456	609	97	7	225	116	456	455	457	0	367	366	-1	145	456	455	457	156	456	453	457
457	610	97	7.5	225.5	99	457	456	458	0	367	366	-1	139	457	456	458	151	457	456	458
458	611	97	8	226	0	458	457	459	0	367	366	-1	145	458	457	459	156	458	457	459
459	612	97	8.5	226.5	116	459	458	460	0	367	366	-1	139	459	458	461	168	459	458	460
460	614	98	1	227	111	460	459	461	0	367	366	-1	-139	459	458	461	162	460	459	461
461	615	98	1.5	227.5	116	461	460	462	0	367	366	-1	128	461	459	462	156	461	460	463
462	616	98	2	228	105	462	461	463	0	367	366	-1	134	462	461	463	-156	461	460	463
463	617	98	2.5	228.5	111	463	462	464	0	367	366	-1	122	463	462	464	174	463	461	464
464	619	99	3	229	116	464	463	466	0	367	366	-1	116	464	463	465	168	464	463	466
465	620	99	3.5	229.5	-116	464	463	466	0	367	366	-1	139	465	464	469	-168	464	463	466
466	621	99	3.75	229.75	111	466	464	467	0	367	366	-1	-139	465	464	469	162	466	464	467
467	622	99	3.875	229.875	105	467	466	468	0	367	366	-1	-139	465	464	469	156	467	466	468
468	623	99	4	230	99	468	467	469	0	367	366	-1	-139	465	464	469	151	468	467	469
469	624	99	4.5	230.5	105	469	468	472	0	367	366	-1	128	469	465	471	156	469	468	472
470	626	100	5	231	-105	469	468	472	0	367	366	-1	-128	469	465	471	-156	469	468	472
471	627	100	5.25	231.25	-105	469	468	472	0	367	366	-1	134	471	469	473	-156	469	468	472
472	628	100	5.5	231.5	111	472	469	477	0	367	366	-1	-134	471	469	473	162	472	469	477
473	629	100	5.625	231.625	-111	472	469	477	0	367	366	-1	128	473	471	474	-162	472	469	477
474	630	100	5.75	231.75	-111	472	469	477	0	367	366	-1	122	474	473	475	-162	472	469	477
475	631	100	5.875	231.875	-111	472	469	477	0	367	366	-1	116	475	474	476	-162	472	469	477
476	632	100	6	232	-111	472	469	477	0	367	366	-1	111	476	475	478	-162	472	469	477
477	633	100	6.25	232.25	99	477	472	478	0	367	366	-1	-111	476	475	478	168	477	472	478
478	634	100	6.5	232.5	94	478	477	479	0	367	366	-1	116	478	476	479	174	478	477	479
479	636	101	7	233	116	479	478	482	0	367	366	-1	128	479	478	482	168	479	478	480
480	637	101	7.25	233.25	-116	479	478	482	0	367	366	-1	-128	479	478	482	156	480	479	481
481	638	101	7.5	233.5	-116	479	478	482	0	367	366	-1	-128	479	478	482	156	481	480	483
482	639	101	8	234	99	482	479	484	0	367	366	-1	122	482	479	484	-156	481	480	483
483	640	101	8.5	234.5	-99	482	479	484	0	367	366	-1	-122	482	479	484	152	483	481	484
484	642	102	1	235	0	484	482	485	0	367	366	-1	116	484	482	486	156	484	483	487
485	643	102	1.5	235.5	105	485	484	487	0	367	366	-1	-116	484	482	486	-156	484	483	487
486	644	102	2	236	-105	485	484	487	0	367	366	-1	0	486	484	488	-156	484	483	487
487	645	102	2.5	236.5	99	487	485	488	0	367	366	-1	0	486	484	488	151	487	484	488
488	647	103	3	237	105	488	487	489	0	367	366	-1	128	488	486	490	156	488	487	490
489	648	103	3.5	237.5	116	489	488	490	0	367	366	-1	-128	488	486	490	-156	488	487	490
490	649	103	4	238	111	490	489	492	0	367	366	-1	134	490	488	491	162	490	488	492
491	650	103	4.5	238.5	-111	490	489	492	0	367	366	-1	139	491	490	493	-162	490	488	492
492	652	104	5	239	105	492	490	495	0	367	366	-1	-139	491	490	493	168	492	490	494
493	653	104	5.25	239.25	-105	492	490	495	0	367	366	-1	145	493	491	494	-168	492	490	494
494	654	104	5.5	239.5	-105	492	490	495	0	367	366	-1	145	494	493	496	156	494	492	495
495	655	104	6	240	128	495	492	497	0	367	366	-1	-145	494	493	496	151	495	494	497
496	656	104	6.5	240.5	-128	495	492	497	0	367	366	-1	139	496	494	497	-151	495	494	497
497	658	105	7	241	0	497	495	498	0	367	366	-1	145	497	496	499	145	497	495	500
498	659	105	7.5	241.5	134	498	497	501	0	367	366	-1	-145	497	496	499	-145	497	495	500
499	660	105	7.75	241.75	-134	498	497	501	0	367	366	-1	151	499	497	500	-145	497	495	500
500	661	105	8	242	-134	498	497	501	0	367	366	-1	156	500	499	503	0	500	497	502
501	662	105	8.5	242.5	128	501	498	502	0	367	366	-1	-156	500	499	503	0	500	497	502
502	664	106	1	243	116	502	501	503	0	367	366	-1	-156	500	499	503	185	502	500	506
503	665	106	1.5	243.5	134	503	502	505	0	367	366	-1	145	503	500	504	-185	502	500	506
504	666	106	2	244	-134	503	502	505	0	367	366	-1	156	504	503	505	-185	502	500	506
505	667	106	2.5	244.5	122	505	503	506	0	367	366	-1	162	505	504	506	-185	502	500	506
506	669	107	3	245	128	506	505	509	0	367	366	-1	151	506	505	507	179	506	502	508
507	670	107	3.5	245.5	-128	506	505	509	0	367	366	-1	168	507	506	509	-179	506	502	508
508	671	107	3.75	245.75	-128	506	505	509	0	367	366	-1	-168	507	506	509	185	508	506	509
509	672	107	4	246	139	509	506	510	0	367	366	-1	0	509	507	510	191	509	508	510
510	673	107	4.5	246.5	145	510	509	511	0	367	366	-1	168	510	509	511	196	510	509	512
511	675	108	5	247	134	511	510	514	0	367	366	-1	174	511	510	512	-196	510	509	512
512	676	108	5.5	247.5	-134	511	510	514	0	367	366	-1	162	512	511	514	191	512	510	513
513	677	108	5.75	247.75	-134	511	510	514	0	367	366	-1	-162	512	511	514	185	513	512	514
514	678	108	6	248	128	514	511	515	0	367	366	-1	168	514	512	515	179	514	513	515
515	679	108	6.5	248.5	134	515	514	517	0	367	366	-1	156	515	514	516	185	515	514	517
516	681	109	7	249	-134	515	514	517	0	367	366	-1	145	516	515	517	-185	515	514	517
517	682	109	7.5	249.5	122	517	515	518	0	367	366	-1	151	517	516	519	174	517	515	518
518	683	109	8	250	128	518	517	520	0	367	366	-1	-151	517	516	519	179	518	517	520
519	684	109	8.5	250.5	-128	518	517	520	0	367	366	-1	139	519	517	520	-179	518	517	520
520	686	110	1	251	116	520	518	521	0	367	366	-1	145	520	519	521	168	520	518	521
521	687	110	1.5	251.5	122	521	520	522	0	367	366	-1	134	521	520	522	174	521	520	522
522	688	110	2	252	116	522	521	523	0	367	366	-1	128	522	521	524	179	522	521	523
523	689	110	2.5	252.5	105	523	522	525	0	367	366	-1	-128	522	521	524	185	523	522	524
524	691	111	3	253	-105	523	522	525	0	367	366	-1	0	524	522	525	168	524	523	526
525	692	111	3.5	253.5	0	525	523	526	0	367	366	-1	168	525	524	527	-168	524	523	526
526	693	111	4	254	145	526	525	529	0	367	366	-1	-168	525	524	527	156	526	524	528
527	694	111	4.25	254.25	-145	526	525	529	0	367	366	-1	162	527	525	528	-156	526	524	528
528	695	111	4.5	254.5	-145	526	525	529	0	367	366	-1	168	528	527	531	151	528	526	531
529	696	111	4.75	254.75	139	529	526	530	0	367	366	-1	-168	528	527	531	-151	528	526	531
530	698	112	5	255	139	530	529	531	0	367	366	-1	-168	528	527	531	-151	528	526	531
531	699	112	5.5	255.5	134	531	530	532	0	367	366	-1	162	531	528	532	145	531	528	533
532	700	112	6	256	145	532	531	534	0	367	366	-1	156	532	531	533	-145	531	528	533
533	701	112	6.5	256.5	-145	532	531	534	0	367	366	-1	168	533	532	535	156	533	531	536
534	703	113	7	257	105	534	532	536	0	367	366	-1	-168	533	532	535	-156	533	531	536
535	704	113	7.25	257.25	-105	534	532	536	0	367	366	-1	145	535	533	536	-156	533	531	536
536	705	113	7.5	257.5	99	536	534	540	0	367	366	-1	151	536	535	537	162	536	533	540
537	706	113	7.625	257.625	-99	536	534	540	0	367	366	-1	145	537	536	538	-162	536	533	540
538	707	113	7.75	257.75	-99	536	534	540	0	367	366	-1	139	538	537	539	-162	536	533	540
539	708	113	7.875	257.875	-99	536	534	540	0	367	366	-1	134	539	538	540	-162	536	533	540
540	709	113	8	258	116	540	536	542	0	367	366	-1	128	540	539	541	168	540	536	542
541	710	113	8.5	258.5	-116	540	536	542	0	367	366	-1	145	541	540	544	-168	540	536	542
542	711	113	8.75	258.75	105	542	540	543	0	367	366	-1	-145	541	540	544	156	542	540	543
543	713	114	1	259	116	543	542	545	0	367	366	-1	-145	541	540	544	168	543	542	545
544	714	114	1.25	259.25	-116	543	542	545	0	367	366	-1	128	544	541	545	-168	543	542	545
545	715	114	1.5	259.5	122	545	543	546	0	367	366	-1	145	545	544	546	174	545	543	546
546	716	114	2	260	128	546	545	547	0	367	366	-1	139	546	545	547	179	546	545	547
547	717	114	2.5	260.5	105	547	546	548	0	367	366	-1	145	547	546	548	168	547	546	549
548	719	115	1	261	128	548	547	549	0	367	366	-1	156	548	547	549	-168	547	546	549
549	720	115	1.5	261.5	134	549	548	550	0	367	366	-1	145	549	548	550	185	549	547	551
550	721	115	2	262	128	550	549	552	0	367	366	-1	151	550	549	552	-185	549	547	551
551	722	115	2.5	262.5	-128	550	549	552	0	367	366	-1	-151	550	549	552	179	551	549	552
552	724	116	1	263	105	552	550	553	0	367	366	-1	145	552	550	553	185	552	551	553
553	727	117	1	265	0	553	552	-1	0	367	366	-1	0	553	552	-1	0	553	552	-1
